// Jest Snapshot v1, https://goo.gl/fbAQLP

exports[`Checkbox with onChange should render correctly 1`] = `
<div
  className="gaf-checkbox gaf-form-control"
>
  <label
    className="control control-checkbox"
  >
    <span
      dangerouslySetInnerHTML={
        Object {
          "__html": "item",
        }
      }
    />
    <input
      checked={false}
      onChange={[MockFunction]}
      type="checkbox"
    />
    <div
      className="indicator"
    />
  </label>
</div>
`;

exports[`Checkbox without onChange should render correctly 1`] = `
<div
  className="gaf-checkbox gaf-form-control"
>
  <label
    className="control control-checkbox"
  >
    <span
      dangerouslySetInnerHTML={
        Object {
          "__html": "item",
        }
      }
    />
    <input
      checked={false}
      onChange={[Function]}
      type="checkbox"
    />
    <div
      className="indicator"
    />
  </label>
</div>
`;
