// Jest Snapshot v1, https://goo.gl/fbAQLP

exports[`<TypeAhead /> snapshot should render correctly 1`] = `
<Fragment>
  <section
    className="GAF-auto-suggesion-noresult text-danger"
  >
    No Result Found
  </section>
</Fragment>
`;

exports[`TypeAhead with empty list should render correctly 1`] = `
<Fragment>
  <span
    className="GAF-auto-suggesion-noresult text-danger"
  >
    No Result Found
  </span>
</Fragment>
`;
