<?xml version="1.0" standalone="no"?>
<!DOCTYPE svg PUBLIC "-//W3C//DTD SVG 1.1//EN" "http://www.w3.org/Graphics/SVG/1.1/DTD/svg11.dtd" >
<svg xmlns="http://www.w3.org/2000/svg" xmlns:xlink="http://www.w3.org/1999/xlink" version="1.1">
<metadata>
Created by FontForge 20161013 at Fri Feb  8 00:33:11 2002
 By ,,,
Copyright (c) 1993, 1994, 2001 Adobe Systems Incorporated.  All Rights Reserved.
</metadata>
<defs>
<font id="ITCAvantGardeStd-Bk" horiz-adv-x="555" >
  <font-face 
    font-family="ITC Avant Garde Std Bk"
    font-weight="300"
    font-stretch="normal"
    units-per-em="1000"
    panose-1="2 11 5 2 2 2 2 2 2 4"
    ascent="740"
    descent="-260"
    x-height="538"
    cap-height="740"
    bbox="-131 -271 1120 968"
    underline-thickness="50"
    underline-position="-200"
    unicode-range="U+0020-FB02"
  />
<missing-glyph horiz-adv-x="500" 
d="M0 0v700h500v-700h-500zM250 395l170 255h-340zM280 350l170 -255v510zM80 50h340l-170 255zM50 605v-510l170 255z" />
    <glyph glyph-name="fi" unicode="fi" horiz-adv-x="462" 
d="M316 479h-158v-479h-73v479h-79v59h79v44q0 171 189 171v-59q-19 -1 -27 -2t-28.5 -7.5t-31 -17.5t-20 -35t-9.5 -57v-37h232v-538h-74v479zM390 637h-74v103h74v-103z" />
    <glyph glyph-name="fl" unicode="fl" horiz-adv-x="462" 
d="M316 479h-158v-479h-73v479h-79v59h79v44q0 171 189 171v-59q-19 -1 -27 -2t-28.5 -7.5t-31 -17.5t-20 -35t-9.5 -57v-37h158v202h74v-740h-74v479z" />
    <glyph glyph-name=".notdef" horiz-adv-x="500" 
d="M0 0v700h500v-700h-500zM250 395l170 255h-340zM280 350l170 -255v510zM80 50h340l-170 255zM50 605v-510l170 255z" />
    <glyph glyph-name=".null" horiz-adv-x="0" 
 />
    <glyph glyph-name="nonmarkingreturn" horiz-adv-x="333" 
 />
    <glyph glyph-name="space" unicode=" " horiz-adv-x="288" 
 />
    <glyph glyph-name="exclam" unicode="!" horiz-adv-x="284" 
d="M180 740v-548h-76v548h76zM180 110v-110h-76v110h76z" />
    <glyph glyph-name="quotedbl" unicode="&#x22;" horiz-adv-x="376" 
d="M149 444h-61v296h61v-296zM288 444h-61v296h61v-296z" />
    <glyph glyph-name="numbersign" unicode="#" horiz-adv-x="576" 
d="M385 258l-31 -218h-53l30 218h-121l-30 -218h-55l31 218h-134l5 52h136l16 116h-134l5 52h137l28 200h54l-28 -200h121l28 200h54l-28 -200h138l-5 -52h-141l-16 -116h138l-5 -52h-140zM338 310l17 116h-121l-17 -116h121z" />
    <glyph glyph-name="dollar" unicode="$" horiz-adv-x="576" 
d="M324 810v-87q73 -11 112.5 -59t41.5 -112h-72q-6 54 -40.5 82.5t-73.5 28.5q-45 0 -78.5 -32t-33.5 -83q0 -24 8.5 -43.5t19.5 -31.5t35 -23.5t40 -17t50 -16.5q162 -55 162 -189q0 -69 -47 -125t-124 -68v-97h-65v97q-78 8 -126 62.5t-51 129.5h77q4 -63 43.5 -97
t89.5 -34q53 0 89.5 37t36.5 89q0 28 -10.5 51t-24 36.5t-40 26.5t-44 19t-50.5 16q-146 44 -146 172q0 73 44 121t112 60v87h65z" />
    <glyph glyph-name="percent" unicode="%" horiz-adv-x="765" 
d="M27 585v1q0 71 48.5 119.5t119.5 48.5q72 0 120.5 -48.5t48.5 -120.5t-48.5 -120.5t-120.5 -48.5q-71 0 -119.5 48.5t-48.5 120.5zM82 585v-1q0 -49 32 -81.5t81 -32.5t81 32.5t32 82.5t-32 82.5t-81 32.5t-81 -32.5t-32 -82.5zM401 155v1q0 71 48.5 119.5t120.5 48.5
q71 0 119.5 -48.5t48.5 -120.5t-48.5 -120.5t-119.5 -48.5q-72 0 -120.5 48.5t-48.5 120.5zM456 155v-1q0 -49 32 -81.5t82 -32.5q49 0 81 32.5t32 82.5t-32 83t-81 33q-50 0 -82 -33t-32 -83zM615 740l-408 -740h-59l407 740h60z" />
    <glyph glyph-name="ampersand" unicode="&#x26;" horiz-adv-x="733" 
d="M591 456h79l-131 -249l166 -169l-52 -50l-153 157q-41 -81 -90.5 -120t-133.5 -39q-98 0 -160.5 62.5t-62.5 147.5q0 139 178 222q-31 33 -47 53t-30 50.5t-15 63.5q0 69 49.5 118.5t122.5 49.5t123.5 -49.5t50.5 -118.5q0 -36 -12 -64t-37 -49t-44.5 -32.5t-53.5 -28.5
l151 -154zM312 689h-1q-44 0 -71.5 -30t-27.5 -69q0 -12 2.5 -23.5t8 -22.5t10 -19t15 -19.5t15 -16.5t16.5 -17.5t15 -15.5q68 33 94.5 58.5t26.5 71.5q0 42 -29 72.5t-74 30.5zM449 194l-171 177q-79 -37 -111.5 -79t-33.5 -91q1 -59 42 -101t105 -42q61 0 98 32.5
t71 103.5z" />
    <glyph glyph-name="quotesingle" unicode="'" horiz-adv-x="229" 
d="M145 444h-61v296h61v-296z" />
    <glyph glyph-name="parenleft" unicode="(" horiz-adv-x="441" 
d="M405 753v-84q-98 -56 -166 -171.5t-68 -255.5q0 -139 67.5 -254.5t166.5 -172.5v-86q-151 78 -233 216t-82 298q0 157 84.5 299.5t230.5 210.5z" />
    <glyph glyph-name="parenright" unicode=")" horiz-adv-x="441" 
d="M36 -271v84q98 57 165.5 172t67.5 256q0 138 -67 254t-166 173v85q151 -78 232.5 -215.5t81.5 -297.5q0 -158 -84 -300.5t-230 -210.5z" />
    <glyph glyph-name="asterisk" unicode="*" horiz-adv-x="605" 
d="M330 740l-10 -133l110 76l26 -48l-118 -56l119 -58l-27 -48l-111 76l11 -133h-55l11 134l-109 -77l-29 49l120 57l-120 55l28 49l110 -76l-11 133h55z" />
    <glyph glyph-name="plus" unicode="+" horiz-adv-x="600" 
d="M336 503v-216h215v-72h-215v-215h-72v215h-215v72h215v216h72z" />
    <glyph glyph-name="comma" unicode="," horiz-adv-x="289" 
d="M185 111l-75 -186h-67l63 186h79z" />
    <glyph glyph-name="hyphen" unicode="-" horiz-adv-x="271" 
d="M0 317h271v-73h-271v73z" />
    <glyph glyph-name="period" unicode="." horiz-adv-x="289" 
d="M184 110v-110h-78v110h78z" />
    <glyph glyph-name="slash" unicode="/" horiz-adv-x="543" 
d="M69 -100l322 840h83l-322 -840h-83z" />
    <glyph glyph-name="zero" unicode="0" horiz-adv-x="576" 
d="M37 237v260q0 61 19.5 108.5t47.5 74.5t64 44.5t65 23t54 5.5q62 0 118 -26.5t94.5 -85t38.5 -138.5v-266q0 -69 -26.5 -120.5t-67.5 -78t-80 -39t-74 -12.5q-30 0 -62.5 7.5t-67 26t-61.5 46t-44.5 72t-17.5 98.5zM120 501v-266q0 -77 48 -126t120 -49q64 0 116 47
t52 128v270q0 23 -5.5 46.5t-18.5 47t-31.5 41t-48.5 29t-66 11.5q-73 0 -119.5 -49.5t-46.5 -129.5z" />
    <glyph glyph-name="one" unicode="1" horiz-adv-x="576" 
d="M258 0v669h-149v71h232v-740h-83z" />
    <glyph glyph-name="two" unicode="2" horiz-adv-x="576" 
d="M55 0v67q36 35 77 75t90.5 88t76.5 75q76 72 100 104q41 55 44 113q0 71 -43 114.5t-109 43.5t-107.5 -48.5t-43.5 -131.5h-79q3 113 64 178q62 75 174 75q101 0 164.5 -65t61.5 -162q-2 -57 -28.5 -104t-84.5 -108q-162 -162 -244 -243h359v-71h-472z" />
    <glyph glyph-name="three" unicode="3" horiz-adv-x="576" 
d="M163 565h-81q2 63 35 107.5t75.5 62.5t89.5 18q81 0 136.5 -50.5t55.5 -131.5q0 -103 -102 -156q46 -16 78 -42.5t46 -57t19.5 -53.5t5.5 -45q0 -101 -69 -165.5t-174 -64.5q-57 0 -109.5 23.5t-85.5 66.5q-44 59 -46 140h83q3 -71 50 -114t111 -43q71 0 114 46t43 113
q0 63 -47.5 110.5t-126.5 47.5h-49v64h37q71 0 105.5 39t34.5 82q0 51 -30.5 84.5t-80.5 33.5q-54 0 -84.5 -34t-33.5 -81z" />
    <glyph glyph-name="four" unicode="4" horiz-adv-x="576" 
d="M374 0v139h-366v63l361 538h85v-534h78v-67h-78v-139h-80zM94 206h284v434z" />
    <glyph glyph-name="five" unicode="5" horiz-adv-x="576" 
d="M133 740h357v-71h-293l-42 -220q66 46 140 46q109 0 177.5 -76t68.5 -174q0 -104 -74 -181.5t-186 -77.5q-94 0 -169.5 60.5t-88.5 164.5h83q11 -69 62 -110t112 -41q72 0 125 53.5t53 128.5q0 76 -52.5 130t-126.5 54q-87 0 -145 -79l-68 17z" />
    <glyph glyph-name="six" unicode="6" horiz-adv-x="576" 
d="M304 740h94l-148 -215q-6 -10 -18.5 -28t-16.5 -24q39 26 94 26q96 0 167 -69t71 -181q0 -109 -74 -185.5t-184 -76.5q-130 0 -200 88q-60 68 -60 168q0 93 65 190zM111 239v-1q0 -75 49 -126.5t126 -51.5t127.5 53t50.5 129q0 84 -52.5 134t-121.5 50q-67 0 -123 -48.5
t-56 -138.5z" />
    <glyph glyph-name="seven" unicode="7" horiz-adv-x="576" 
d="M80 740h422v-66l-307 -674h-89l310 669h-336v71z" />
    <glyph glyph-name="eight" unicode="8" horiz-adv-x="576" 
d="M85 569v1q0 74 57 128.5t146 54.5t145.5 -54t56.5 -130q0 -52 -28 -93t-68 -61q61 -22 96.5 -75.5t37.5 -121.5q-2 -98 -70.5 -164.5t-169.5 -66.5q-102 0 -170 66t-70 165q1 68 36 121t97 76q-40 20 -68 61t-28 93zM166 563v-1q0 -50 35.5 -85t86.5 -35q50 0 85.5 35
t35.5 86t-35.5 86.5t-85.5 35.5q-51 0 -86.5 -35t-35.5 -87zM130 218v-1q0 -65 45.5 -111t112.5 -46q66 0 111.5 46.5t45.5 111.5t-45 112t-112 47t-112.5 -47t-45.5 -112z" />
    <glyph glyph-name="nine" unicode="9" horiz-adv-x="576" 
d="M272 0h-94l148 215q12 18 36 52q-41 -26 -94 -26q-96 0 -167.5 69t-71.5 181q0 109 74.5 185.5t184.5 76.5q130 0 200 -88q60 -70 60 -168q0 -90 -65 -190zM466 501v1q0 75 -49.5 126.5t-126.5 51.5q-76 0 -127 -53t-51 -129q0 -83 53 -133.5t121 -50.5q42 0 81.5 18.5
t69 63t29.5 105.5z" />
    <glyph glyph-name="colon" unicode=":" horiz-adv-x="289" 
d="M184 538v-110h-78v110h78zM184 110v-110h-78v110h78z" />
    <glyph glyph-name="semicolon" unicode=";" horiz-adv-x="289" 
d="M183 538v-110h-77v110h77zM185 111l-78 -186h-64l63 186h79z" />
    <glyph glyph-name="less" unicode="&#x3c;" horiz-adv-x="600" 
d="M49 288l502 228v-79l-425 -186l425 -185v-79l-502 228v73z" />
    <glyph glyph-name="equal" unicode="=" horiz-adv-x="600" 
d="M49 395h502v-71h-502v71zM49 178h502v-71h-502v71z" />
    <glyph glyph-name="greater" unicode="&#x3e;" horiz-adv-x="600" 
d="M49 66l425 186l-425 185v79l502 -228v-73l-502 -228v79z" />
    <glyph glyph-name="question" unicode="?" 
d="M302 189h-78q2 57 21 102t75 98q57 59 71 81q19 32 20 67q0 58 -39 98.5t-101 40.5q-53 0 -94.5 -32t-50.5 -92q-2 -9 -2 -27h-81q0 16 1 24q9 98 77.5 151t152.5 53q93 0 157 -61.5t64 -148.5q0 -30 -9 -57t-30 -54t-35 -41t-43 -42q-34 -32 -51.5 -64.5t-20.5 -50.5
t-4 -45zM301 110v-110h-77v110h77z" />
    <glyph glyph-name="at" unicode="@" horiz-adv-x="780" 
d="M683 162l24 -30q-50 -74 -136.5 -110t-161.5 -36q-86 0 -159.5 32t-121.5 85.5t-75 121.5t-27 140q0 160 110.5 274.5t276.5 114.5q140 0 243.5 -87.5t103.5 -229.5q0 -64 -23 -118.5t-57.5 -88t-72 -52t-69.5 -18.5q-18 0 -34.5 5t-33 23t-18.5 46q-49 -71 -125 -71
q-46 0 -85 36.5t-39 109.5q0 98 62 180t145 82q77 0 105 -75l18 60h54l-77 -254q0 -1 -5 -20.5t-6 -29.5q-1 -25 13 -34t33 -9q53 0 109 64t56 163q0 125 -88.5 197.5t-205.5 72.5q-141 0 -239 -98t-98 -244q0 -134 91.5 -232t238.5 -98q77 0 153 32.5t121 95.5zM258 310v-1
q0 -52 24 -74.5t55 -22.5q52 0 82 34t44 77q33 88 33 113q-1 41 -25.5 63.5t-55.5 22.5q-57 0 -107 -64t-50 -148z" />
    <glyph glyph-name="A" unicode="A" horiz-adv-x="711" 
d="M182 208l-85 -208h-89l309 740h80l306 -740h-90l-86 208h-345zM502 276l-148 371l-147 -371h295z" />
    <glyph glyph-name="B" unicode="B" horiz-adv-x="575" 
d="M74 0v740h195q96 0 146 -35q80 -45 80 -154q0 -106 -99 -157q46 -14 77.5 -40.5t44 -57.5t16.5 -51t4 -39q-2 -121 -101 -173q-32 -19 -66.5 -26t-92.5 -7h-204zM156 667v-247h112q56 0 87 15q60 33 60 110q0 38 -17.5 66t-42.5 39q-30 16 -92 17h-107zM156 350v-277h134
q56 0 90 14q77 33 78 123q0 44 -21.5 76.5t-57.5 48.5q-35 15 -104 15h-119z" />
    <glyph glyph-name="C" unicode="C" horiz-adv-x="801" 
d="M677 199h89q-38 -90 -130.5 -151t-209.5 -61q-164 0 -275 111t-111 272q0 160 110 271.5t275 111.5q125 0 213.5 -66t127.5 -150h-89q-11 20 -30.5 41.5t-50.5 46t-76 40t-95 15.5q-129 0 -216 -89.5t-87 -219.5q0 -132 87 -221.5t216 -89.5q54 0 101 16.5t78 43.5
t46.5 44.5t26.5 34.5z" />
    <glyph glyph-name="D" unicode="D" horiz-adv-x="715" 
d="M74 0v740h221q198 0 291 -111q89 -98 89 -258q0 -171 -96.5 -271t-279.5 -100h-225zM156 667v-594h147q140 0 214.5 79.5t74.5 215.5q0 137 -72 216q-78 83 -217 83h-147z" />
    <glyph glyph-name="E" unicode="E" horiz-adv-x="541" 
d="M74 0v740h410v-73h-328v-257h326v-73h-326v-264h328v-73h-410z" />
    <glyph glyph-name="F" unicode="F" horiz-adv-x="487" 
d="M74 0v740h376v-73h-294v-260h292v-74h-292v-333h-82z" />
    <glyph glyph-name="G" unicode="G" horiz-adv-x="853" 
d="M774 548h-94q-35 48 -83 80q-76 52 -172 52q-125 0 -214 -87t-89 -222q0 -137 89.5 -224.5t214.5 -87.5q113 0 198 67q81 64 100 155h-368v68h464q-2 -78 -33 -143q-47 -102 -146.5 -161t-214.5 -59q-163 0 -275 110.5t-112 274.5q0 165 112.5 273.5t275.5 108.5
q112 0 207.5 -57t139.5 -148z" />
    <glyph glyph-name="H" unicode="H" horiz-adv-x="670" 
d="M156 0h-82v740h82v-329h357v329h83v-740h-83v338h-357v-338z" />
    <glyph glyph-name="I" unicode="I" horiz-adv-x="231" 
d="M74 0v740h82v-740h-82z" />
    <glyph glyph-name="J" unicode="J" horiz-adv-x="494" 
d="M421 740v-501q0 -93 -20 -140q-22 -45 -61 -73q-56 -39 -128 -39q-24 0 -51.5 7t-58.5 22.5t-55.5 47t-34.5 74.5q-4 16 -6 35h89q0 -3 2 -15q15 -53 50 -75.5t69 -22.5q43 1 71 21t38 48q13 34 13 94v517h83z" />
    <glyph glyph-name="K" unicode="K" horiz-adv-x="593" 
d="M90 0v740h82v-358l301 358h90l-310 -369l341 -371h-103l-319 351v-351h-82z" />
    <glyph glyph-name="L" unicode="L" horiz-adv-x="444" 
d="M75 0v740h83v-667h282v-73h-365z" />
    <glyph glyph-name="M" unicode="M" horiz-adv-x="927" 
d="M151 0h-77v740h116l274 -621l273 621h116v-740h-78l2 658l-287 -658h-53l-288 658z" />
    <glyph glyph-name="N" unicode="N" horiz-adv-x="745" 
d="M158 740l434 -618l-1 618h80v-740h-80l-439 623l2 -623h-80v740h84z" />
    <glyph glyph-name="O" unicode="O" horiz-adv-x="851" 
d="M39 367v1q0 168 113 276.5t273 108.5q163 0 274.5 -110.5t111.5 -272.5q0 -163 -111 -273t-275 -110q-163 0 -274.5 110.5t-111.5 269.5zM122 371v-1q0 -131 87.5 -220.5t216.5 -89.5q130 0 216.5 90.5t86.5 219.5t-87 219.5t-217 90.5q-129 0 -216 -90t-87 -219z" />
    <glyph glyph-name="P" unicode="P" horiz-adv-x="552" 
d="M67 740h195q78 0 121 -10.5t78 -36.5q36 -28 57.5 -76t21.5 -100t-21 -101t-55 -75q-36 -28 -79 -39t-116 -11h-119v-291h-83v740zM150 667v-303h118q89 0 137 31q24 16 39.5 49t15.5 71q0 39 -15.5 72t-40.5 49q-48 31 -138 31h-116z" />
    <glyph glyph-name="Q" unicode="Q" horiz-adv-x="877" 
d="M875 57v-70q-40 4 -60 7q-82 10 -156 61q-104 -69 -222 -69q-86 0 -160 32t-123.5 85.5t-77 122.5t-27.5 143q0 160 111 272t275 112q165 0 276 -111t111 -270q0 -52 -10.5 -97t-30.5 -79.5t-32 -50.5t-32 -38q61 -39 158 -50zM435 680h-1q-120 0 -205.5 -80.5
t-92.5 -204.5q-1 -52 11 -93q83 27 151 27q111 0 199 -53q36 -21 154 -117q89 81 89 213q0 133 -88.5 220.5t-216.5 87.5zM437 59h1q94 0 161 49q-11 11 -55.5 46.5t-46.5 37.5q-97 66 -208 66q-60 0 -127 -25q25 -52 62 -88.5t77 -54t73 -24.5t63 -7z" />
    <glyph glyph-name="R" unicode="R" horiz-adv-x="587" 
d="M67 0v740h193q148 0 208 -38q45 -27 73 -81.5t28 -117.5q2 -83 -44 -145q-31 -42 -69 -58.5t-96 -22.5l184 -277h-90l-209 323h24q123 0 164 38q56 55 56 136q0 42 -19.5 81.5t-53.5 61.5q-42 27 -150 27h-116v-667h-83z" />
    <glyph glyph-name="S" unicode="S" horiz-adv-x="536" 
d="M38 206h83q8 -81 54 -115t94 -34q59 0 103.5 40.5t44.5 100.5q0 35 -12.5 60.5t-39 42.5t-49 26.5t-61.5 21.5q-9 3 -13 4q-27 8 -43.5 14t-47.5 22.5t-49.5 35.5t-33.5 51.5t-15 72.5q-1 94 64.5 149t155.5 55q36 0 70 -10.5t64.5 -32t51 -60t24.5 -88.5h-82
q-23 121 -131 121q-57 0 -96 -35.5t-39 -91.5q0 -19 5 -35t10.5 -27t22.5 -23l25.5 -18t36 -16.5t38 -14.5t46.5 -16q27 -10 38.5 -15t38.5 -18.5t40.5 -27t30.5 -34t24.5 -47.5t7.5 -60q0 -92 -63.5 -154.5t-165.5 -62.5q-97 0 -162.5 58.5t-69.5 160.5z" />
    <glyph glyph-name="T" unicode="T" horiz-adv-x="462" 
d="M189 0v667h-182v73h448v-73h-183v-667h-83z" />
    <glyph glyph-name="U" unicode="U" horiz-adv-x="636" 
d="M72 740h83v-469q0 -36 1 -54t9 -44.5t25 -50.5q20 -28 54.5 -45t74.5 -17t74 16.5t53 44.5q17 23 25 49.5t9 45t1 55.5v469h82v-469q1 -76 -16 -132.5t-68 -95.5q-66 -56 -160 -56q-100 0 -163 56q-37 30 -56.5 71t-23.5 74t-4 83v469z" />
    <glyph glyph-name="V" unicode="V" horiz-adv-x="685" 
d="M302 0l-292 740h87l245 -633l246 633h87l-294 -740h-79z" />
    <glyph glyph-name="W" unicode="W" horiz-adv-x="919" 
d="M218 0l-205 740h85l168 -627l162 627h62l165 -627l166 627h84l-207 -740h-81l-158 601l-158 -601h-83z" />
    <glyph glyph-name="X" unicode="X" horiz-adv-x="623" 
d="M9 0l254 382l-238 358h95l191 -295l191 295h94l-237 -359l255 -381h-95l-211 321l-207 -321h-92z" />
    <glyph glyph-name="Y" unicode="Y" horiz-adv-x="585" 
d="M251 0v260l-238 480h90l190 -400l189 400h90l-238 -480v-260h-83z" />
    <glyph glyph-name="Z" unicode="Z" horiz-adv-x="499" 
d="M476 677l-357 -604h371v-73h-471v53l363 614h-373v73h467v-63z" />
    <glyph glyph-name="bracketleft" unicode="[" horiz-adv-x="441" 
d="M370 -129v-65h-246v934h246v-64h-173v-805h173z" />
    <glyph glyph-name="backslash" unicode="\" horiz-adv-x="543" 
d="M391 -100l-322 840h83l322 -840h-83z" />
    <glyph glyph-name="bracketright" unicode="]" horiz-adv-x="441" 
d="M71 -194v65h172v805h-172v64h245v-934h-245z" />
    <glyph glyph-name="asciicircum" unicode="^" horiz-adv-x="600" 
d="M89 375l173 365h76l173 -365h-81l-130 296l-130 -296h-81z" />
    <glyph glyph-name="underscore" unicode="_" horiz-adv-x="500" 
d="M500 -125h-500v50h500v-50z" />
    <glyph glyph-name="grave" unicode="`" 
d="M159 780l239 -135l-24 -47l-241 128z" />
    <glyph glyph-name="a" unicode="a" horiz-adv-x="684" 
d="M612 538v-538h-74v111q-31 -60 -89 -93t-131 -33q-126 0 -202.5 84t-76.5 200q0 120 79 202t200 82q80 0 139 -38.5t81 -89.5v113h74zM112 269v-1q1 -52 23 -99t72.5 -81t120.5 -34q69 0 120.5 36t73.5 95q18 39 18 85q2 46 -17 86q-23 57 -75.5 93t-121.5 36
q-92 0 -153 -62.5t-61 -153.5z" />
    <glyph glyph-name="b" unicode="b" horiz-adv-x="680" 
d="M72 0v740h74v-202v-108q34 57 91.5 89.5t127.5 33.5q117 0 197 -79.5t80 -203.5q0 -122 -79 -203.5t-200 -81.5q-75 0 -132 33.5t-88 92.5v-111h-71zM568 269v1q0 92 -61.5 153.5t-151.5 61.5q-92 0 -152.5 -62.5t-60.5 -152.5t59 -153t151 -63q101 0 158.5 65t57.5 150z
" />
    <glyph glyph-name="c" unicode="c" horiz-adv-x="630" 
d="M519 182h77q-27 -87 -100.5 -142t-168.5 -55q-131 0 -210 85t-79 199q0 120 81 202t203 82q94 0 170.5 -53.5t103.5 -147.5h-76q-24 65 -79 99t-116 34q-87 0 -152 -61q-61 -59 -61 -155q0 -94 61.5 -154.5t150.5 -60.5q73 1 124.5 38t70.5 90z" />
    <glyph glyph-name="d" unicode="d" horiz-adv-x="684" 
d="M610 740v-740h-71v111q-31 -57 -86.5 -91.5t-135.5 -34.5q-125 0 -201.5 83.5t-76.5 201.5q0 121 78.5 202t198.5 81q82 0 140.5 -38t79.5 -86v114v197h74zM112 270v-1q1 -87 58.5 -151t157.5 -64q92 0 153 63q63 65 60 155q0 91 -62 151q-60 62 -152 62t-153.5 -62
t-61.5 -153z" />
    <glyph glyph-name="e" unicode="e" horiz-adv-x="628" 
d="M595 248h-490q3 -94 68 -147t142 -52q62 0 110.5 29t74.5 82h77q-37 -86 -109 -131q-68 -44 -153 -44q-89 0 -155.5 43.5t-97.5 106.5t-31 133q0 119 81.5 202t201.5 83q118 0 197 -76q46 -45 68 -104.5t16 -124.5zM106 307h416q-4 73 -65 129t-142 54q-85 0 -144.5 -54
t-64.5 -129z" />
    <glyph glyph-name="f" unicode="f" horiz-adv-x="280" 
d="M85 0v479h-79v59h79v44q0 171 189 171v-59q-19 -1 -27 -2t-28.5 -7.5t-31 -17.5t-20 -35t-9.5 -57v-37h116v-59h-116v-479h-73z" />
    <glyph glyph-name="g" unicode="g" horiz-adv-x="681" 
d="M610 538v-476q0 -135 -80 -212q-40 -39 -94.5 -61t-109.5 -22q-97 0 -168 49t-98 125h85q25 -44 64 -71q54 -39 119 -39q82 0 145 59t63 155v69q-30 -59 -86 -94t-131 -35q-124 0 -202.5 82t-78.5 201q0 122 79.5 203.5t201.5 81.5q76 0 135 -36.5t83 -89.5v111h73z
M112 270v-1q0 -87 58.5 -151t157.5 -64q91 0 151 62q58 62 60 152q0 79 -49 141q-58 75 -164 75q-90 0 -152 -60.5t-62 -153.5z" />
    <glyph glyph-name="h" unicode="h" horiz-adv-x="637" 
d="M72 0v740h74v-197v-93q24 51 77.5 78t114.5 25q120 0 178 -74q51 -65 51 -189v-290h-73v287q0 91 -39 142q-46 55 -135 55q-85 0 -131 -53q-43 -47 -43 -125v-306h-74z" />
    <glyph glyph-name="i" unicode="i" horiz-adv-x="218" 
d="M72 637v103h74v-103h-74zM72 0v538h74v-538h-74z" />
    <glyph glyph-name="j" unicode="j" horiz-adv-x="253" 
d="M92 637v103h74v-103h-74zM166 538v-530q0 -35 -2 -58.5t-10 -54t-23.5 -49.5t-44.5 -34.5t-70 -20.5q-15 0 -23 -1v62q10 0 14 1q53 9 69 45.5t16 107.5v532h74z" />
    <glyph glyph-name="k" unicode="k" horiz-adv-x="508" 
d="M74 0v740h74v-423l242 221h91l-259 -236l271 -302h-87l-258 286v-286h-74z" />
    <glyph glyph-name="l" unicode="l" horiz-adv-x="217" 
d="M72 0v740h74v-740h-74z" />
    <glyph glyph-name="m" unicode="m" horiz-adv-x="956" 
d="M72 0v538h70v-85q24 48 72 74t98 26q93 0 147 -61q14 -14 35 -56q19 36 39 57q57 60 148 60q92 0 145 -54q34 -34 47.5 -80t13.5 -120v-299h-74v296q0 98 -40 143q-35 45 -107 45q-80 0 -118 -56q-20 -27 -26 -54t-6 -75v-299h-74v299q3 80 -28 128q-40 56 -118 57
q-36 1 -66.5 -14.5t-47.5 -40.5q-36 -49 -36 -129v-300h-74z" />
    <glyph glyph-name="n" unicode="n" horiz-adv-x="638" 
d="M72 0v538h70q0 -60 -1 -96q24 53 76.5 82.5t123.5 28.5q117 -1 171.5 -70t54.5 -177v-306h-73v291q0 91 -43 142.5t-130 50.5q-83 -1 -129 -48.5t-46 -131.5v-304h-74z" />
    <glyph glyph-name="o" unicode="o" horiz-adv-x="649" 
d="M39 269v1q0 116 79.5 199.5t205.5 83.5q127 0 206.5 -83.5t79.5 -200.5t-79.5 -200t-206.5 -83q-126 0 -205.5 83t-79.5 200zM112 269v-1q0 -91 61 -152.5t151 -61.5t151 61.5t61 153.5t-61 153.5t-151 61.5t-151 -61.5t-61 -153.5z" />
    <glyph glyph-name="p" unicode="p" horiz-adv-x="684" 
d="M72 -204v742h70v-112q72 127 225 127q128 0 202 -86.5t74 -199.5q0 -116 -77 -199t-199 -83q-82 0 -140.5 38t-80.5 87v-110v-204h-74zM569 269v1q0 84 -57 149.5t-159 65.5q-89 0 -152 -63q-60 -63 -60 -154t62 -153q61 -61 152 -61t152.5 61.5t61.5 153.5z" />
    <glyph glyph-name="q" unicode="q" horiz-adv-x="682" 
d="M610 538v-742h-74v204v109q-22 -48 -80.5 -86t-141.5 -38q-121 0 -198 82t-77 199q0 122 78 204.5t201 82.5q78 0 134.5 -34.5t86.5 -88.5v108h71zM112 268v-1q0 -89 61.5 -151t153.5 -62q90 0 152 62q61 61 61 152q3 90 -60 153q-61 64 -152 64q-101 0 -158 -65.5
t-58 -151.5z" />
    <glyph glyph-name="r" unicode="r" horiz-adv-x="322" 
d="M72 0v538h70v-88q48 99 172 103v-73h-7q-78 0 -120 -48t-42 -139v-293h-73z" />
    <glyph glyph-name="s" unicode="s" horiz-adv-x="450" 
d="M387 403h-73q0 42 -25.5 65.5t-66.5 23.5q-43 0 -69 -25.5t-24 -61.5q1 -36 26.5 -55.5t79.5 -35.5q32 -9 47.5 -13.5t42.5 -17.5t40 -28t24.5 -40.5t12.5 -58.5q3 -73 -49 -122t-129 -49q-72 0 -127.5 44.5t-56.5 123.5h73q2 -52 35 -79.5t77 -27.5q46 0 75.5 29.5
t28.5 71.5q-1 44 -31.5 68t-103.5 45q-67 20 -102.5 50t-36.5 89q0 70 48.5 112t119.5 42q40 0 75 -14t61 -49t28 -87z" />
    <glyph glyph-name="t" unicode="t" horiz-adv-x="314" 
d="M114 0v479h-106v59h106v202h73v-202h118v-59h-118v-479h-73z" />
    <glyph glyph-name="u" unicode="u" horiz-adv-x="639" 
d="M567 538v-538h-70v96q-23 -53 -75 -82.5t-124 -28.5q-118 2 -172.5 71t-54.5 177v305h73v-291q0 -91 42.5 -142.5t130.5 -50.5q84 1 130 48.5t46 131.5v304h74z" />
    <glyph glyph-name="v" unicode="v" horiz-adv-x="518" 
d="M509 538l-212 -538h-77l-212 538h78l173 -447l172 447h78z" />
    <glyph glyph-name="w" unicode="w" horiz-adv-x="788" 
d="M196 0l-187 538h78l148 -443l129 395h61l130 -395l147 443h77l-186 -538h-73l-127 392l-125 -392h-72z" />
    <glyph glyph-name="x" unicode="x" horiz-adv-x="481" 
d="M7 0l188 276l-180 262h90l135 -207l136 207h88l-179 -262l189 -276h-90l-144 217l-143 -217h-90z" />
    <glyph glyph-name="y" unicode="y" horiz-adv-x="512" 
d="M124 -204l92 214l-208 528h79l169 -435l174 435h81l-307 -742h-80z" />
    <glyph glyph-name="z" unicode="z" horiz-adv-x="419" 
d="M13 0v54l298 425h-286v59h369v-60l-292 -419h303v-59h-392z" />
    <glyph glyph-name="braceleft" unicode="{" horiz-adv-x="468" 
d="M390 749v-59h-54q-39 0 -50 -21t-11 -78v-193q0 -52 -28.5 -98t-61.5 -65q36 -12 63 -53.5t27 -99.5v-192q0 -60 11.5 -80t49.5 -20h54v-59h-86q-106 0 -106 130v192q0 109 -86 145v76q33 7 59.5 47.5t26.5 102.5v197q0 128 106 128h86z" />
    <glyph glyph-name="bar" unicode="|" 
d="M237 750h81v-1000h-81v1000z" />
    <glyph glyph-name="braceright" unicode="}" horiz-adv-x="468" 
d="M78 690v59h86q106 0 106 -128v-197q0 -62 26.5 -102.5t59.5 -47.5v-76q-86 -36 -86 -145v-192q0 -130 -106 -130h-86v59h54q38 0 49.5 20t11.5 80v192q0 55 29.5 97.5t60.5 56.5q-39 18 -64.5 62.5t-25.5 99.5v193q0 57 -11.5 78t-49.5 21h-54z" />
    <glyph glyph-name="asciitilde" unicode="~" horiz-adv-x="600" 
d="M502 319l24 -65q-46 -77 -108 -77q-38 0 -110 35q-74 36 -113 36q-58 3 -97 -64l-25 64q20 37 52 58t72 20q35 0 115 -36q6 -3 22 -10t23.5 -10t20 -7.5t21.5 -6.5t18 -2q18 0 35 11t27 22.5t23 31.5z" />
    <glyph glyph-name="uni00A0" unicode="&#xa0;" horiz-adv-x="288" 
 />
    <glyph glyph-name="exclamdown" unicode="&#xa1;" horiz-adv-x="284" 
d="M104 428v111h76v-111h-76zM104 -201v548h76v-548h-76z" />
    <glyph glyph-name="cent" unicode="&#xa2;" horiz-adv-x="576" 
d="M331 36h-66v107q-99 16 -149 84t-50 143q0 49 19 95t66 85t114 50v98h64v-98q132 -25 181 -147h-79q-42 76 -133 76q-69 0 -113 -45.5t-44 -110.5t42 -112t115 -47q51 0 83.5 22t47.5 49h82q-27 -63 -77.5 -98t-102.5 -44v-107z" />
    <glyph glyph-name="sterling" unicode="&#xa3;" horiz-adv-x="576" 
d="M407 401v-62h-189q81 -68 81 -153q0 -57 -43 -119h75q46 0 71 7.5t47 25.5q45 46 45 105q0 21 -7 45h75q7 -35 7 -54q0 -78 -55 -137q-34 -32 -71.5 -45.5t-105.5 -13.5h-298v67h115q63 31 63 114q0 82 -91 158h-117v62h73q-36 49 -37 113q0 98 69.5 169t178.5 71
q89 0 157.5 -55t84.5 -150h-79q-14 57 -57 94.5t-105 37.5q-73 -1 -118.5 -48t-47.5 -120q2 -63 45 -112h234z" />
    <glyph glyph-name="currency" unicode="&#xa4;" horiz-adv-x="576" 
d="M507 83l-78 78q-65 -49 -141 -49q-77 0 -141 49l-79 -78l-41 41l80 79q-50 62 -50 139q0 81 50 140l-81 80l41 41l81 -81q62 50 140 50q77 0 139 -49l80 80l41 -41l-79 -80q50 -63 50 -140t-51 -139l80 -79zM128 342v-1q0 -64 48 -110.5t112 -46.5t111.5 46.5t47.5 111.5
q0 66 -47 112.5t-112 46.5t-112.5 -46.5t-47.5 -112.5z" />
    <glyph glyph-name="yen" unicode="&#xa5;" horiz-adv-x="576" 
d="M538 447v-63h-193l-17 -34v-65h210v-63h-211v-222h-81v222h-208v63h208v64l-18 35h-190v63h157l-173 293h87l178 -313l181 313h87l-175 -293h158z" />
    <glyph glyph-name="brokenbar" unicode="&#xa6;" 
d="M237 675h81v-350h-81v350zM237 175h81v-350h-81v350z" />
    <glyph glyph-name="section" unicode="&#xa7;" horiz-adv-x="605" 
d="M512 573h-73q-13 111 -132 111q-53 0 -88 -29t-36 -79q0 -30 16 -52.5t31 -31.5t40 -21l161 -74q21 -10 34.5 -18.5t37 -27.5t36.5 -48t13 -64q0 -95 -92 -156q63 -52 63 -132t-58.5 -135t-156.5 -55q-99 0 -167.5 57t-67.5 171h73q0 -80 42 -119t118 -39q67 0 105 33
t40 86q-1 37 -24.5 62.5t-74.5 49.5l-187 86q-18 9 -25.5 13t-27.5 18.5t-30 30t-19.5 42.5t-9.5 59q0 39 22.5 81t76.5 74q-41 50 -41 109q0 84 58 131t141 47q91 0 145.5 -50t56.5 -130zM484 228v1q0 22 -7.5 40t-23.5 31t-28 20t-33 17l-194 91q-74 -36 -76 -110
q1 -69 69 -101l218 -100q28 12 51.5 43t23.5 68z" />
    <glyph glyph-name="dieresis" unicode="&#xa8;" 
d="M219 748v-128h-72v128h72zM407 748v-128h-72v128h72z" />
    <glyph glyph-name="copyright" unicode="&#xa9;" horiz-adv-x="800" 
d="M401 752h1q160 0 270 -111.5t110 -270.5q0 -161 -111.5 -271.5t-270.5 -110.5q-160 0 -271 110.5t-111 271.5q0 158 110 270t273 112zM401 709h-1q-144 0 -240 -99.5t-96 -239.5q0 -142 97.5 -240.5t238.5 -98.5q140 0 237.5 98t97.5 241q0 140 -96 239.5t-238 99.5z
M598 446h-53q-12 56 -51.5 80.5t-87.5 24.5q-72 0 -116.5 -50.5t-44.5 -129.5q0 -87 47 -133.5t113 -46.5q11 0 23.5 1.5t34 9.5t38 21.5t31.5 41t20 63.5h54q-7 -85 -64.5 -135t-138.5 -50q-89 0 -150.5 60.5t-61.5 166.5q0 100 58.5 164.5t156.5 64.5q78 0 131.5 -44
t60.5 -109z" />
    <glyph glyph-name="ordfeminine" unicode="&#xaa;" horiz-adv-x="421" 
d="M372 745v-318h-51v65q-37 -73 -127 -73q-73 0 -120.5 49t-47.5 118q0 72 49 119.5t119 47.5q86 0 127 -75v67h51zM78 584v-1q0 -42 33 -79t89 -37q76 0 109 65q12 26 12 54q0 27 -10 50q-15 31 -45 50t-67 19q-50 0 -85.5 -34t-35.5 -87z" />
    <glyph glyph-name="guillemotleft" unicode="&#xab;" horiz-adv-x="375" 
d="M39 279l108 190h62l-108 -190l108 -188h-62zM173 279l109 190h62l-109 -190l109 -188h-62z" />
    <glyph glyph-name="logicalnot" unicode="&#xac;" horiz-adv-x="600" 
d="M49 389h502v-260h-71v188h-431v72z" />
    <glyph glyph-name="uni00AD" unicode="&#xad;" horiz-adv-x="271" 
d="M0 317h271v-73h-271v73z" />
    <glyph glyph-name="registered" unicode="&#xae;" horiz-adv-x="800" 
d="M401 752h1q160 0 270 -111.5t110 -270.5q0 -161 -111.5 -271.5t-270.5 -110.5q-160 0 -271 110.5t-111 271.5q0 158 110 270t273 112zM401 709h-1q-143 0 -239.5 -99.5t-96.5 -239.5q0 -142 97.5 -240.5t238.5 -98.5q140 0 237.5 98t97.5 241q0 140 -95.5 239.5
t-238.5 99.5zM236 588h183q22 0 44 -4t49 -14.5t44 -36.5t17 -64q0 -76 -80 -107q37 -11 53 -34.5t18 -65.5q5 -68 7 -83t8 -28h-54q-7 12 -13 101q-1 23 -4.5 35.5t-14 26.5t-34 20t-61.5 6h-108v-189h-54v437zM410 547h-120v-167h110q2 0 13.5 1t18 1.5t19 3.5t20.5 6.5
t18 10t16 14.5t10 21t4 28q0 81 -109 81z" />
    <glyph glyph-name="macron" unicode="&#xaf;" 
d="M456 711v-62h-357v62h357z" />
    <glyph glyph-name="degree" unicode="&#xb0;" horiz-adv-x="400" 
d="M343 567v-1q0 -59 -41.5 -100.5t-101.5 -41.5t-101.5 41.5t-41.5 101.5t41.5 101.5t101.5 41.5t101.5 -41.5t41.5 -101.5zM104 567v-1q0 -40 28 -68t68 -28t68 28t28 69q0 40 -28 68.5t-68 28.5t-68 -28.5t-28 -68.5z" />
    <glyph glyph-name="plusminus" unicode="&#xb1;" horiz-adv-x="600" 
d="M264 346v177h72v-177h216v-72h-216v-175h-72v175h-216v72h216zM48 -27v72h504v-72h-504z" />
    <glyph glyph-name="twosuperior" unicode="&#xb2;" horiz-adv-x="370" 
d="M330 348v-52h-294v48l168 165q58 59 58 102q0 36 -19 60.5t-61 24.5q-39 0 -61.5 -29.5t-22.5 -75.5h-59q0 62 29 101q40 56 117 56q66 0 104 -35t38 -97q0 -63 -64 -127q-27 -26 -75.5 -75.5t-64.5 -65.5h207z" />
    <glyph glyph-name="threesuperior" unicode="&#xb3;" horiz-adv-x="370" 
d="M29 431h62q1 -45 28 -68t63 -23q42 0 66 25t24 64q0 33 -24.5 60.5t-71.5 27.5h-36v46h26q41 0 60.5 22t19.5 46q0 26 -16.5 45t-45.5 20q-31 1 -48 -18t-19 -48h-61q2 62 42.5 90t86.5 28q51 0 86 -32t35 -79q0 -61 -57 -92q38 -14 61.5 -46.5t23.5 -71.5
q0 -60 -44 -99.5t-109 -39.5q-84 0 -126 58q-24 36 -26 85z" />
    <glyph glyph-name="acute" unicode="&#xb4;" 
d="M157 648l238 135l27 -54l-241 -129z" />
    <glyph glyph-name="mu" unicode="&#xb5;" horiz-adv-x="585" 
d="M69 -184v722h74v-291q0 -99 33 -141q41 -52 115 -52q73 0 114 58t41 167v259h73v-538h-71v102q-44 -114 -157 -114q-100 0 -148 78v-77v-173h-74z" />
    <glyph glyph-name="paragraph" unicode="&#xb6;" horiz-adv-x="607" 
d="M228 -118v465q-98 0 -160 49.5t-62 144.5q0 56 21.5 96.5t58 62t76.5 31t84 9.5h284v-58h-59v-800h-62v799h-119v-799h-62z" />
    <glyph glyph-name="periodcentered" unicode="&#xb7;" horiz-adv-x="289" 
d="M184 310v-111h-78v111h78z" />
    <glyph glyph-name="cedilla" unicode="&#xb8;" 
d="M297 0l-26 -56q6 3 16 3q33 0 54.5 -22t21.5 -55q0 -34 -22.5 -60t-63.5 -26q-9 0 -18.5 2t-25 8.5t-27 22.5t-14.5 40h43q9 -33 42 -33q18 0 30 12t13 34q-1 18 -13 29.5t-29 11.5q-23 0 -36 -22l-37 15l45 96h47z" />
    <glyph glyph-name="onesuperior" unicode="&#xb9;" horiz-adv-x="370" 
d="M221 740v-444h-59v392h-90v52h149z" />
    <glyph glyph-name="ordmasculine" unicode="&#xba;" horiz-adv-x="421" 
d="M42 584v1q0 70 46.5 119t120.5 49q76 0 123 -49.5t47 -117.5q0 -70 -49.5 -118.5t-120.5 -48.5t-119 49t-48 116zM93 584v-1q0 -47 34 -81.5t82 -34.5t83 34t36 85q-1 49 -34 84t-83 35q-48 0 -83 -34t-35 -87z" />
    <glyph glyph-name="guillemotright" unicode="&#xbb;" horiz-adv-x="375" 
d="M227 468l109 -190l-109 -188h-62l109 188l-109 190h62zM93 468l108 -190l-108 -188h-62l108 188l-108 190h62z" />
    <glyph glyph-name="onequarter" unicode="&#xbc;" horiz-adv-x="766" 
d="M546 740l-324 -740h-64l323 740h65zM617 368l-156 -238h156v238zM194 740v-444h-59v392h-90v52h149zM676 444v-314h45v-48h-45v-82h-60v82h-221v43l220 319h61z" />
    <glyph glyph-name="onehalf" unicode="&#xbd;" horiz-adv-x="806" 
d="M194 740v-444h-59v392h-90v52h149zM546 740l-324 -740h-64l323 740h65zM762 52v-52h-295v48q57 55 169 165q58 59 58 102q0 36 -19.5 60.5t-61.5 24.5q-39 0 -61 -29.5t-22 -75.5h-60q2 57 25 96q40 61 122 61q66 0 104 -35t38 -97q0 -63 -64 -127q-27 -26 -75.5 -75.5
t-64.5 -65.5h207z" />
    <glyph glyph-name="threequarters" unicode="&#xbe;" horiz-adv-x="871" 
d="M725 369l-157 -239h157v239zM656 740l-324 -740h-64l322 740h66zM784 444v-314h45v-48h-45v-82h-60v82h-221v43l220 319h61zM40 431h62q1 -45 28 -68t63 -23q42 0 66 25t24 64q0 33 -24.5 60.5t-71.5 27.5h-36v46h26q41 0 60.5 22t19.5 46q0 26 -16.5 45t-45.5 20
q-31 1 -48 -18t-19 -48h-61q2 62 42.5 90t86.5 28q51 0 86 -32t35 -79q0 -61 -57 -92q38 -14 61.5 -46.5t23.5 -71.5q0 -60 -44 -99.5t-109 -39.5q-38 0 -73 16t-54 45q-23 33 -25 82z" />
    <glyph glyph-name="questiondown" unicode="&#xbf;" 
d="M253 428v110h77v-110h-77zM252 349h78q-2 -57 -21 -102t-74 -98q-37 -37 -49 -50t-27 -40.5t-16 -56.5q0 -59 39.5 -99t101.5 -40q52 0 94 32t51 91q2 18 2 28h81q0 -5 -0.5 -13t-0.5 -12q-10 -98 -78.5 -151t-151.5 -53q-94 0 -157.5 61.5t-63.5 149.5q0 39 20 77.5
t39.5 59.5t57.5 56q33 32 50.5 64.5t20.5 50.5t4 45z" />
    <glyph glyph-name="Agrave" unicode="&#xc0;" horiz-adv-x="711" 
d="M182 208l-85 -208h-89l309 740h80l306 -740h-90l-86 208h-345zM502 276l-148 371l-147 -371h295zM234 955l239 -134l-24 -48l-241 128z" />
    <glyph glyph-name="Aacute" unicode="&#xc1;" horiz-adv-x="711" 
d="M182 208l-85 -208h-89l309 740h80l306 -740h-90l-86 208h-345zM502 276l-148 371l-147 -371h295zM238 823l238 135l27 -54l-240 -129z" />
    <glyph glyph-name="Acircumflex" unicode="&#xc2;" horiz-adv-x="711" 
d="M182 208l-85 -208h-89l309 740h80l306 -740h-90l-86 208h-345zM502 276l-148 371l-147 -371h295zM383 927l175 -133h-83l-120 82l-119 -82h-83l176 133h54z" />
    <glyph glyph-name="Atilde" unicode="&#xc3;" horiz-adv-x="711" 
d="M182 208l-85 -208h-89l309 740h80l306 -740h-90l-86 208h-345zM502 276l-148 371l-147 -371h295zM513 904l32 -50q-43 -39 -101 -39q-35 0 -91 18q-50 16 -79 16q-44 0 -76 -30l-32 51q41 39 100 39q39 0 91 -18q48 -16 80 -16q47 0 76 29z" />
    <glyph glyph-name="Adieresis" unicode="&#xc4;" horiz-adv-x="711" 
d="M182 208l-85 -208h-89l309 740h80l306 -740h-90l-86 208h-345zM502 276l-148 371l-147 -371h295zM297 923v-128h-72v128h72zM485 923v-128h-72v128h72z" />
    <glyph glyph-name="Aring" unicode="&#xc5;" horiz-adv-x="711" 
d="M182 208l-85 -208h-89l309 740h80l306 -740h-90l-86 208h-345zM502 276l-148 371l-147 -371h295zM355 967h1q42 0 72 -30t30 -73q0 -42 -30 -72t-73 -30t-73 30t-30 72q0 43 30.5 73t72.5 30zM355 923h-1q-23 0 -39.5 -17.5t-16.5 -40.5t17 -39.5t40 -16.5
q24 0 40.5 16.5t16.5 39.5q0 24 -16.5 41t-40.5 17z" />
    <glyph glyph-name="AE" unicode="&#xc6;" horiz-adv-x="954" 
d="M-9 0l513 740h384v-73h-287v-257h285v-73h-285v-264h287v-73h-367v218h-282l-149 -218h-99zM279 284h242v355z" />
    <glyph glyph-name="Ccedilla" unicode="&#xc7;" horiz-adv-x="801" 
d="M428 -13l-21 -43q7 3 17 3q32 0 54.5 -22t22.5 -55q0 -34 -22.5 -60t-63.5 -26q-9 0 -19 2t-25 8.5t-26.5 22.5t-15.5 40h43q9 -33 43 -33q17 0 29.5 12t12.5 34q0 18 -12 29.5t-30 11.5q-22 0 -36 -22l-36 15l40 86q-148 14 -245.5 122t-97.5 258q0 160 110 271.5
t275 111.5q125 0 213.5 -66t127.5 -150h-89q-11 20 -30.5 41.5t-50.5 46t-76 40t-95 15.5q-129 0 -216 -89.5t-87 -219.5q0 -132 87 -221.5t216 -89.5q54 0 101 16.5t78 43.5t46.5 44.5t26.5 34.5h89q-38 -89 -129 -150t-209 -62z" />
    <glyph glyph-name="Egrave" unicode="&#xc8;" horiz-adv-x="541" 
d="M74 0v740h410v-73h-328v-257h326v-73h-326v-264h328v-73h-410zM152 965l239 -134l-24 -48l-241 128z" />
    <glyph glyph-name="Eacute" unicode="&#xc9;" horiz-adv-x="541" 
d="M74 0v740h410v-73h-328v-257h326v-73h-326v-264h328v-73h-410zM150 833l238 135l27 -54l-241 -129z" />
    <glyph glyph-name="Ecircumflex" unicode="&#xca;" horiz-adv-x="541" 
d="M74 0v740h410v-73h-328v-257h326v-73h-326v-264h328v-73h-410zM298 937l175 -133h-83l-120 82l-119 -82h-83l176 133h54z" />
    <glyph glyph-name="Edieresis" unicode="&#xcb;" horiz-adv-x="541" 
d="M74 0v740h410v-73h-328v-257h326v-73h-326v-264h328v-73h-410zM212 933v-128h-72v128h72zM400 933v-128h-72v128h72z" />
    <glyph glyph-name="Igrave" unicode="&#xcc;" horiz-adv-x="231" 
d="M74 0v740h82v-740h-82zM-24 962l238 -135l-24 -47l-241 128z" />
    <glyph glyph-name="Iacute" unicode="&#xcd;" horiz-adv-x="231" 
d="M74 0v740h82v-740h-82zM17 830l238 135l26 -55l-240 -128z" />
    <glyph glyph-name="Icircumflex" unicode="&#xce;" horiz-adv-x="231" 
d="M74 0v740h82v-740h-82zM143 930l175 -133h-83l-120 82l-119 -82h-83l176 133h54z" />
    <glyph glyph-name="Idieresis" unicode="&#xcf;" horiz-adv-x="231" 
d="M74 0v740h82v-740h-82zM57 929v-127h-72v127h72zM245 929v-127h-72v127h72z" />
    <glyph glyph-name="Eth" unicode="&#xd0;" horiz-adv-x="715" 
d="M74 411v329h222q195 0 290 -111q89 -98 89 -258q0 -170 -97 -270.5t-272 -100.5h-232v338h-74v73h74zM156 667v-256h204v-73h-204v-265h147q140 0 214.5 79.5t74.5 215.5q0 137 -72 216q-78 83 -217 83h-147z" />
    <glyph glyph-name="Ntilde" unicode="&#xd1;" horiz-adv-x="745" 
d="M158 740l434 -618l-1 618h80v-740h-80l-439 623l2 -623h-80v740h84zM530 901l32 -50q-40 -39 -101 -39q-35 0 -91 18q-47 15 -79 15q-45 0 -76 -29l-31 51q40 38 100 38q40 0 91 -17q46 -16 79 -16q49 0 76 29z" />
    <glyph glyph-name="Ograve" unicode="&#xd2;" horiz-adv-x="851" 
d="M39 367v1q0 168 113 276.5t273 108.5q163 0 274.5 -110.5t111.5 -272.5q0 -163 -111 -273t-275 -110q-163 0 -274.5 110.5t-111.5 269.5zM122 371v-1q0 -131 87.5 -220.5t216.5 -89.5q130 0 216.5 90.5t86.5 219.5t-87 219.5t-217 90.5q-129 0 -216 -90t-87 -219z
M307 965l239 -134l-24 -48l-241 128z" />
    <glyph glyph-name="Oacute" unicode="&#xd3;" horiz-adv-x="851" 
d="M39 367v1q0 168 113 276.5t273 108.5q163 0 274.5 -110.5t111.5 -272.5q0 -163 -111 -273t-275 -110q-163 0 -274.5 110.5t-111.5 269.5zM122 371v-1q0 -131 87.5 -220.5t216.5 -89.5q130 0 216.5 90.5t86.5 219.5t-87 219.5t-217 90.5q-129 0 -216 -90t-87 -219z
M305 833l238 135l27 -54l-241 -129z" />
    <glyph glyph-name="Ocircumflex" unicode="&#xd4;" horiz-adv-x="851" 
d="M39 367v1q0 168 113 276.5t273 108.5q163 0 274.5 -110.5t111.5 -272.5q0 -163 -111 -273t-275 -110q-163 0 -274.5 110.5t-111.5 269.5zM122 371v-1q0 -131 87.5 -220.5t216.5 -89.5q130 0 216.5 90.5t86.5 219.5t-87 219.5t-217 90.5q-129 0 -216 -90t-87 -219z
M453 934l175 -134h-83l-120 83l-119 -83h-83l176 134h54z" />
    <glyph glyph-name="Otilde" unicode="&#xd5;" horiz-adv-x="851" 
d="M39 367v1q0 168 113 276.5t273 108.5q163 0 274.5 -110.5t111.5 -272.5q0 -163 -111 -273t-275 -110q-163 0 -274.5 110.5t-111.5 269.5zM122 371v-1q0 -131 87.5 -220.5t216.5 -89.5q130 0 216.5 90.5t86.5 219.5t-87 219.5t-217 90.5q-129 0 -216 -90t-87 -219z
M583 901l32 -50q-42 -39 -101 -39q-35 0 -91 18q-47 15 -79 15q-45 0 -76 -29l-32 51q40 38 100 38q42 0 91 -17q48 -16 80 -16q49 0 76 29z" />
    <glyph glyph-name="Odieresis" unicode="&#xd6;" horiz-adv-x="851" 
d="M39 367v1q0 168 113 276.5t273 108.5q163 0 274.5 -110.5t111.5 -272.5q0 -163 -111 -273t-275 -110q-163 0 -274.5 110.5t-111.5 269.5zM122 371v-1q0 -131 87.5 -220.5t216.5 -89.5q130 0 216.5 90.5t86.5 219.5t-87 219.5t-217 90.5q-129 0 -216 -90t-87 -219z
M367 933v-128h-72v128h72zM555 933v-128h-72v128h72z" />
    <glyph glyph-name="multiply" unicode="&#xd7;" horiz-adv-x="600" 
d="M103 0l-51 51l196 197l-196 195l51 52l197 -196l197 196l51 -52l-197 -195l196 -197l-50 -51l-197 197z" />
    <glyph glyph-name="Oslash" unicode="&#xd8;" horiz-adv-x="851" 
d="M627 698l60 82h85l-90 -122q57 -48 93 -122t36 -166q0 -162 -111.5 -272.5t-274.5 -110.5q-111 0 -196 52l-59 -79h-85l88 118q-60 49 -97 124t-37 168q0 164 112 273.5t274 109.5q111 0 202 -55zM222 144l358 492q-64 44 -155 44q-130 0 -216.5 -90t-86.5 -219
q0 -69 26.5 -128.5t73.5 -98.5zM634 594l-359 -493q65 -41 151 -41q130 0 216.5 91t86.5 219q0 132 -95 224z" />
    <glyph glyph-name="Ugrave" unicode="&#xd9;" horiz-adv-x="636" 
d="M72 740h83v-469q0 -36 1 -54t9 -44.5t25 -50.5q20 -28 54.5 -45t74.5 -17t74 16.5t53 44.5q17 23 25 49.5t9 45t1 55.5v469h82v-469q1 -76 -16 -132.5t-68 -95.5q-66 -56 -160 -56q-100 0 -163 56q-37 30 -56.5 71t-23.5 74t-4 83v469zM168 955l239 -135l-24 -47
l-241 128z" />
    <glyph glyph-name="Uacute" unicode="&#xda;" horiz-adv-x="636" 
d="M72 740h83v-469q0 -36 1 -54t9 -44.5t25 -50.5q20 -28 54.5 -45t74.5 -17t74 16.5t53 44.5q17 23 25 49.5t9 45t1 55.5v469h82v-469q1 -76 -16 -132.5t-68 -95.5q-66 -56 -160 -56q-100 0 -163 56q-37 30 -56.5 71t-23.5 74t-4 83v469zM209 823l238 135l27 -54l-241 -129
z" />
    <glyph glyph-name="Ucircumflex" unicode="&#xdb;" horiz-adv-x="636" 
d="M72 740h83v-469q0 -36 1 -54t9 -44.5t25 -50.5q20 -28 54.5 -45t74.5 -17t74 16.5t53 44.5q17 23 25 49.5t9 45t1 55.5v469h82v-469q1 -76 -16 -132.5t-68 -95.5q-66 -56 -160 -56q-100 0 -163 56q-37 30 -56.5 71t-23.5 74t-4 83v469zM346 927l175 -133h-84l-119 82
l-119 -82h-84l176 133h55z" />
    <glyph glyph-name="Udieresis" unicode="&#xdc;" horiz-adv-x="636" 
d="M72 740h83v-469q0 -36 1 -54t9 -44.5t25 -50.5q20 -28 54.5 -45t74.5 -17t74 16.5t53 44.5q17 23 25 49.5t9 45t1 55.5v469h82v-469q1 -76 -16 -132.5t-68 -95.5q-66 -56 -160 -56q-100 0 -163 56q-37 30 -56.5 71t-23.5 74t-4 83v469zM260 923v-128h-72v128h72zM448 923
v-128h-72v128h72z" />
    <glyph glyph-name="Yacute" unicode="&#xdd;" horiz-adv-x="585" 
d="M251 0v260l-238 480h90l190 -400l189 400h90l-238 -480v-260h-83zM204 823l238 135l27 -54l-241 -129z" />
    <glyph glyph-name="Thorn" unicode="&#xde;" horiz-adv-x="552" 
d="M67 0v740h83v-136h112q81 0 122.5 -10t76.5 -37q36 -28 57.5 -76t21.5 -100t-21 -101t-55 -75q-37 -29 -78 -39.5t-117 -10.5h-119v-155h-83zM150 531v-303h118q91 0 137 31q24 17 39.5 49.5t15.5 70.5q0 39 -15.5 71.5t-40.5 49.5q-48 31 -138 31h-116z" />
    <glyph glyph-name="germandbls" unicode="&#xdf;" horiz-adv-x="604" 
d="M70 0v458q0 87 10 132t37 80q31 41 78 63t97 22q94 0 151 -57.5t57 -143.5q0 -112 -97 -163q74 -12 117.5 -67t43.5 -125q0 -90 -65.5 -152t-164.5 -62q-72 1 -124 39t-66 115v-139h-74zM144 473v-276h48q4 -72 46.5 -107t98.5 -36q67 0 110.5 40.5t43.5 101.5
q0 70 -49 112q-46 36 -140 37h-40v59h29q55 0 95.5 40t40.5 100q0 67 -38.5 104.5t-102.5 37.5q-37 0 -67.5 -16.5t-46.5 -43.5q-18 -30 -23 -62.5t-5 -90.5z" />
    <glyph glyph-name="agrave" unicode="&#xe0;" horiz-adv-x="684" 
d="M612 538v-538h-74v111q-31 -60 -89 -93t-131 -33q-126 0 -202.5 84t-76.5 200q0 120 79 202t200 82q80 0 139 -38.5t81 -89.5v113h74zM112 269v-1q1 -52 23 -99t72.5 -81t120.5 -34q69 0 120.5 36t73.5 95q18 39 18 85q2 46 -17 86q-23 57 -75.5 93t-121.5 36
q-92 0 -153 -62.5t-61 -153.5zM219 780l239 -135l-24 -47l-241 128z" />
    <glyph glyph-name="aacute" unicode="&#xe1;" horiz-adv-x="684" 
d="M612 538v-538h-74v111q-31 -60 -89 -93t-131 -33q-126 0 -202.5 84t-76.5 200q0 120 79 202t200 82q80 0 139 -38.5t81 -89.5v113h74zM112 269v-1q1 -52 23 -99t72.5 -81t120.5 -34q69 0 120.5 36t73.5 95q18 39 18 85q2 46 -17 86q-23 57 -75.5 93t-121.5 36
q-92 0 -153 -62.5t-61 -153.5zM219 648l238 135l27 -54l-241 -129z" />
    <glyph glyph-name="acircumflex" unicode="&#xe2;" horiz-adv-x="684" 
d="M612 538v-538h-74v111q-31 -60 -89 -93t-131 -33q-126 0 -202.5 84t-76.5 200q0 120 79 202t200 82q80 0 139 -38.5t81 -89.5v113h74zM112 269v-1q1 -52 23 -99t72.5 -81t120.5 -34q69 0 120.5 36t73.5 95q18 39 18 85q2 46 -17 86q-23 57 -75.5 93t-121.5 36
q-92 0 -153 -62.5t-61 -153.5zM365 752l175 -133h-83l-120 82l-119 -82h-83l176 133h54z" />
    <glyph glyph-name="atilde" unicode="&#xe3;" horiz-adv-x="684" 
d="M612 538v-538h-74v111q-31 -60 -89 -93t-131 -33q-126 0 -202.5 84t-76.5 200q0 120 79 202t200 82q80 0 139 -38.5t81 -89.5v113h74zM112 269v-1q1 -52 23 -99t72.5 -81t120.5 -34q69 0 120.5 36t73.5 95q18 39 18 85q2 46 -17 86q-23 57 -75.5 93t-121.5 36
q-92 0 -153 -62.5t-61 -153.5zM497 719l31 -50q-42 -39 -101 -39q-35 0 -91 18q-50 16 -79 16q-43 0 -75 -30l-32 51q40 38 100 38q42 0 91 -17q46 -16 80 -16q47 0 76 29z" />
    <glyph glyph-name="adieresis" unicode="&#xe4;" horiz-adv-x="684" 
d="M612 538v-538h-74v111q-31 -60 -89 -93t-131 -33q-126 0 -202.5 84t-76.5 200q0 120 79 202t200 82q80 0 139 -38.5t81 -89.5v113h74zM112 269v-1q1 -52 23 -99t72.5 -81t120.5 -34q69 0 120.5 36t73.5 95q18 39 18 85q2 46 -17 86q-23 57 -75.5 93t-121.5 36
q-92 0 -153 -62.5t-61 -153.5zM273 748v-128h-72v128h72zM461 748v-128h-72v128h72z" />
    <glyph glyph-name="aring" unicode="&#xe5;" horiz-adv-x="684" 
d="M612 538v-538h-74v111q-31 -60 -89 -93t-131 -33q-126 0 -202.5 84t-76.5 200q0 120 79 202t200 82q80 0 139 -38.5t81 -89.5v113h74zM112 269v-1q1 -52 23 -99t72.5 -81t120.5 -34q69 0 120.5 36t73.5 95q18 39 18 85q2 46 -17 86q-23 57 -75.5 93t-121.5 36
q-92 0 -153 -62.5t-61 -153.5zM329 792h1q42 0 72 -30t30 -73q0 -42 -30 -72t-73 -30t-73 30t-30 72q0 43 30.5 73t72.5 30zM329 748h-1q-23 0 -39.5 -17.5t-16.5 -40.5t16.5 -39.5t40.5 -16.5t40.5 16.5t16.5 39.5q0 24 -16.5 41t-40.5 17z" />
    <glyph glyph-name="ae" unicode="&#xe6;" horiz-adv-x="1133" 
d="M1094 250h-485q6 -58 29.5 -100t56.5 -62.5t63.5 -29.5t58.5 -9q112 0 184 111h77q-33 -76 -100 -125.5t-155 -49.5q-75 0 -131.5 37.5t-85.5 104.5v-127h-69v127q-21 -61 -82.5 -101.5t-135.5 -40.5q-70 0 -125.5 27t-88 70t-49.5 91t-17 95q0 122 80 203.5t200 81.5
q155 0 218 -136v121h69v-120q64 135 211 135q120 0 199 -84q84 -89 78 -219zM112 270v-1q0 -93 61.5 -154t154.5 -61q86 0 148 64t62 151q0 88 -61 151q-62 65 -151 65q-94 0 -154 -64t-60 -151zM611 304h409q-17 91 -71.5 138t-133.5 47q-92 0 -150 -66q-40 -44 -54 -119z
" />
    <glyph glyph-name="ccedilla" unicode="&#xe7;" horiz-adv-x="630" 
d="M328 -14l-20 -42q7 3 17 3q32 0 54.5 -22t22.5 -55q0 -34 -22.5 -60t-63.5 -26q-9 0 -19 2t-25 8.5t-26.5 22.5t-15.5 40h43q9 -33 43 -33q18 0 30 12t12 34q0 18 -12 29.5t-30 11.5q-22 0 -36 -22l-36 15l39 85q-106 14 -175.5 91.5t-69.5 189.5q1 120 82 201.5
t202 81.5q94 0 170.5 -53.5t103.5 -147.5h-76q-24 64 -79 98t-116 33q-86 0 -152 -60q-27 -26 -44 -67.5t-17 -86.5q0 -94 61.5 -154.5t150.5 -60.5q73 1 124.5 38t70.5 90h77q-27 -86 -98.5 -139.5t-169.5 -56.5z" />
    <glyph glyph-name="egrave" unicode="&#xe8;" horiz-adv-x="628" 
d="M595 248h-490q3 -94 68 -147t142 -52q62 0 110.5 29t74.5 82h77q-37 -86 -109 -131q-68 -44 -153 -44q-89 0 -155.5 43.5t-97.5 106.5t-31 133q0 119 81.5 202t201.5 83q118 0 197 -76q46 -45 68 -104.5t16 -124.5zM106 307h416q-4 73 -65 129t-142 54q-85 0 -144.5 -54
t-64.5 -129zM196 780l239 -135l-24 -47l-241 128z" />
    <glyph glyph-name="eacute" unicode="&#xe9;" horiz-adv-x="628" 
d="M595 248h-490q3 -94 68 -147t142 -52q62 0 110.5 29t74.5 82h77q-37 -86 -109 -131q-68 -44 -153 -44q-89 0 -155.5 43.5t-97.5 106.5t-31 133q0 119 81.5 202t201.5 83q118 0 197 -76q46 -45 68 -104.5t16 -124.5zM106 307h416q-4 73 -65 129t-142 54q-85 0 -144.5 -54
t-64.5 -129zM190 648l238 135l27 -54l-240 -129z" />
    <glyph glyph-name="ecircumflex" unicode="&#xea;" horiz-adv-x="628" 
d="M595 248h-490q3 -94 68 -147t142 -52q62 0 110.5 29t74.5 82h77q-37 -86 -109 -131q-68 -44 -153 -44q-89 0 -155.5 43.5t-97.5 106.5t-31 133q0 119 81.5 202t201.5 83q118 0 197 -76q46 -45 68 -104.5t16 -124.5zM106 307h416q-4 73 -65 129t-142 54q-85 0 -144.5 -54
t-64.5 -129zM342 752l175 -133h-84l-119 82l-119 -82h-84l176 133h55z" />
    <glyph glyph-name="edieresis" unicode="&#xeb;" horiz-adv-x="628" 
d="M595 248h-490q3 -94 68 -147t142 -52q62 0 110.5 29t74.5 82h77q-37 -86 -109 -131q-68 -44 -153 -44q-89 0 -155.5 43.5t-97.5 106.5t-31 133q0 119 81.5 202t201.5 83q118 0 197 -76q46 -45 68 -104.5t16 -124.5zM106 307h416q-4 73 -65 129t-142 54q-85 0 -144.5 -54
t-64.5 -129zM253 748v-128h-73v128h73zM441 748v-128h-72v128h72z" />
    <glyph glyph-name="igrave" unicode="&#xec;" horiz-adv-x="218" 
d="M72 0v538h74v-538h-74zM-30 780l239 -135l-24 -47l-241 128z" />
    <glyph glyph-name="iacute" unicode="&#xed;" horiz-adv-x="218" 
d="M72 0v538h74v-538h-74zM8 648l238 135l27 -54l-241 -129z" />
    <glyph glyph-name="icircumflex" unicode="&#xee;" horiz-adv-x="218" 
d="M72 0v538h74v-538h-74zM137 752l175 -133h-83l-120 82l-119 -82h-83l176 133h54z" />
    <glyph glyph-name="idieresis" unicode="&#xef;" horiz-adv-x="218" 
d="M72 0v538h74v-538h-74zM51 748v-128h-72v128h72zM239 748v-128h-72v128h72z" />
    <glyph glyph-name="eth" unicode="&#xf0;" horiz-adv-x="649" 
d="M321 625l-228 -72v55l167 54q-54 26 -144 58l79 25q77 -26 145 -63l203 63v-55l-144 -46q110 -66 165 -166q47 -87 47 -196q0 -132 -84 -213t-203 -83q-118 0 -201 76t-84 206q1 127 79 203.5t193 78.5q48 0 94.5 -19.5t76.5 -53.5q-14 29 -42 57q-51 55 -119 91z
M112 270v-1q0 -91 59.5 -153t153.5 -62t153 63.5t59 152.5q0 87 -61.5 151t-148.5 64q-95 -1 -155 -63t-60 -152z" />
    <glyph glyph-name="ntilde" unicode="&#xf1;" horiz-adv-x="638" 
d="M72 0v538h70q0 -60 -1 -96q24 53 76.5 82.5t123.5 28.5q117 -1 171.5 -70t54.5 -177v-306h-73v291q0 91 -43 142.5t-130 50.5q-83 -1 -129 -48.5t-46 -131.5v-304h-74zM477 719l31 -50q-42 -39 -101 -39q-35 0 -91 18q-50 16 -79 16q-43 0 -75 -30l-32 51q40 38 100 38
q42 0 91 -17q46 -16 80 -16q47 0 76 29z" />
    <glyph glyph-name="ograve" unicode="&#xf2;" horiz-adv-x="649" 
d="M39 269v1q0 116 79.5 199.5t205.5 83.5q127 0 206.5 -83.5t79.5 -200.5t-79.5 -200t-206.5 -83q-126 0 -205.5 83t-79.5 200zM112 269v-1q0 -91 61 -152.5t151 -61.5t151 61.5t61 153.5t-61 153.5t-151 61.5t-151 -61.5t-61 -153.5zM207 780l238 -135l-24 -47l-241 128z
" />
    <glyph glyph-name="oacute" unicode="&#xf3;" horiz-adv-x="649" 
d="M39 269v1q0 116 79.5 199.5t205.5 83.5q127 0 206.5 -83.5t79.5 -200.5t-79.5 -200t-206.5 -83q-126 0 -205.5 83t-79.5 200zM112 269v-1q0 -91 61 -152.5t151 -61.5t151 61.5t61 153.5t-61 153.5t-151 61.5t-151 -61.5t-61 -153.5zM201 648l238 135l27 -54l-241 -129z
" />
    <glyph glyph-name="ocircumflex" unicode="&#xf4;" horiz-adv-x="649" 
d="M39 269v1q0 116 79.5 199.5t205.5 83.5q127 0 206.5 -83.5t79.5 -200.5t-79.5 -200t-206.5 -83q-126 0 -205.5 83t-79.5 200zM112 269v-1q0 -91 61 -152.5t151 -61.5t151 61.5t61 153.5t-61 153.5t-151 61.5t-151 -61.5t-61 -153.5zM353 752l174 -133h-83l-119 82
l-119 -82h-84l176 133h55z" />
    <glyph glyph-name="otilde" unicode="&#xf5;" horiz-adv-x="649" 
d="M39 269v1q0 116 79.5 199.5t205.5 83.5q127 0 206.5 -83.5t79.5 -200.5t-79.5 -200t-206.5 -83q-126 0 -205.5 83t-79.5 200zM112 269v-1q0 -91 61 -152.5t151 -61.5t151 61.5t61 153.5t-61 153.5t-151 61.5t-151 -61.5t-61 -153.5zM482 719l32 -50q-42 -39 -101 -39
q-35 0 -91 18q-50 16 -79 16q-44 0 -76 -30l-31 51q40 38 100 38q40 0 91 -17q46 -16 79 -16q47 0 76 29z" />
    <glyph glyph-name="odieresis" unicode="&#xf6;" horiz-adv-x="649" 
d="M39 269v1q0 116 79.5 199.5t205.5 83.5q127 0 206.5 -83.5t79.5 -200.5t-79.5 -200t-206.5 -83q-126 0 -205.5 83t-79.5 200zM112 269v-1q0 -91 61 -152.5t151 -61.5t151 61.5t61 153.5t-61 153.5t-151 61.5t-151 -61.5t-61 -153.5zM267 748v-128h-72v128h72zM455 748
v-128h-72v128h72z" />
    <glyph glyph-name="divide" unicode="&#xf7;" horiz-adv-x="600" 
d="M336 521v-107h-72v107h72zM49 215v72h502v-72h-502zM336 88v-107h-72v107h72z" />
    <glyph glyph-name="oslash" unicode="&#xf8;" horiz-adv-x="649" 
d="M507 573h77l-66 -93q92 -84 92 -211q0 -117 -79.5 -200.5t-205.5 -83.5q-81 0 -143 37l-41 -56h-78l68 92q-92 79 -92 211q0 117 79.5 200.5t206.5 83.5q84 0 142 -37zM178 117l247 339q-44 28 -100 28q-91 0 -152 -61.5t-61 -153.5q0 -96 66 -152zM471 420l-247 -339
q44 -27 100 -27q92 0 152 62t60 153q0 96 -65 151z" />
    <glyph glyph-name="ugrave" unicode="&#xf9;" horiz-adv-x="639" 
d="M567 538v-538h-70v96q-23 -53 -75 -82.5t-124 -28.5q-118 2 -172.5 71t-54.5 177v305h73v-291q0 -91 42.5 -142.5t130.5 -50.5q84 1 130 48.5t46 131.5v304h74zM170 780l238 -135l-24 -47l-241 128z" />
    <glyph glyph-name="uacute" unicode="&#xfa;" horiz-adv-x="639" 
d="M567 538v-538h-70v96q-23 -53 -75 -82.5t-124 -28.5q-118 2 -172.5 71t-54.5 177v305h73v-291q0 -91 42.5 -142.5t130.5 -50.5q84 1 130 48.5t46 131.5v304h74zM211 648l238 135l27 -54l-241 -129z" />
    <glyph glyph-name="ucircumflex" unicode="&#xfb;" horiz-adv-x="639" 
d="M567 538v-538h-70v96q-23 -53 -75 -82.5t-124 -28.5q-118 2 -172.5 71t-54.5 177v305h73v-291q0 -91 42.5 -142.5t130.5 -50.5q84 1 130 48.5t46 131.5v304h74zM347 752l175 -133h-83l-120 82l-119 -82h-83l176 133h54z" />
    <glyph glyph-name="udieresis" unicode="&#xfc;" horiz-adv-x="639" 
d="M567 538v-538h-70v96q-23 -53 -75 -82.5t-124 -28.5q-118 2 -172.5 71t-54.5 177v305h73v-291q0 -91 42.5 -142.5t130.5 -50.5q84 1 130 48.5t46 131.5v304h74zM261 748v-128h-72v128h72zM449 748v-128h-72v128h72z" />
    <glyph glyph-name="yacute" unicode="&#xfd;" horiz-adv-x="512" 
d="M124 -204l92 214l-208 528h79l169 -435l174 435h81l-307 -742h-80zM167 648l238 135l27 -54l-240 -129z" />
    <glyph glyph-name="thorn" unicode="&#xfe;" horiz-adv-x="686" 
d="M72 -204v944h73v-240v-74q35 67 98 97t126 30q124 0 201 -84.5t77 -201.5q0 -120 -79 -201t-198 -81q-78 0 -136 35.5t-89 89.5v-68v-246h-73zM573 269v1q0 90 -60 152t-154 62q-90 0 -152 -62q-64 -61 -64 -155q0 -84 60 -147q63 -66 156 -66t153.5 62t60.5 153z" />
    <glyph glyph-name="ydieresis" unicode="&#xff;" horiz-adv-x="512" 
d="M124 -204l92 214l-208 528h79l169 -435l174 435h81l-307 -742h-80zM198 748v-128h-72v128h72zM386 748v-128h-72v128h72z" />
    <glyph glyph-name="dotlessi" unicode="&#x131;" horiz-adv-x="218" 
d="M72 0v538h74v-538h-74z" />
    <glyph glyph-name="Lslash" unicode="&#x141;" horiz-adv-x="444" 
d="M2 240v85l76 56v359h83v-299l141 102v-85l-141 -105v-280h282v-73h-365v295z" />
    <glyph glyph-name="lslash" unicode="&#x142;" horiz-adv-x="260" 
d="M92 330l-73 -51v77l73 51v333h74v-286l86 61v-76l-86 -63v-376h-74v330z" />
    <glyph glyph-name="OE" unicode="&#x152;" horiz-adv-x="1147" 
d="M803 667v-257h284v-73h-284v-264h287v-73h-367v85v84q-40 -84 -122.5 -133t-179.5 -49q-163 0 -272.5 109t-109.5 273q0 163 108 273.5t273 110.5q109 0 190.5 -51.5t112.5 -130.5v85v84h367v-73h-287zM122 369v-1q0 -128 84.5 -218t214.5 -90t215.5 91.5t85.5 220.5
q-2 131 -86 219.5t-215 88.5q-130 0 -214.5 -89.5t-84.5 -221.5z" />
    <glyph glyph-name="oe" unicode="&#x153;" horiz-adv-x="1129" 
d="M1091 251h-484q5 -95 65 -148.5t141 -53.5q61 0 110.5 29.5t71.5 82.5h77q-36 -82 -95 -124q-75 -52 -163 -52q-92 0 -155 46t-89 115q-34 -78 -99.5 -119.5t-147.5 -41.5q-59 0 -108 19t-81 48.5t-54 68t-31.5 75.5t-9.5 72q0 120 80.5 202.5t205.5 82.5
q84 0 149.5 -44.5t94.5 -116.5q10 25 28 49.5t46.5 50.5t72.5 42.5t96 16.5q118 0 200 -85q88 -92 79 -215zM112 269v-1q0 -90 61.5 -152t151.5 -62q91 0 150.5 65.5t59.5 148.5t-59.5 150t-150.5 67q-89 0 -151 -61t-62 -155zM609 305h406q-6 66 -60.5 123.5t-142.5 57.5
q-78 0 -135.5 -50.5t-67.5 -130.5z" />
    <glyph glyph-name="Scaron" unicode="&#x160;" horiz-adv-x="536" 
d="M38 206h83q8 -81 54 -115t94 -34q59 0 103.5 40.5t44.5 100.5q0 35 -12.5 60.5t-39 42.5t-49 26.5t-61.5 21.5q-9 3 -13 4q-27 8 -43.5 14t-47.5 22.5t-49.5 35.5t-33.5 51.5t-15 72.5q-1 94 64.5 149t155.5 55q36 0 70 -10.5t64.5 -32t51 -60t24.5 -88.5h-82
q-23 121 -131 121q-57 0 -96 -35.5t-39 -91.5q0 -19 5 -35t10.5 -27t22.5 -23l25.5 -18t36 -16.5t38 -14.5t46.5 -16q27 -10 38.5 -15t38.5 -18.5t40.5 -27t30.5 -34t24.5 -47.5t7.5 -60q0 -92 -63.5 -154.5t-165.5 -62.5q-97 0 -162.5 58.5t-69.5 160.5zM66 925h83l120 -83
l118 83h84l-175 -132h-56z" />
    <glyph glyph-name="scaron" unicode="&#x161;" horiz-adv-x="450" 
d="M387 403h-73q0 42 -25.5 65.5t-66.5 23.5q-43 0 -69 -25.5t-24 -61.5q1 -36 26.5 -55.5t79.5 -35.5q32 -9 47.5 -13.5t42.5 -17.5t40 -28t24.5 -40.5t12.5 -58.5q3 -73 -49 -122t-129 -49q-72 0 -127.5 44.5t-56.5 123.5h73q2 -52 35 -79.5t77 -27.5q46 0 75.5 29.5
t28.5 71.5q-1 44 -31.5 68t-103.5 45q-67 20 -102.5 50t-36.5 89q0 70 48.5 112t119.5 42q40 0 75 -14t61 -49t28 -87zM23 746h83l120 -82l118 82h84l-175 -132h-56z" />
    <glyph glyph-name="Ydieresis" unicode="&#x178;" horiz-adv-x="585" 
d="M251 0v260l-238 480h90l190 -400l189 400h90l-238 -480v-260h-83zM235 923v-128h-73v128h73zM423 923v-128h-72v128h72z" />
    <glyph glyph-name="Zcaron" unicode="&#x17d;" horiz-adv-x="499" 
d="M476 677l-357 -604h371v-73h-471v53l363 614h-373v73h467v-63zM42 921h83l120 -82l118 82h84l-175 -132h-56z" />
    <glyph glyph-name="zcaron" unicode="&#x17e;" horiz-adv-x="419" 
d="M13 0v54l298 425h-286v59h369v-60l-292 -419h303v-59h-392zM10 745h83l120 -83l119 83h83l-175 -132h-56z" />
    <glyph glyph-name="florin" unicode="&#x192;" horiz-adv-x="576" 
d="M368 510h119v-59h-128l-81 -437q-6 -35 -11 -54.5t-15.5 -47t-25.5 -48.5q-53 -73 -162 -73q-36 0 -58 7l13 68q30 -7 42 -7q31 0 55 9t37.5 21.5t23.5 34t13.5 37.5t8.5 41l82 449h-120v59h130q11 69 27.5 115.5t50.5 79.5q54 48 129 48q22 0 32 -3l-11 -61q-11 1 -25 0
q-49 -4 -76 -34q-8 -8 -14.5 -20t-11 -22t-9 -27t-6 -25t-5 -27.5t-4.5 -23.5z" />
    <glyph glyph-name="circumflex" unicode="&#x2c6;" 
d="M305 752l175 -133h-83l-120 82l-119 -82h-83l176 133h54z" />
    <glyph glyph-name="caron" unicode="&#x2c7;" 
d="M75 746h83l120 -82l119 82h83l-175 -132h-56z" />
    <glyph glyph-name="uni02C9" unicode="&#x2c9;" 
d="M456 711v-62h-357v62h357z" />
    <glyph glyph-name="breve" unicode="&#x2d8;" 
d="M81 730h66q38 -47 132 -47q97 0 128 47h67q-12 -45 -63 -75.5t-134 -30.5q-68 0 -122 26t-74 80z" />
    <glyph glyph-name="dotaccent" unicode="&#x2d9;" 
d="M314 748v-128h-73v128h73z" />
    <glyph glyph-name="ring" unicode="&#x2da;" 
d="M277 792h1q42 0 72 -30t30 -73q0 -42 -30 -72t-73 -30t-73 30t-30 72q0 43 30.5 73t72.5 30zM277 748h-1q-23 0 -39.5 -17.5t-16.5 -40.5t17 -39.5t40 -16.5q24 0 40.5 16.5t16.5 39.5q0 24 -16.5 41t-40.5 17z" />
    <glyph glyph-name="ogonek" unicode="&#x2db;" 
d="M276 0h47q-29 -21 -41 -30.5t-23.5 -26.5t-11.5 -36q0 -27 19 -45.5t46 -18.5q18 0 53 13v-48q-32 -14 -66 -14q-51 0 -80 27t-29 70q0 26 14.5 48t30 34t41.5 27z" />
    <glyph glyph-name="tilde" unicode="&#x2dc;" 
d="M435 719l32 -50q-43 -39 -101 -39q-35 0 -91 18q-50 16 -79 16q-44 0 -76 -30l-32 51q40 38 100 38q42 0 91 -17q48 -16 80 -16q47 0 76 29z" />
    <glyph glyph-name="hungarumlaut" unicode="&#x2dd;" 
d="M102 640l177 144l42 -45l-181 -139zM276 640l177 144l42 -45l-181 -139z" />
    <glyph glyph-name="uni03A9" unicode="&#x3a9;" horiz-adv-x="746" 
d="M207 63v3q-61 55 -101 140.5t-40 190.5q0 155 88.5 254t221.5 99q135 0 219 -102.5t84 -246.5q0 -107 -41.5 -195.5t-101.5 -139.5v-3h157v-63h-247v46q66 45 111.5 134t45.5 207q0 73 -24.5 139.5t-78 113t-125.5 46.5q-104 0 -168.5 -86.5t-64.5 -214.5
q0 -112 46.5 -204.5t110.5 -134.5v-46h-247v63h155z" />
    <glyph glyph-name="uni03BC" unicode="&#x3bc;" horiz-adv-x="585" 
d="M69 -184v722h74v-291q0 -99 33 -141q41 -52 115 -52q73 0 114 58t41 167v259h73v-538h-71v102q-44 -114 -157 -114q-100 0 -148 78v-77v-173h-74z" />
    <glyph glyph-name="pi" unicode="&#x3c0;" horiz-adv-x="590" 
d="M562 484h-84v-329q0 -103 15 -155h-73q-17 32 -17 148v336h-190q-5 -114 -27.5 -263.5t-49.5 -220.5h-73q28 82 49.5 226t25.5 258q-75 0 -116 -13l-12 50q46 28 148 28h412z" />
    <glyph glyph-name="endash" unicode="&#x2013;" horiz-adv-x="500" 
d="M35 317h430v-73h-430v73z" />
    <glyph glyph-name="emdash" unicode="&#x2014;" horiz-adv-x="1000" 
d="M35 317h930v-73h-930v73z" />
    <glyph glyph-name="quoteleft" unicode="&#x2018;" horiz-adv-x="289" 
d="M158 740l70 -186h-61l-78 186h69z" />
    <glyph glyph-name="quoteright" unicode="&#x2019;" horiz-adv-x="289" 
d="M61 554l70 186h70l-78 -186h-62z" />
    <glyph glyph-name="quotesinglbase" unicode="&#x201a;" horiz-adv-x="289" 
d="M61 -82l70 186h70l-78 -186h-62z" />
    <glyph glyph-name="quotedblleft" unicode="&#x201c;" horiz-adv-x="431" 
d="M171 740l71 -186h-62l-78 186h69zM292 740l71 -186h-62l-78 186h69z" />
    <glyph glyph-name="quotedblright" unicode="&#x201d;" horiz-adv-x="431" 
d="M68 554l71 186h69l-78 -186h-62zM189 554l71 186h69l-78 -186h-62z" />
    <glyph glyph-name="quotedblbase" unicode="&#x201e;" horiz-adv-x="431" 
d="M68 -82l71 186h69l-78 -186h-62zM189 -82l71 186h69l-78 -186h-62z" />
    <glyph glyph-name="dagger" unicode="&#x2020;" horiz-adv-x="605" 
d="M340 740v-202h178v-66h-178v-620h-75v620h-177v66h177v202h75z" />
    <glyph glyph-name="daggerdbl" unicode="&#x2021;" horiz-adv-x="605" 
d="M341 740v-172h177v-67h-177v-382h177v-66h-177v-201h-75v201h-178v66h178v382h-178v67h178v172h75z" />
    <glyph glyph-name="bullet" unicode="&#x2022;" horiz-adv-x="496" 
d="M249 483h1q44 0 75.5 -32t31.5 -77t-31.5 -76.5t-77.5 -31.5t-77.5 32t-31.5 76q0 45 31.5 77t78.5 32z" />
    <glyph glyph-name="ellipsis" unicode="&#x2026;" horiz-adv-x="1000" 
d="M128 0v111h78v-111h-78zM461 0v111h78v-111h-78zM794 0v111h78v-111h-78z" />
    <glyph glyph-name="perthousand" unicode="&#x2030;" horiz-adv-x="1145" 
d="M25 585v1q0 71 48.5 119.5t120.5 48.5t120.5 -48.5t48.5 -120.5t-48.5 -120.5t-120.5 -48.5q-71 0 -120 48.5t-49 120.5zM81 585v-1q0 -49 32 -81.5t81 -32.5t81 32.5t32 82.5t-32 82.5t-81 32.5t-81 -32.5t-32 -82.5zM399 155v1q0 71 48.5 119.5t120.5 48.5t120.5 -48.5
t48.5 -120.5t-49 -120.5t-120 -48.5t-120 48.5t-49 120.5zM455 155v-1q0 -49 32 -81.5t81 -32.5t81.5 32.5t32.5 82.5t-32.5 83t-81.5 33t-81 -33t-32 -83zM783 155v1q0 71 48.5 119.5t120.5 48.5q71 0 119.5 -48.5t48.5 -120.5t-48.5 -120.5t-119.5 -48.5
q-72 0 -120.5 48.5t-48.5 120.5zM838 155v-1q0 -49 32 -81.5t82 -32.5q49 0 81 32.5t32 82.5t-32 83t-81 33q-50 0 -82 -33t-32 -83zM613 740l-407 -740h-60l407 740h60z" />
    <glyph glyph-name="guilsinglleft" unicode="&#x2039;" horiz-adv-x="239" 
d="M36 278l109 190h62l-109 -190l109 -188h-62z" />
    <glyph glyph-name="guilsinglright" unicode="&#x203a;" horiz-adv-x="239" 
d="M95 468l108 -190l-108 -188h-62l108 188l-108 190h62z" />
    <glyph glyph-name="fraction" unicode="&#x2044;" horiz-adv-x="127" 
d="M-131 0l323 740h65l-323 -740h-65z" />
    <glyph glyph-name="Euro" unicode="&#x20ac;" horiz-adv-x="554" 
d="M558 659l-29 -72q-59 99 -178 99q-61 0 -103 -35.5t-59 -82.5t-17 -100h311l-25 -63h-287v-70h259l-25 -63h-232q2 -91 36 -142q50 -76 142 -76q46 0 93 20t66 52v-87q-16 -18 -57 -35t-102 -17q-69 0 -127.5 31.5t-92.5 99.5q-28 56 -32 154h-91l25 63h64v70h-89l25 63
h65q0 55 15 104.5t44.5 90.5t79.5 65.5t114 24.5q69 0 125 -29t82 -65z" />
    <glyph glyph-name="afii61289" unicode="&#x2113;" horiz-adv-x="502" 
d="M441 154l37 -31q-68 -131 -193 -131q-84 0 -126 55.5t-45 141.5v14q-30 -25 -60 -49l-23 44q69 60 82 73v290q0 133 46 193t113 60q62 0 95 -47.5t33 -122.5q0 -176 -215 -389v-35q1 -85 33.5 -126.5t81.5 -41.5q45 0 81.5 30t59.5 72zM185 567v-236q162 180 162 311
q0 114 -75 114q-35 0 -61 -46t-26 -143z" />
    <glyph glyph-name="trademark" unicode="&#x2122;" horiz-adv-x="990" 
d="M361 296v444h77l169 -361l168 361h77v-444h-57v371l-169 -371h-39l-170 369v-369h-56zM126 296v393h-113v51h286v-51h-113v-393h-60z" />
    <glyph glyph-name="Omega" unicode="&#x2126;" horiz-adv-x="746" 
d="M207 63v3q-61 55 -101 140.5t-40 190.5q0 155 88.5 254t221.5 99q135 0 219 -102.5t84 -246.5q0 -107 -41.5 -195.5t-101.5 -139.5v-3h157v-63h-247v46q66 45 111.5 134t45.5 207q0 73 -24.5 139.5t-78 113t-125.5 46.5q-104 0 -168.5 -86.5t-64.5 -214.5
q0 -112 46.5 -204.5t110.5 -134.5v-46h-247v63h155z" />
    <glyph glyph-name="estimated" unicode="&#x212e;" horiz-adv-x="924" 
d="M887 359h-689q-6 0 -6 -4v-209q0 -11 9 -24q110 -113 261 -113q163 0 274 127h61q-58 -68 -146.5 -108t-189.5 -40q-176 0 -300.5 112t-124.5 270t124.5 270t300.5 112t301 -112t125 -270v-11zM730 386v210q0 15 -10 25q-111 109 -258 109q-150 0 -260 -112
q-10 -12 -10 -26v-206q0 -6 6 -6h528q4 0 4 6z" />
    <glyph glyph-name="partialdiff" unicode="&#x2202;" horiz-adv-x="565" 
d="M106 714l-26 55q72 59 171 59q109 0 185.5 -103t76.5 -296q0 -194 -70.5 -315.5t-199.5 -121.5q-95 0 -146.5 71.5t-51.5 171.5q0 120 65 195t155 75q63 0 109 -33.5t63 -67.5h1q1 12 1 46q0 139 -56.5 226.5t-138.5 87.5q-78 0 -138 -50zM249 55h2q71 0 119 79.5
t59 192.5q-14 42 -55.5 79t-96.5 37q-65 0 -111 -61.5t-46 -146.5q0 -79 35.5 -129.5t93.5 -50.5z" />
    <glyph glyph-name="Delta" unicode="&#x2206;" horiz-adv-x="671" 
d="M33 0v52l261 706h87l257 -705v-53h-605zM109 62h448l-152 410q-8 24 -35 96.5t-34 99.5h-4q-5 -22 -29.5 -89t-32.5 -91z" />
    <glyph glyph-name="product" unicode="&#x220f;" horiz-adv-x="724" 
d="M696 669h-113v-771h-74v771h-294v-771h-74v771h-114v69h669v-69z" />
    <glyph glyph-name="summation" unicode="&#x2211;" horiz-adv-x="575" 
d="M551 -102h-527v51l281 368l-269 368v53h498v-65h-394v-4l251 -341l-271 -355v-3h431v-72z" />
    <glyph glyph-name="minus" unicode="&#x2212;" horiz-adv-x="600" 
d="M49 215v72h502v-72h-502z" />
    <glyph glyph-name="uni2215" unicode="&#x2215;" horiz-adv-x="127" 
d="M-131 0l323 740h65l-323 -740h-65z" />
    <glyph glyph-name="uni2219" unicode="&#x2219;" horiz-adv-x="289" 
d="M184 310v-111h-78v111h78z" />
    <glyph glyph-name="radical" unicode="&#x221a;" horiz-adv-x="594" 
d="M593 877l-231 -1035h-67l-167 492l-77 -30l-15 47l140 54l133 -395q10 -35 18 -76h2q7 47 13 76l194 867h57z" />
    <glyph glyph-name="infinity" unicode="&#x221e;" horiz-adv-x="810" 
d="M757 307v-1q0 -73 -47 -119t-112 -46q-47 0 -90 29t-101 95q-36 -40 -59 -62t-61 -42t-78 -20q-64 0 -110 46.5t-46 114.5q0 71 46.5 118t116.5 47q54 0 99 -33t95 -92q32 35 43.5 47t40 36t55 33t57.5 9q68 0 109.5 -44t41.5 -116zM216 189h1q14 0 27.5 3.5t27 11.5
t23.5 14t24 20t20.5 20t21.5 22.5t18 20.5q-25 32 -36.5 44.5t-35.5 35t-47.5 31.5t-50.5 9q-48 0 -76.5 -35t-28.5 -85q1 -48 32 -80t80 -32zM600 421h-1q-24 0 -51.5 -14.5t-41.5 -27t-41.5 -42t-29.5 -31.5q60 -66 93.5 -91.5t73.5 -25.5q48 0 76.5 34.5t28.5 79.5
q0 54 -30 86t-77 32z" />
    <glyph glyph-name="integral" unicode="&#x222b;" horiz-adv-x="372" 
d="M353 887l-13 -53q-15 11 -37 11q-34 0 -53 -25q-36 -43 -36 -190q0 -82 7 -264t7 -269q0 -145 -45 -213q-32 -53 -102 -53q-41 0 -67 17l14 55q27 -12 47 -12q30 0 48 24q36 46 36 183q0 87 -7 272t-7 267q0 88 12.5 140t42.5 83q38 41 97 41q33 0 56 -14z" />
    <glyph glyph-name="approxequal" unicode="&#x2248;" horiz-adv-x="586" 
d="M506 452l31 -27q-50 -99 -134 -99q-29 0 -52.5 9.5t-69.5 34.5q-61 36 -97 36q-33 0 -56.5 -20.5t-47.5 -57.5l-32 26q51 100 143 100q17 0 36 -5t29.5 -10t29.5 -15.5t22 -12.5q4 -2 14.5 -8t14.5 -8t12.5 -6.5t14 -6.5t13 -4t14.5 -3t15 -1q31 0 53.5 18.5t46.5 59.5z
M506 275l31 -27q-51 -99 -134 -99q-15 0 -27.5 2t-32 10.5t-26 12t-36.5 19.5q-61 36 -97 36q-34 0 -57 -20.5t-47 -58.5l-32 27q23 47 60.5 73.5t81.5 26.5q15 0 29 -2.5t27.5 -8t21.5 -9.5t21.5 -12t17.5 -10q2 -1 11 -6.5t11.5 -6.5t10.5 -5.5t10.5 -5.5l10 -4t11.5 -4
t10.5 -2.5t12.5 -2t12 -0.5q31 0 53 18.5t46 58.5z" />
    <glyph glyph-name="notequal" unicode="&#x2260;" horiz-adv-x="586" 
d="M415 529l-47 -103h164v-49h-184l-70 -154h254v-49h-274l-57 -123l-39 18l48 105h-157v49h178l70 154h-248v49h268l55 121z" />
    <glyph glyph-name="lessequal" unicode="&#x2264;" horiz-adv-x="586" 
d="M529 103l-470 236v52l470 236v-60l-416 -200v-2l416 -203v-59zM532 9h-479v51h479v-51z" />
    <glyph glyph-name="greaterequal" unicode="&#x2265;" horiz-adv-x="586" 
d="M60 627l470 -236v-52l-470 -236v59l416 202v2l-416 201v60zM532 9h-478v51h478v-51z" />
    <glyph glyph-name="lozenge" unicode="&#x25ca;" horiz-adv-x="594" 
d="M536 369l-210 -416h-61l-208 416l210 416h62zM467 367l-150 297q-13 33 -19 56h-3q-12 -38 -20 -56l-149 -294l151 -300q11 -27 18 -53h4q5 24 18 53z" />
    <hkern u1="&#x20;" u2="&#x201c;" k="117" />
    <hkern u1="&#x20;" u2="&#x2018;" k="117" />
    <hkern u1="&#x2c;" u2="&#x201d;" k="163" />
    <hkern u1="&#x2c;" u2="&#x2019;" k="163" />
    <hkern u1="&#x2c;" u2="&#x20;" k="117" />
    <hkern u1="&#x2e;" u2="&#x201d;" k="163" />
    <hkern u1="&#x2e;" u2="&#x2019;" k="163" />
    <hkern u1="&#x2e;" u2="&#x20;" k="117" />
    <hkern u1="&#x3a;" u2="&#x20;" k="80" />
    <hkern u1="&#x3b;" u2="&#x20;" k="83" />
    <hkern u1="F" u2="&#xeb;" k="15" />
    <hkern u1="F" u2="&#xe4;" k="15" />
    <hkern u1="F" u2="&#xe3;" k="15" />
    <hkern u1="F" u2="&#xe0;" k="15" />
    <hkern u1="P" u2="&#xe4;" k="9" />
    <hkern u1="T" u2="&#x161;" k="13" />
    <hkern u1="T" u2="&#xfc;" k="45" />
    <hkern u1="T" u2="&#xf6;" k="42" />
    <hkern u1="T" u2="&#xf2;" k="42" />
    <hkern u1="T" u2="&#xeb;" k="42" />
    <hkern u1="T" u2="&#xea;" k="62" />
    <hkern u1="T" u2="&#xe8;" k="62" />
    <hkern u1="T" u2="&#xe5;" k="42" />
    <hkern u1="T" u2="&#xe4;" k="21" />
    <hkern u1="T" u2="&#xe3;" k="42" />
    <hkern u1="T" u2="&#xe2;" k="42" />
    <hkern u1="T" u2="&#xe0;" k="42" />
    <hkern u1="V" u2="&#xf6;" k="54" />
    <hkern u1="V" u2="&#xf4;" k="80" />
    <hkern u1="V" u2="&#xee;" k="-5" />
    <hkern u1="V" u2="&#xeb;" k="54" />
    <hkern u1="V" u2="&#xea;" k="54" />
    <hkern u1="V" u2="&#xe8;" k="54" />
    <hkern u1="V" u2="&#xe5;" k="54" />
    <hkern u1="V" u2="&#xe4;" k="54" />
    <hkern u1="V" u2="&#xe3;" k="54" />
    <hkern u1="V" u2="&#xe2;" k="54" />
    <hkern u1="V" u2="&#xe0;" k="54" />
    <hkern u1="W" u2="&#xfc;" k="28" />
    <hkern u1="W" u2="&#xf6;" k="45" />
    <hkern u1="W" u2="&#xea;" k="45" />
    <hkern u1="W" u2="&#xe4;" k="43" />
    <hkern u1="Y" u2="&#xfc;" k="58" />
    <hkern u1="Y" u2="&#xf6;" k="77" />
    <hkern u1="f" u2="&#x131;" k="33" />
    <hkern u1="&#x2018;" u2="&#x2018;" k="168" />
    <hkern u1="&#x2019;" u2="&#x2019;" k="168" />
    <hkern u1="&#x2019;" u2="&#x20;" k="117" />
    <hkern u1="&#x201d;" u2="&#x20;" k="117" />
    <hkern g1="a,agrave,aacute,acircumflex,atilde,adieresis,aring,ae"
	g2="v"
	k="7" />
    <hkern g1="a,agrave,aacute,acircumflex,atilde,adieresis,aring,ae"
	g2="y,yacute,ydieresis"
	k="7" />
    <hkern g1="A,Agrave,Aacute,Acircumflex,Atilde,Adieresis,Aring"
	g2="v"
	k="43" />
    <hkern g1="A,Agrave,Aacute,Acircumflex,Atilde,Adieresis,Aring"
	g2="y,yacute,ydieresis"
	k="36" />
    <hkern g1="A,Agrave,Aacute,Acircumflex,Atilde,Adieresis,Aring"
	g2="C,Ccedilla"
	k="40" />
    <hkern g1="A,Agrave,Aacute,Acircumflex,Atilde,Adieresis,Aring"
	g2="G"
	k="40" />
    <hkern g1="A,Agrave,Aacute,Acircumflex,Atilde,Adieresis,Aring"
	g2="O,Ograve,Oacute,Ocircumflex,Otilde,Odieresis,Oslash,OE"
	k="40" />
    <hkern g1="A,Agrave,Aacute,Acircumflex,Atilde,Adieresis,Aring"
	g2="Q"
	k="40" />
    <hkern g1="A,Agrave,Aacute,Acircumflex,Atilde,Adieresis,Aring"
	g2="T"
	k="77" />
    <hkern g1="A,Agrave,Aacute,Acircumflex,Atilde,Adieresis,Aring"
	g2="u,ugrave,uacute,ucircumflex,udieresis"
	k="33" />
    <hkern g1="A,Agrave,Aacute,Acircumflex,Atilde,Adieresis,Aring"
	g2="U,Ugrave,Uacute,Ucircumflex,Udieresis"
	k="33" />
    <hkern g1="A,Agrave,Aacute,Acircumflex,Atilde,Adieresis,Aring"
	g2="V"
	k="100" />
    <hkern g1="A,Agrave,Aacute,Acircumflex,Atilde,Adieresis,Aring"
	g2="w"
	k="33" />
    <hkern g1="A,Agrave,Aacute,Acircumflex,Atilde,Adieresis,Aring"
	g2="W"
	k="50" />
    <hkern g1="A,Agrave,Aacute,Acircumflex,Atilde,Adieresis,Aring"
	g2="Y,Yacute,Ydieresis"
	k="95" />
    <hkern g1="A,Agrave,Aacute,Acircumflex,Atilde,Adieresis,Aring"
	g2="quotedblright"
	k="93" />
    <hkern g1="A,Agrave,Aacute,Acircumflex,Atilde,Adieresis,Aring"
	g2="quoteright"
	k="93" />
    <hkern g1="b,thorn"
	g2="v"
	k="12" />
    <hkern g1="b,thorn"
	g2="y,yacute,ydieresis"
	k="20" />
    <hkern g1="b,thorn"
	g2="comma"
	k="37" />
    <hkern g1="b,thorn"
	g2="period"
	k="37" />
    <hkern g1="B"
	g2="U,Ugrave,Uacute,Ucircumflex,Udieresis"
	k="17" />
    <hkern g1="B"
	g2="comma"
	k="27" />
    <hkern g1="B"
	g2="period"
	k="27" />
    <hkern g1="B"
	g2="A,Agrave,Aacute,Acircumflex,Atilde,Adieresis,Aring,AE"
	k="30" />
    <hkern g1="c,ccedilla"
	g2="comma"
	k="5" />
    <hkern g1="c,ccedilla"
	g2="h"
	k="5" />
    <hkern g1="c,ccedilla"
	g2="k"
	k="5" />
    <hkern g1="c,ccedilla"
	g2="l,lslash"
	k="5" />
    <hkern g1="C,Ccedilla"
	g2="comma"
	k="13" />
    <hkern g1="C,Ccedilla"
	g2="period"
	k="13" />
    <hkern g1="C,Ccedilla"
	g2="A,Agrave,Aacute,Acircumflex,Atilde,Adieresis,Aring,AE"
	k="47" />
    <hkern g1="D,Eth"
	g2="V"
	k="30" />
    <hkern g1="D,Eth"
	g2="W"
	k="8" />
    <hkern g1="D,Eth"
	g2="Y,Yacute,Ydieresis"
	k="50" />
    <hkern g1="D,Eth"
	g2="comma"
	k="68" />
    <hkern g1="D,Eth"
	g2="period"
	k="62" />
    <hkern g1="D,Eth"
	g2="A,Agrave,Aacute,Acircumflex,Atilde,Adieresis,Aring,AE"
	k="43" />
    <hkern g1="e,egrave,eacute,ecircumflex,edieresis"
	g2="v"
	k="18" />
    <hkern g1="e,egrave,eacute,ecircumflex,edieresis"
	g2="y,yacute,ydieresis"
	k="17" />
    <hkern g1="e,egrave,eacute,ecircumflex,edieresis"
	g2="w"
	k="13" />
    <hkern g1="e,egrave,eacute,ecircumflex,edieresis"
	g2="comma"
	k="5" />
    <hkern g1="e,egrave,eacute,ecircumflex,edieresis"
	g2="period"
	k="7" />
    <hkern g1="e,egrave,eacute,ecircumflex,edieresis"
	g2="x"
	k="13" />
    <hkern g1="f,fi,fl"
	g2="comma"
	k="50" />
    <hkern g1="f,fi,fl"
	g2="period"
	k="50" />
    <hkern g1="f,fi,fl"
	g2="l,lslash"
	k="33" />
    <hkern g1="f,fi,fl"
	g2="a,agrave,aacute,acircumflex,atilde,adieresis,aring,ae"
	k="27" />
    <hkern g1="f,fi,fl"
	g2="e,egrave,eacute,ecircumflex,edieresis"
	k="27" />
    <hkern g1="f,fi,fl"
	g2="f,germandbls,fi,fl"
	k="33" />
    <hkern g1="f,fi,fl"
	g2="i,igrave,iacute,icircumflex,idieresis"
	k="33" />
    <hkern g1="f,fi,fl"
	g2="o,ograve,oacute,ocircumflex,otilde,odieresis,oslash,oe"
	k="27" />
    <hkern g1="F"
	g2="comma"
	k="187" />
    <hkern g1="F"
	g2="period"
	k="176" />
    <hkern g1="F"
	g2="A,Agrave,Aacute,Acircumflex,Atilde,Adieresis,Aring,AE"
	k="70" />
    <hkern g1="F"
	g2="a,agrave,aacute,acircumflex,atilde,adieresis,aring,ae"
	k="20" />
    <hkern g1="F"
	g2="e,egrave,eacute,ecircumflex,edieresis"
	k="20" />
    <hkern g1="F"
	g2="o,ograve,oacute,ocircumflex,otilde,odieresis,oslash,oe"
	k="20" />
    <hkern g1="g"
	g2="comma"
	k="7" />
    <hkern g1="g"
	g2="period"
	k="7" />
    <hkern g1="G"
	g2="comma"
	k="33" />
    <hkern g1="G"
	g2="period"
	k="27" />
    <hkern g1="G"
	g2="A,Agrave,Aacute,Acircumflex,Atilde,Adieresis,Aring,AE"
	k="40" />
    <hkern g1="h"
	g2="y,yacute,ydieresis"
	k="23" />
    <hkern g1="h"
	g2="u,ugrave,uacute,ucircumflex,udieresis"
	k="17" />
    <hkern g1="J"
	g2="u,ugrave,uacute,ucircumflex,udieresis"
	k="10" />
    <hkern g1="J"
	g2="comma"
	k="22" />
    <hkern g1="J"
	g2="period"
	k="22" />
    <hkern g1="J"
	g2="A,Agrave,Aacute,Acircumflex,Atilde,Adieresis,Aring,AE"
	k="37" />
    <hkern g1="J"
	g2="a,agrave,aacute,acircumflex,atilde,adieresis,aring,ae"
	k="7" />
    <hkern g1="J"
	g2="e,egrave,eacute,ecircumflex,edieresis"
	k="7" />
    <hkern g1="J"
	g2="o,ograve,oacute,ocircumflex,otilde,odieresis,oslash,oe"
	k="7" />
    <hkern g1="k"
	g2="y,yacute,ydieresis"
	k="20" />
    <hkern g1="k"
	g2="a,agrave,aacute,acircumflex,atilde,adieresis,aring,ae"
	k="37" />
    <hkern g1="k"
	g2="e,egrave,eacute,ecircumflex,edieresis"
	k="37" />
    <hkern g1="k"
	g2="o,ograve,oacute,ocircumflex,otilde,odieresis,oslash,oe"
	k="37" />
    <hkern g1="K"
	g2="y,yacute,ydieresis"
	k="37" />
    <hkern g1="K"
	g2="O,Ograve,Oacute,Ocircumflex,Otilde,Odieresis,Oslash,OE"
	k="35" />
    <hkern g1="K"
	g2="u,ugrave,uacute,ucircumflex,udieresis"
	k="47" />
    <hkern g1="K"
	g2="a,agrave,aacute,acircumflex,atilde,adieresis,aring,ae"
	k="43" />
    <hkern g1="K"
	g2="e,egrave,eacute,ecircumflex,edieresis"
	k="43" />
    <hkern g1="K"
	g2="o,ograve,oacute,ocircumflex,otilde,odieresis,oslash,oe"
	k="43" />
    <hkern g1="L,Lslash"
	g2="y,yacute,ydieresis"
	k="33" />
    <hkern g1="L,Lslash"
	g2="O,Ograve,Oacute,Ocircumflex,Otilde,Odieresis,Oslash,OE"
	k="53" />
    <hkern g1="L,Lslash"
	g2="T"
	k="67" />
    <hkern g1="L,Lslash"
	g2="V"
	k="108" />
    <hkern g1="L,Lslash"
	g2="W"
	k="52" />
    <hkern g1="L,Lslash"
	g2="Y,Yacute,Ydieresis"
	k="95" />
    <hkern g1="L,Lslash"
	g2="quotedblright"
	k="80" />
    <hkern g1="L,Lslash"
	g2="quoteright"
	k="80" />
    <hkern g1="L,Lslash"
	g2="o,ograve,oacute,ocircumflex,otilde,odieresis,oslash,oe"
	k="27" />
    <hkern g1="m"
	g2="y,yacute,ydieresis"
	k="23" />
    <hkern g1="m"
	g2="u,ugrave,uacute,ucircumflex,udieresis"
	k="17" />
    <hkern g1="n,ntilde"
	g2="v"
	k="28" />
    <hkern g1="n,ntilde"
	g2="y,yacute,ydieresis"
	k="33" />
    <hkern g1="n,ntilde"
	g2="u,ugrave,uacute,ucircumflex,udieresis"
	k="17" />
    <hkern g1="o,ograve,oacute,ocircumflex,otilde,odieresis,oslash,oe"
	g2="v"
	k="25" />
    <hkern g1="o,ograve,oacute,ocircumflex,otilde,odieresis,oslash,oe"
	g2="y,yacute,ydieresis"
	k="23" />
    <hkern g1="o,ograve,oacute,ocircumflex,otilde,odieresis,oslash,oe"
	g2="w"
	k="20" />
    <hkern g1="o,ograve,oacute,ocircumflex,otilde,odieresis,oslash,oe"
	g2="comma"
	k="25" />
    <hkern g1="o,ograve,oacute,ocircumflex,otilde,odieresis,oslash,oe"
	g2="period"
	k="27" />
    <hkern g1="o,ograve,oacute,ocircumflex,otilde,odieresis,oslash,oe"
	g2="x"
	k="27" />
    <hkern g1="O,Ograve,Oacute,Ocircumflex,Otilde,Odieresis,Oslash,OE"
	g2="T"
	k="50" />
    <hkern g1="O,Ograve,Oacute,Ocircumflex,Otilde,Odieresis,Oslash,OE"
	g2="V"
	k="48" />
    <hkern g1="O,Ograve,Oacute,Ocircumflex,Otilde,Odieresis,Oslash,OE"
	g2="W"
	k="13" />
    <hkern g1="O,Ograve,Oacute,Ocircumflex,Otilde,Odieresis,Oslash,OE"
	g2="Y,Yacute,Ydieresis"
	k="42" />
    <hkern g1="O,Ograve,Oacute,Ocircumflex,Otilde,Odieresis,Oslash,OE"
	g2="comma"
	k="43" />
    <hkern g1="O,Ograve,Oacute,Ocircumflex,Otilde,Odieresis,Oslash,OE"
	g2="period"
	k="43" />
    <hkern g1="O,Ograve,Oacute,Ocircumflex,Otilde,Odieresis,Oslash,OE"
	g2="A,Agrave,Aacute,Acircumflex,Atilde,Adieresis,Aring,AE"
	k="40" />
    <hkern g1="O,Ograve,Oacute,Ocircumflex,Otilde,Odieresis,Oslash,OE"
	g2="X"
	k="40" />
    <hkern g1="p"
	g2="y,yacute,ydieresis"
	k="20" />
    <hkern g1="p"
	g2="comma"
	k="25" />
    <hkern g1="p"
	g2="period"
	k="27" />
    <hkern g1="P"
	g2="comma"
	k="207" />
    <hkern g1="P"
	g2="period"
	k="200" />
    <hkern g1="P"
	g2="A,Agrave,Aacute,Acircumflex,Atilde,Adieresis,Aring,AE"
	k="83" />
    <hkern g1="P"
	g2="a,agrave,aacute,acircumflex,atilde,adieresis,aring,ae"
	k="17" />
    <hkern g1="P"
	g2="e,egrave,eacute,ecircumflex,edieresis"
	k="17" />
    <hkern g1="P"
	g2="o,ograve,oacute,ocircumflex,otilde,odieresis,oslash,oe"
	k="17" />
    <hkern g1="Q"
	g2="comma"
	k="-7" />
    <hkern g1="r"
	g2="v"
	k="-17" />
    <hkern g1="r"
	g2="y,yacute,ydieresis"
	k="-20" />
    <hkern g1="r"
	g2="comma"
	k="82" />
    <hkern g1="r"
	g2="period"
	k="83" />
    <hkern g1="r"
	g2="a,agrave,aacute,acircumflex,atilde,adieresis,aring,ae"
	k="42" />
    <hkern g1="r"
	g2="e,egrave,eacute,ecircumflex,edieresis"
	k="38" />
    <hkern g1="r"
	g2="o,ograve,oacute,ocircumflex,otilde,odieresis,oslash,oe"
	k="42" />
    <hkern g1="r"
	g2="c,ccedilla"
	k="42" />
    <hkern g1="r"
	g2="d,dotlessi"
	k="32" />
    <hkern g1="r"
	g2="g"
	k="28" />
    <hkern g1="r"
	g2="q"
	k="25" />
    <hkern g1="r"
	g2="t"
	k="-27" />
    <hkern g1="r"
	g2="hyphen"
	k="47" />
    <hkern g1="R"
	g2="O,Ograve,Oacute,Ocircumflex,Otilde,Odieresis,Oslash,OE"
	k="-5" />
    <hkern g1="R"
	g2="U,Ugrave,Uacute,Ucircumflex,Udieresis"
	k="-7" />
    <hkern g1="R"
	g2="V"
	k="8" />
    <hkern g1="R"
	g2="W"
	k="-5" />
    <hkern g1="R"
	g2="Y,Yacute,Ydieresis"
	k="15" />
    <hkern g1="s,germandbls,scaron"
	g2="w"
	k="22" />
    <hkern g1="s,germandbls,scaron"
	g2="comma"
	k="12" />
    <hkern g1="s,germandbls,scaron"
	g2="period"
	k="13" />
    <hkern g1="S,Scaron"
	g2="comma"
	k="20" />
    <hkern g1="S,Scaron"
	g2="period"
	k="27" />
    <hkern g1="t"
	g2="a,agrave,aacute,acircumflex,atilde,adieresis,aring,ae"
	k="30" />
    <hkern g1="t"
	g2="e,egrave,eacute,ecircumflex,edieresis"
	k="30" />
    <hkern g1="t"
	g2="o,ograve,oacute,ocircumflex,otilde,odieresis,oslash,oe"
	k="30" />
    <hkern g1="T"
	g2="y,yacute,ydieresis"
	k="38" />
    <hkern g1="T"
	g2="O,Ograve,Oacute,Ocircumflex,Otilde,Odieresis,Oslash,OE"
	k="50" />
    <hkern g1="T"
	g2="u,ugrave,uacute,ucircumflex,udieresis"
	k="89" />
    <hkern g1="T"
	g2="w"
	k="65" />
    <hkern g1="T"
	g2="comma"
	k="109" />
    <hkern g1="T"
	g2="period"
	k="115" />
    <hkern g1="T"
	g2="A,Agrave,Aacute,Acircumflex,Atilde,Adieresis,Aring,AE"
	k="77" />
    <hkern g1="T"
	g2="h"
	k="7" />
    <hkern g1="T"
	g2="a,agrave,aacute,acircumflex,atilde,adieresis,aring,ae"
	k="83" />
    <hkern g1="T"
	g2="e,egrave,eacute,ecircumflex,edieresis"
	k="83" />
    <hkern g1="T"
	g2="o,ograve,oacute,ocircumflex,otilde,odieresis,oslash,oe"
	k="83" />
    <hkern g1="T"
	g2="c,ccedilla"
	k="80" />
    <hkern g1="T"
	g2="hyphen"
	k="78" />
    <hkern g1="T"
	g2="r"
	k="57" />
    <hkern g1="T"
	g2="s,scaron"
	k="53" />
    <hkern g1="T"
	g2="colon"
	k="67" />
    <hkern g1="T"
	g2="semicolon"
	k="76" />
    <hkern g1="U,Ugrave,Uacute,Ucircumflex,Udieresis"
	g2="comma"
	k="33" />
    <hkern g1="U,Ugrave,Uacute,Ucircumflex,Udieresis"
	g2="period"
	k="33" />
    <hkern g1="U,Ugrave,Uacute,Ucircumflex,Udieresis"
	g2="A,Agrave,Aacute,Acircumflex,Atilde,Adieresis,Aring,AE"
	k="33" />
    <hkern g1="v"
	g2="comma"
	k="90" />
    <hkern g1="v"
	g2="period"
	k="90" />
    <hkern g1="v"
	g2="a,agrave,aacute,acircumflex,atilde,adieresis,aring,ae"
	k="25" />
    <hkern g1="v"
	g2="e,egrave,eacute,ecircumflex,edieresis"
	k="25" />
    <hkern g1="v"
	g2="o,ograve,oacute,ocircumflex,otilde,odieresis,oslash,oe"
	k="25" />
    <hkern g1="V"
	g2="y,yacute,ydieresis"
	k="13" />
    <hkern g1="V"
	g2="G"
	k="48" />
    <hkern g1="V"
	g2="O,Ograve,Oacute,Ocircumflex,Otilde,Odieresis,Oslash,OE"
	k="48" />
    <hkern g1="V"
	g2="u,ugrave,uacute,ucircumflex,udieresis"
	k="57" />
    <hkern g1="V"
	g2="comma"
	k="155" />
    <hkern g1="V"
	g2="period"
	k="155" />
    <hkern g1="V"
	g2="A,Agrave,Aacute,Acircumflex,Atilde,Adieresis,Aring,AE"
	k="100" />
    <hkern g1="V"
	g2="a,agrave,aacute,acircumflex,atilde,adieresis,aring,ae"
	k="107" />
    <hkern g1="V"
	g2="e,egrave,eacute,ecircumflex,edieresis"
	k="107" />
    <hkern g1="V"
	g2="i,igrave,iacute,icircumflex,idieresis"
	k="23" />
    <hkern g1="V"
	g2="o,ograve,oacute,ocircumflex,otilde,odieresis,oslash,oe"
	k="107" />
    <hkern g1="V"
	g2="hyphen"
	k="72" />
    <hkern g1="V"
	g2="r"
	k="47" />
    <hkern g1="V"
	g2="colon"
	k="58" />
    <hkern g1="V"
	g2="semicolon"
	k="67" />
    <hkern g1="w"
	g2="comma"
	k="80" />
    <hkern g1="w"
	g2="period"
	k="80" />
    <hkern g1="w"
	g2="a,agrave,aacute,acircumflex,atilde,adieresis,aring,ae"
	k="20" />
    <hkern g1="w"
	g2="e,egrave,eacute,ecircumflex,edieresis"
	k="17" />
    <hkern g1="w"
	g2="o,ograve,oacute,ocircumflex,otilde,odieresis,oslash,oe"
	k="20" />
    <hkern g1="W"
	g2="y,yacute,ydieresis"
	k="17" />
    <hkern g1="W"
	g2="O,Ograve,Oacute,Ocircumflex,Otilde,Odieresis,Oslash,OE"
	k="13" />
    <hkern g1="W"
	g2="u,ugrave,uacute,ucircumflex,udieresis"
	k="37" />
    <hkern g1="W"
	g2="comma"
	k="106" />
    <hkern g1="W"
	g2="period"
	k="106" />
    <hkern g1="W"
	g2="A,Agrave,Aacute,Acircumflex,Atilde,Adieresis,Aring,AE"
	k="50" />
    <hkern g1="W"
	g2="h"
	k="5" />
    <hkern g1="W"
	g2="a,agrave,aacute,acircumflex,atilde,adieresis,aring,ae"
	k="57" />
    <hkern g1="W"
	g2="e,egrave,eacute,ecircumflex,edieresis"
	k="60" />
    <hkern g1="W"
	g2="i,igrave,iacute,icircumflex,idieresis"
	k="12" />
    <hkern g1="W"
	g2="o,ograve,oacute,ocircumflex,otilde,odieresis,oslash,oe"
	k="60" />
    <hkern g1="W"
	g2="hyphen"
	k="38" />
    <hkern g1="W"
	g2="r"
	k="23" />
    <hkern g1="W"
	g2="colon"
	k="27" />
    <hkern g1="W"
	g2="semicolon"
	k="33" />
    <hkern g1="x"
	g2="a,agrave,aacute,acircumflex,atilde,adieresis,aring,ae"
	k="27" />
    <hkern g1="x"
	g2="e,egrave,eacute,ecircumflex,edieresis"
	k="27" />
    <hkern g1="x"
	g2="o,ograve,oacute,ocircumflex,otilde,odieresis,oslash,oe"
	k="27" />
    <hkern g1="X"
	g2="C,Ccedilla"
	k="40" />
    <hkern g1="X"
	g2="O,Ograve,Oacute,Ocircumflex,Otilde,Odieresis,Oslash,OE"
	k="40" />
    <hkern g1="X"
	g2="a,agrave,aacute,acircumflex,atilde,adieresis,aring,ae"
	k="33" />
    <hkern g1="X"
	g2="e,egrave,eacute,ecircumflex,edieresis"
	k="33" />
    <hkern g1="X"
	g2="o,ograve,oacute,ocircumflex,otilde,odieresis,oslash,oe"
	k="33" />
    <hkern g1="y,yacute,ydieresis"
	g2="comma"
	k="87" />
    <hkern g1="y,yacute,ydieresis"
	g2="period"
	k="88" />
    <hkern g1="y,yacute,ydieresis"
	g2="a,agrave,aacute,acircumflex,atilde,adieresis,aring,ae"
	k="23" />
    <hkern g1="y,yacute,ydieresis"
	g2="e,egrave,eacute,ecircumflex,edieresis"
	k="23" />
    <hkern g1="y,yacute,ydieresis"
	g2="o,ograve,oacute,ocircumflex,otilde,odieresis,oslash,oe"
	k="23" />
    <hkern g1="y,yacute,ydieresis"
	g2="r"
	k="5" />
    <hkern g1="Y,Yacute,Ydieresis"
	g2="v"
	k="33" />
    <hkern g1="Y,Yacute,Ydieresis"
	g2="O,Ograve,Oacute,Ocircumflex,Otilde,Odieresis,Oslash,OE"
	k="42" />
    <hkern g1="Y,Yacute,Ydieresis"
	g2="u,ugrave,uacute,ucircumflex,udieresis"
	k="77" />
    <hkern g1="Y,Yacute,Ydieresis"
	g2="comma"
	k="132" />
    <hkern g1="Y,Yacute,Ydieresis"
	g2="period"
	k="132" />
    <hkern g1="Y,Yacute,Ydieresis"
	g2="A,Agrave,Aacute,Acircumflex,Atilde,Adieresis,Aring,AE"
	k="95" />
    <hkern g1="Y,Yacute,Ydieresis"
	g2="a,agrave,aacute,acircumflex,atilde,adieresis,aring,ae"
	k="103" />
    <hkern g1="Y,Yacute,Ydieresis"
	g2="e,egrave,eacute,ecircumflex,edieresis"
	k="103" />
    <hkern g1="Y,Yacute,Ydieresis"
	g2="i,igrave,iacute,icircumflex,idieresis"
	k="22" />
    <hkern g1="Y,Yacute,Ydieresis"
	g2="o,ograve,oacute,ocircumflex,otilde,odieresis,oslash,oe"
	k="103" />
    <hkern g1="Y,Yacute,Ydieresis"
	g2="q"
	k="103" />
    <hkern g1="Y,Yacute,Ydieresis"
	g2="hyphen"
	k="113" />
    <hkern g1="Y,Yacute,Ydieresis"
	g2="colon"
	k="58" />
    <hkern g1="Y,Yacute,Ydieresis"
	g2="semicolon"
	k="63" />
    <hkern g1="Y,Yacute,Ydieresis"
	g2="p"
	k="70" />
    <hkern g1="Y,Yacute,Ydieresis"
	g2="S,Scaron"
	k="40" />
    <hkern g1="quotedblleft"
	g2="A,Agrave,Aacute,Acircumflex,Atilde,Adieresis,Aring,AE"
	k="93" />
    <hkern g1="quoteleft"
	g2="A,Agrave,Aacute,Acircumflex,Atilde,Adieresis,Aring,AE"
	k="93" />
    <hkern g1="quoteright"
	g2="v"
	k="67" />
    <hkern g1="quoteright"
	g2="l,lslash"
	k="52" />
    <hkern g1="quoteright"
	g2="d,dotlessi"
	k="153" />
    <hkern g1="quoteright"
	g2="t"
	k="37" />
    <hkern g1="quoteright"
	g2="r"
	k="108" />
    <hkern g1="quoteright"
	g2="s,scaron"
	k="100" />
    <hkern g1="space"
	g2="T"
	k="92" />
    <hkern g1="space"
	g2="V"
	k="77" />
    <hkern g1="space"
	g2="W"
	k="40" />
    <hkern g1="space"
	g2="Y,Yacute,Ydieresis"
	k="100" />
    <hkern g1="space"
	g2="A,Agrave,Aacute,Acircumflex,Atilde,Adieresis,Aring,AE"
	k="50" />
  </font>
</defs></svg>
