// Jest Snapshot v1, https://goo.gl/fbAQLP

exports[`Pagination with props should render correctly 1`] = `
<ul
  className="pagination-actions"
>
  <li
    className="disabled"
  >
    <a
      href="/"
      onClick={[Function]}
    >
      <i
        className="icon-double-arrow-left"
      />
    </a>
  </li>
  <li
    className="disabled"
  >
    <a
      href="/"
      onClick={[Function]}
    >
      <i
        className="icon-arrow-left"
      />
    </a>
  </li>
  <li>
    <span>
      Page 
      1
       of 
      100
    </span>
  </li>
  <li
    className=""
  >
    <a
      href="/"
      onClick={[Function]}
    >
      <i
        className="icon-arrow-right"
      />
    </a>
  </li>
  <li
    className=""
  >
    <a
      href="/"
      onClick={[Function]}
    >
      <i
        className="icon-double-arrow-right"
      />
    </a>
  </li>
</ul>
`;

exports[`Pagination without props should render correctly 1`] = `
<ul
  className="pagination-actions"
>
  <li
    className="disabled"
  >
    <a
      href="/"
      onClick={[Function]}
    >
      <i
        className="icon-double-arrow-left"
      />
    </a>
  </li>
  <li
    className="disabled"
  >
    <a
      href="/"
      onClick={[Function]}
    >
      <i
        className="icon-arrow-left"
      />
    </a>
  </li>
  <li>
    <span>
      Page 
      1
       of 
      NaN
    </span>
  </li>
  <li
    className=""
  >
    <a
      href="/"
      onClick={[Function]}
    >
      <i
        className="icon-arrow-right"
      />
    </a>
  </li>
  <li
    className=""
  >
    <a
      href="/"
      onClick={[Function]}
    >
      <i
        className="icon-double-arrow-right"
      />
    </a>
  </li>
</ul>
`;
