{
  "metaData": {
    "status": 0
  },
  "findProfile": [],
  "findProfile2": [
    {
      "findProfileId": "24",
      "name": "Admin contract",
      "findCommandId": "45",
      "description": null,
      "sortKey": "1",
      "ownerId": null,
      "statusCode": "ACT",
      "lastUpdatedById": "268",
      "lastUpdatedAt": "3/25/2020 3:29:49 PM",
      "owner": null,
      "status": "Active",
      "findCommand": null,
      "lastUpdatedBy": "C5110593"
    }
  ],
  "outputMessages": null,
  "sqlExceptioMessages": null
}