// Jest Snapshot v1, https://goo.gl/fbAQLP

exports[`Toast should render correctly 1`] = `
<div
  className="toast-message"
>
  <span
    className="gaf-success"
  />
  <span
    className="toast-text"
  >
    Your email address is Verified
  </span>
</div>
`;
