// Jest Snapshot v1, https://goo.gl/fbAQLP

exports[`SearchBy should render correctly 1`] = `[Function]`;

exports[`SearchBy with no label should render correctly 1`] = `[Function]`;

exports[`SearchBy with no placeholder should render correctly 1`] = `[Function]`;

exports[`TypeAhead should render correctly 1`] = `[Function]`;
