// Jest Snapshot v1, https://goo.gl/fbAQLP

exports[`Table with no data should render correctly 1`] = `
<div
  className="gaf-table gaf-scrollbar"
>
  <Table
    bordered={true}
    bsClass="table"
    condensed={false}
    hover={false}
    responsive={true}
    striped={false}
  >
    <thead>
      <tr />
    </thead>
    <tbody />
  </Table>
</div>
`;

exports[`Table with props should render correctly 1`] = `
<div
  className="gaf-table gaf-scrollbar"
>
  <Table
    bordered={true}
    bsClass="table"
    condensed={false}
    hover={false}
    responsive={true}
    striped={false}
  >
    <thead>
      <tr>
        <th
          key="0"
          onClick={[Function]}
        >
          <a
            href="/"
          >
            ACCOUNT #
             
            <span
              className="arrow-ascending arrow-sort"
            />
            <span
              className="arrow-descending arrow-sort"
            />
          </a>
        </th>
        <th
          key="1"
          onClick={[Function]}
        >
          <a
            href="/"
          >
            CONTRACTOR NAME
             
            <span
              className="arrow-ascending arrow-sort"
            />
            <span
              className="arrow-descending arrow-sort"
            />
          </a>
        </th>
        <th
          key="2"
          onClick={[Function]}
        >
          <a
            href="/"
          >
            CITY
             
            <span
              className="arrow-ascending arrow-sort"
            />
            <span
              className="arrow-descending arrow-sort"
            />
          </a>
        </th>
      </tr>
    </thead>
    <tbody>
      <tr
        key="0"
      >
        <td
          data-col-name="ACCOUNT #:"
          key="0"
        >
          111
        </td>
        <td
          data-col-name="CONTRACTOR NAME:"
          key="1"
        >
          XXX
        </td>
        <td
          data-col-name="CITY:"
          key="2"
        >
          CCC
        </td>
      </tr>
    </tbody>
  </Table>
</div>
`;

exports[`Table without props should render correctly 1`] = `
<div
  className="gaf-table gaf-scrollbar"
>
  <Table
    bordered={true}
    bsClass="table"
    condensed={false}
    hover={false}
    responsive={true}
    striped={false}
  >
    <thead>
      <tr />
    </thead>
    <tbody />
  </Table>
</div>
`;
