// Jest Snapshot v1, https://goo.gl/fbAQLP

exports[`cartSummaryEachAddress List should render correctly 1`] = `
<div
  className="cart-address"
>
  <div
    className="address"
  >
    <div
      className="gaf-radio"
    >
      <input
        checked={true}
        disabled={true}
        id="address0"
        key="0"
        name="radio-group"
        onChange={[Function]}
        type="radio"
      />
      <label
        htmlFor="address0"
      />
    </div>
  </div>
  <div
    className="address-details"
  >
    <p>
       
       
    </p>
    <p>
       
       
    </p>
    <p>
       
      ,
       
       
    </p>
  </div>
</div>
`;

exports[`cartSummaryEachAddress List with Branch address should render correctly 1`] = `
<div
  className="cart-address"
>
  <div
    className="address"
  >
    <div
      className="gaf-radio"
    >
      <input
        checked={true}
        disabled={true}
        id="address0"
        key="0"
        name="radio-group"
        onChange={[Function]}
        type="radio"
      />
      <label
        htmlFor="address0"
      >
        Office
      </label>
    </div>
  </div>
  <div
    className="address-details"
  >
    <p>
       
       
    </p>
    <p>
       
       
    </p>
    <p>
       
      ,
       
       
    </p>
  </div>
</div>
`;

exports[`cartSummaryEachAddress List with Headquarters address should render correctly 1`] = `
<div
  className="cart-address"
>
  <div
    className="address"
  >
    <div
      className="gaf-radio"
    >
      <input
        checked=""
        disabled=""
        id="address0"
        key="0"
        name="radio-group"
        onChange={[Function]}
        type="radio"
      />
      <label
        htmlFor="address0"
      >
        Headquaters
      </label>
    </div>
  </div>
  <div
    className="address-details"
  >
    <p>
       
       
    </p>
    <p>
       
       
    </p>
    <p>
       
      ,
       
       
    </p>
  </div>
</div>
`;

exports[`cartSummaryEachAddress List with Mailing address should render correctly 1`] = `
<div
  className="cart-address"
>
  <div
    className="address"
  >
    <div
      className="gaf-radio"
    >
      <input
        checked={true}
        disabled={true}
        id="address0"
        key="0"
        name="radio-group"
        onChange={[Function]}
        type="radio"
      />
      <label
        htmlFor="address0"
      >
        Mailing
      </label>
    </div>
  </div>
  <div
    className="address-details"
  >
    <p>
       
       
    </p>
    <p>
       
       
    </p>
    <p>
       
      ,
       
       
    </p>
  </div>
</div>
`;
