// Jest Snapshot v1, https://goo.gl/fbAQLP

exports[`RoleAccessPopup should render correctly 1`] = `
<Modal
  animation={true}
  autoFocus={true}
  backdrop={true}
  bsClass="modal"
  className="gaf-model-popup gaf-toast-alert-main"
  dialogComponentClass={[Function]}
  enforceFocus={true}
  keyboard={true}
  manager={
    ModalManager {
      "add": [Function],
      "containers": Array [],
      "data": Array [],
      "handleContainerOverflow": true,
      "hideSiblingNodes": true,
      "isTopModal": [Function],
      "modals": Array [],
      "remove": [Function],
    }
  }
  onHide={[Function]}
  renderBackdrop={[Function]}
  restoreFocus={true}
  show={true}
>
  <ModalBody
    bsClass="modal-body"
    componentClass="div"
  >
    <div
      className="gaf-toast-alert-dialog"
    >
      <span
        className="icon-alert-danger"
      />
      <p>
        Sorry, you do not have access to this feature.
      </p>
    </div>
  </ModalBody>
</Modal>
`;
