// Jest Snapshot v1, https://goo.gl/fbAQLP

exports[`CSV with props should render correctly 1`] = `
<CSVLink
  asyncOnClick={false}
  data={
    Array [
      Array [
        "CUSTOMER ID #",
        "CONTRACTOR NAME",
        "CITY",
      ],
      Array [
        "111",
        "AAA",
        "Auckland",
      ],
      Array [
        "222",
        "BBB",
        "Wellington",
      ],
      Array [
        "333",
        "CCC",
        "Sydney",
      ],
    ]
  }
  filename="Sample.csv"
  separator=","
  target="_blank"
  uFEFF={true}
/>
`;

exports[`CSV without props should render correctly 1`] = `
<CSVLink
  asyncOnClick={false}
  data={
    Array [
      Array [],
    ]
  }
  filename="Sample.csv"
  separator=","
  target="_blank"
  uFEFF={true}
/>
`;
