// Jest Snapshot v1, https://goo.gl/fbAQLP

exports[`OrderDetails should render correctly 1`] = `
<div>
  <HelmetWrapper
    defer={true}
    encodeSpecialCharacters={true}
  >
    <title>
      GAF Rewards | Order Details
    </title>
  </HelmetWrapper>
  <main
    className="main-content points-history-details"
  >
    <Grid
      bsClass="container"
      componentClass="div"
      fluid={false}
    >
      <div
        className="gaf-title-block"
      >
        <Row
          bsClass="row"
          componentClass="div"
        >
          <Col
            bsClass="col"
            componentClass="div"
            md={8}
          >
            <h2>
              Order Details
               - 
            </h2>
          </Col>
          <Col
            bsClass="col"
            className="text-right"
            componentClass="div"
            md={4}
          >
            <div
              className="links"
            >
              <a
                href="/"
                onClick={[Function]}
              >
                Point History
              </a>
            </div>
          </Col>
        </Row>
      </div>
      <div
        className="gaf-page-info"
      >
        <div
          className="points-earned"
        >
          <Row
            bsClass="row"
            className="show-grid"
            componentClass="div"
          >
            <Col
              bsClass="col"
              componentClass="div"
              md={7}
              sm={6}
              xs={12}
            >
              <p>
                <span>
                  Points Redeemed
                </span>
                <span>
                  1,300.00
                </span>
              </p>
              <div
                className="clearfix"
              />
            </Col>
            <Col
              bsClass="col"
              componentClass="div"
              md={5}
              sm={6}
              xs={12}
            >
              <SearchBy
                charLength={
                  Object {
                    "min": 3,
                  }
                }
                dynamicClass="pull-right"
                handleChange={[Function]}
                handleSubmit={[Function]}
                id="orderListProduct"
                isSearchByIcon={true}
                label=""
                placeholder="Search by Product"
                resetSearch={false}
                typeahead="false"
                validationErrTxt=""
              />
            </Col>
          </Row>
        </div>
        <section
          className="invoice-list"
        >
          <ProductList
            CSVHandler={[Function]}
            data={
              Array [
                Object {
                  "amountRedeemed": "2000",
                  "cardValue": "5000",
                  "productName": "Jiffy Lube",
                  "serviceFeeRate": "0.0",
                  "serviceFeeType": "$",
                },
                Object {
                  "amountRedeemed": "1000",
                  "cardValue": "5000",
                  "productName": "Cabela’s",
                  "serviceFeeRate": "2.0",
                  "serviceFeeType": "$",
                },
              ]
            }
            exportCSVData={
              Array [
                Object {
                  "amountRedeemed": "2000",
                  "cardValue": "5000",
                  "productName": "Jiffy Lube",
                  "serviceFeeRate": "0.0",
                  "serviceFeeType": "$",
                },
                Object {
                  "amountRedeemed": "1000",
                  "cardValue": "5000",
                  "productName": "Cabela’s",
                  "serviceFeeRate": "2.0",
                  "serviceFeeType": "$",
                },
              ]
            }
            isloading={true}
            onSort={[Function]}
          />
          <div
            className="gaf-pagination"
          >
            <Row
              bsClass="row"
              componentClass="div"
            >
              <Col
                bsClass="col"
                componentClass="div"
                md={6}
                sm={6}
                xsHidden={true}
              >
                <Form
                  bsClass="form"
                  componentClass="form"
                  horizontal={false}
                  inline={true}
                >
                  <ShowBy
                    onChange={[Function]}
                  />
                </Form>
              </Col>
              <Col
                bsClass="col"
                componentClass="div"
                md={6}
                sm={6}
                xs={12}
              >
                <Pagination
                  pageClick={[Function]}
                  perPage={1}
                  selected={1}
                  totalRows={2}
                />
              </Col>
            </Row>
          </div>
        </section>
      </div>
    </Grid>
  </main>
  <Loader />
</div>
`;

exports[`OrderDetails with connected component should render correctly 1`] = `
<Provider
  store={
    Object {
      "default": [Function],
      "dispatch": [Function],
      "getState": [Function],
      "subscribe": [Function],
    }
  }
>
  <Router
    history={
      Object {
        "action": "POP",
        "block": [Function],
        "createHref": [Function],
        "go": [Function],
        "goBack": [Function],
        "goForward": [Function],
        "length": 1,
        "listen": [Function],
        "location": Object {
          "hash": "",
          "pathname": "/",
          "search": "",
          "state": undefined,
        },
        "push": [MockFunction] {
          "calls": Array [
            Array [
              Object {
                "pathname": "/pointshistory",
              },
            ],
          ],
          "results": Array [
            Object {
              "isThrow": false,
              "value": undefined,
            },
          ],
        },
        "replace": [Function],
      }
    }
  >
    <Connect(withRouter(OrderDetails))
      gtmActions={
        Object {
          "gtmOrderDetailsCSVExport": [MockFunction],
          "gtmOrderDetailsSearch": [MockFunction],
          "gtmOrderDetailsToPointsHistory": [MockFunction],
        }
      }
      match={
        Object {
          "params": Object {
            "orderId": "123",
          },
        }
      }
      modifiedOn="2018-09-28T21:12:44.0122176+05:30"
      orderActions={
        Object {
          "getProduct": [MockFunction],
          "getProductClear": [MockFunction],
          "updatePageDetails": [MockFunction],
        }
      }
      productSerachActions={
        Object {
          "getSuggestion": [MockFunction],
        }
      }
    >
      <withRouter(OrderDetails)
        gtmActions={
          Object {
            "contactusFormSubmit": [Function],
            "gtmAchSuccess": [Function],
            "gtmAnnualRoofInstall": [Function],
            "gtmBusinessCommercialPercent": [Function],
            "gtmBusinessResidentialPercent": [Function],
            "gtmCardValue": [Function],
            "gtmCartDelete": [Function],
            "gtmCartQuantity": [Function],
            "gtmCategoryFilter": [Function],
            "gtmCategoryMenu": [Function],
            "gtmClaimDetailsCSVExport": [Function],
            "gtmClaimDetailsToContactus": [Function],
            "gtmClaimDetilsToClaimStatus": [Function],
            "gtmClaimSearch": [Function],
            "gtmClaimStatusAdvanceSearchToggle": [Function],
            "gtmClaimStatusApplyBtnClicked": [Function],
            "gtmClaimStatusCSVExport": [Function],
            "gtmClaimStatusClearBtnClicked": [Function],
            "gtmClaimStatusEndDateSelection": [Function],
            "gtmClaimStatusMatchItemSelection": [Function],
            "gtmClaimStatusSearchClaimNo": [Function],
            "gtmClaimStatusSearchProduct": [Function],
            "gtmClaimStatusStartDateSelection": [Function],
            "gtmClaimStatusStatusItemSelection": [Function],
            "gtmClaimStatusUserNameSelection": [Function],
            "gtmClaimStatusViewBySelection": [Function],
            "gtmClaimStatusViewClaimDetails": [Function],
            "gtmClaimStatusViewInvoice": [Function],
            "gtmContactusClaimDetails": [Function],
            "gtmContactusClaimStatus": [Function],
            "gtmDebitCardSuccess": [Function],
            "gtmDistributorClaimForm": [Function],
            "gtmEmailVerificationSuccess": [Function],
            "gtmFilterByEcard": [Function],
            "gtmFilterByPhysicalCard": [Function],
            "gtmGafProductsBought": [Function],
            "gtmGiftCardAmount": [Function],
            "gtmGiftCardCategory": [Function],
            "gtmGiftCardDetailView": [Function],
            "gtmGiftCardQuantity": [Function],
            "gtmGiftCardSearch": [Function],
            "gtmGiftCardType": [Function],
            "gtmHeaderMenuItem": [Function],
            "gtmInvoiceCount": [Function],
            "gtmMailClaimForm": [Function],
            "gtmMaterialBuyingOutlet": [Function],
            "gtmMyPlan": [Function],
            "gtmOrderDetailsCSVExport": [Function],
            "gtmOrderDetailsSearch": [Function],
            "gtmOrderDetailsToPointsHistory": [Function],
            "gtmPointsHistoryAdvanceSearchToggle": [Function],
            "gtmPointsHistoryApplyBtnClicked": [Function],
            "gtmPointsHistoryCSVExport": [Function],
            "gtmPointsHistoryClearBtnClicked": [Function],
            "gtmPointsHistoryEndDateSelection": [Function],
            "gtmPointsHistoryMatchItemSelection": [Function],
            "gtmPointsHistorySearchTransactionNo": [Function],
            "gtmPointsHistoryStartDateSelection": [Function],
            "gtmPointsHistoryTypeSelection": [Function],
            "gtmPointsHistoryUserNameSelection": [Function],
            "gtmPointsHistoryViewBySelection": [Function],
            "gtmPointsHistoryViewTransactionDetails": [Function],
            "gtmPrimaryBusinessType": [Function],
            "gtmProceedToCheckout": [Function],
            "gtmProceedToCheckoutItemCount": [Function],
            "gtmProceedToCheckoutOrderTotal": [Function],
            "gtmRedeemPoints": [Function],
            "gtmRedemptionDetails": [Function],
            "gtmRegistrationSuccess": [Function],
            "gtmResultMessage": [Function],
            "gtmRoofInstaller": [Function],
            "gtmServicesOffered": [Function],
            "gtmSpotPromotionDetailsMenu": [Function],
            "gtmSpotPromotionMenu": [Function],
            "gtmSpotPromotions": [Function],
            "gtmStateMore": [Function],
            "gtmSubmitInvoiceLink": [Function],
            "gtmSubmitInvoices": [Function],
            "gtmSubmitOrderFeeTotal": [Function],
            "gtmSubmitOrderProductTotal": [Function],
            "gtmSubmitOrderTotal": [Function],
            "gtmSuccessfulInvoice": [Function],
            "gtmTotalFileSize": [Function],
            "gtmUpdateShippingAddress": [Function],
            "gtmUploadInvoice": [Function],
            "gtmUploadInvoiceOptionsMenu": [Function],
            "gtmViewEligibleProducts": [Function],
            "gtmViewPromotionDetails": [Function],
            "gtmViewRewardPointsDetails": [Function],
            "gtmWhatQualifies": [Function],
            "gtmWhatQualifiesCSVExport": [Function],
          }
        }
        isLoading={true}
        listOfOrder={
          Array [
            Object {
              "amountRedeemed": "1000",
              "cardValue": "5000",
              "productName": "Cabela’s",
              "serviceFeeRate": "2.0",
              "serviceFeeType": "$",
            },
          ]
        }
        match={
          Object {
            "gtmActions": Object {
              "gtmOrderDetailsCSVExport": [MockFunction],
              "gtmOrderDetailsSearch": [MockFunction],
              "gtmOrderDetailsToPointsHistory": [MockFunction],
            },
            "match": Object {
              "params": Object {
                "orderId": "123",
              },
            },
            "modifiedOn": "2018-09-28T21:12:44.0122176+05:30",
            "orderActions": Object {
              "getProduct": [MockFunction],
              "getProductClear": [MockFunction],
              "updatePageDetails": [MockFunction],
            },
            "productSerachActions": Object {
              "getSuggestion": [MockFunction],
            },
          }
        }
        modifiedOn="2018-09-28T21:12:44.0122176+05:30"
        orderActions={
          Object {
            "getProduct": [Function],
            "getProductClear": [Function],
            "getProductFailure": [Function],
            "getProductSuccess": [Function],
            "updatePageDetails": [Function],
          }
        }
        orderItems={
          Array [
            Object {
              "amountRedeemed": "1000",
              "cardValue": "5000",
              "productName": "Cabela’s",
              "serviceFeeRate": "2.0",
              "serviceFeeType": "$",
            },
          ]
        }
        orderList={
          Array [
            Object {
              "amountRedeemed": "1000",
              "cardValue": "5000",
              "productName": "Cabela’s",
              "serviceFeeRate": "2.0",
              "serviceFeeType": "$",
            },
          ]
        }
        pageNumber={1}
        pointsRedeemed="1300"
        productSerachActions={
          Object {
            "clearSearchText": [Function],
            "getSuggestion": [Function],
            "getSuggestionFailure": [Function],
            "getSuggestionSuccess": [Function],
            "updateSearchText": [Function],
          }
        }
        showPerPage={25}
        totalItems={2}
      >
        <Route>
          <OrderDetails
            gtmActions={
              Object {
                "contactusFormSubmit": [Function],
                "gtmAchSuccess": [Function],
                "gtmAnnualRoofInstall": [Function],
                "gtmBusinessCommercialPercent": [Function],
                "gtmBusinessResidentialPercent": [Function],
                "gtmCardValue": [Function],
                "gtmCartDelete": [Function],
                "gtmCartQuantity": [Function],
                "gtmCategoryFilter": [Function],
                "gtmCategoryMenu": [Function],
                "gtmClaimDetailsCSVExport": [Function],
                "gtmClaimDetailsToContactus": [Function],
                "gtmClaimDetilsToClaimStatus": [Function],
                "gtmClaimSearch": [Function],
                "gtmClaimStatusAdvanceSearchToggle": [Function],
                "gtmClaimStatusApplyBtnClicked": [Function],
                "gtmClaimStatusCSVExport": [Function],
                "gtmClaimStatusClearBtnClicked": [Function],
                "gtmClaimStatusEndDateSelection": [Function],
                "gtmClaimStatusMatchItemSelection": [Function],
                "gtmClaimStatusSearchClaimNo": [Function],
                "gtmClaimStatusSearchProduct": [Function],
                "gtmClaimStatusStartDateSelection": [Function],
                "gtmClaimStatusStatusItemSelection": [Function],
                "gtmClaimStatusUserNameSelection": [Function],
                "gtmClaimStatusViewBySelection": [Function],
                "gtmClaimStatusViewClaimDetails": [Function],
                "gtmClaimStatusViewInvoice": [Function],
                "gtmContactusClaimDetails": [Function],
                "gtmContactusClaimStatus": [Function],
                "gtmDebitCardSuccess": [Function],
                "gtmDistributorClaimForm": [Function],
                "gtmEmailVerificationSuccess": [Function],
                "gtmFilterByEcard": [Function],
                "gtmFilterByPhysicalCard": [Function],
                "gtmGafProductsBought": [Function],
                "gtmGiftCardAmount": [Function],
                "gtmGiftCardCategory": [Function],
                "gtmGiftCardDetailView": [Function],
                "gtmGiftCardQuantity": [Function],
                "gtmGiftCardSearch": [Function],
                "gtmGiftCardType": [Function],
                "gtmHeaderMenuItem": [Function],
                "gtmInvoiceCount": [Function],
                "gtmMailClaimForm": [Function],
                "gtmMaterialBuyingOutlet": [Function],
                "gtmMyPlan": [Function],
                "gtmOrderDetailsCSVExport": [Function],
                "gtmOrderDetailsSearch": [Function],
                "gtmOrderDetailsToPointsHistory": [Function],
                "gtmPointsHistoryAdvanceSearchToggle": [Function],
                "gtmPointsHistoryApplyBtnClicked": [Function],
                "gtmPointsHistoryCSVExport": [Function],
                "gtmPointsHistoryClearBtnClicked": [Function],
                "gtmPointsHistoryEndDateSelection": [Function],
                "gtmPointsHistoryMatchItemSelection": [Function],
                "gtmPointsHistorySearchTransactionNo": [Function],
                "gtmPointsHistoryStartDateSelection": [Function],
                "gtmPointsHistoryTypeSelection": [Function],
                "gtmPointsHistoryUserNameSelection": [Function],
                "gtmPointsHistoryViewBySelection": [Function],
                "gtmPointsHistoryViewTransactionDetails": [Function],
                "gtmPrimaryBusinessType": [Function],
                "gtmProceedToCheckout": [Function],
                "gtmProceedToCheckoutItemCount": [Function],
                "gtmProceedToCheckoutOrderTotal": [Function],
                "gtmRedeemPoints": [Function],
                "gtmRedemptionDetails": [Function],
                "gtmRegistrationSuccess": [Function],
                "gtmResultMessage": [Function],
                "gtmRoofInstaller": [Function],
                "gtmServicesOffered": [Function],
                "gtmSpotPromotionDetailsMenu": [Function],
                "gtmSpotPromotionMenu": [Function],
                "gtmSpotPromotions": [Function],
                "gtmStateMore": [Function],
                "gtmSubmitInvoiceLink": [Function],
                "gtmSubmitInvoices": [Function],
                "gtmSubmitOrderFeeTotal": [Function],
                "gtmSubmitOrderProductTotal": [Function],
                "gtmSubmitOrderTotal": [Function],
                "gtmSuccessfulInvoice": [Function],
                "gtmTotalFileSize": [Function],
                "gtmUpdateShippingAddress": [Function],
                "gtmUploadInvoice": [Function],
                "gtmUploadInvoiceOptionsMenu": [Function],
                "gtmViewEligibleProducts": [Function],
                "gtmViewPromotionDetails": [Function],
                "gtmViewRewardPointsDetails": [Function],
                "gtmWhatQualifies": [Function],
                "gtmWhatQualifiesCSVExport": [Function],
              }
            }
            history={
              Object {
                "action": "POP",
                "block": [Function],
                "createHref": [Function],
                "go": [Function],
                "goBack": [Function],
                "goForward": [Function],
                "length": 1,
                "listen": [Function],
                "location": Object {
                  "hash": "",
                  "pathname": "/",
                  "search": "",
                  "state": undefined,
                },
                "push": [MockFunction] {
                  "calls": Array [
                    Array [
                      Object {
                        "pathname": "/pointshistory",
                      },
                    ],
                  ],
                  "results": Array [
                    Object {
                      "isThrow": false,
                      "value": undefined,
                    },
                  ],
                },
                "replace": [Function],
              }
            }
            isLoading={true}
            listOfOrder={
              Array [
                Object {
                  "amountRedeemed": "1000",
                  "cardValue": "5000",
                  "productName": "Cabela’s",
                  "serviceFeeRate": "2.0",
                  "serviceFeeType": "$",
                },
              ]
            }
            location={
              Object {
                "hash": "",
                "pathname": "/",
                "search": "",
                "state": undefined,
              }
            }
            match={
              Object {
                "isExact": true,
                "params": Object {},
                "path": "/",
                "url": "/",
              }
            }
            modifiedOn="2018-09-28T21:12:44.0122176+05:30"
            orderActions={
              Object {
                "getProduct": [Function],
                "getProductClear": [Function],
                "getProductFailure": [Function],
                "getProductSuccess": [Function],
                "updatePageDetails": [Function],
              }
            }
            orderItems={
              Array [
                Object {
                  "amountRedeemed": "1000",
                  "cardValue": "5000",
                  "productName": "Cabela’s",
                  "serviceFeeRate": "2.0",
                  "serviceFeeType": "$",
                },
              ]
            }
            orderList={
              Array [
                Object {
                  "amountRedeemed": "1000",
                  "cardValue": "5000",
                  "productName": "Cabela’s",
                  "serviceFeeRate": "2.0",
                  "serviceFeeType": "$",
                },
              ]
            }
            pageNumber={1}
            pointsRedeemed="1300"
            productSerachActions={
              Object {
                "clearSearchText": [Function],
                "getSuggestion": [Function],
                "getSuggestionFailure": [Function],
                "getSuggestionSuccess": [Function],
                "updateSearchText": [Function],
              }
            }
            showPerPage={25}
            totalItems={2}
          >
            <div>
              <HelmetWrapper
                defer={true}
                encodeSpecialCharacters={true}
              >
                <SideEffect(NullComponent)
                  defer={true}
                  encodeSpecialCharacters={true}
                  title="GAF Rewards | Order Details"
                  titleAttributes={Object {}}
                >
                  <NullComponent
                    defer={true}
                    encodeSpecialCharacters={true}
                    title="GAF Rewards | Order Details"
                    titleAttributes={Object {}}
                  />
                </SideEffect(NullComponent)>
              </HelmetWrapper>
              <main
                className="main-content points-history-details"
              >
                <Grid
                  bsClass="container"
                  componentClass="div"
                  fluid={false}
                >
                  <div
                    className="container"
                  >
                    <div
                      className="gaf-title-block"
                    >
                      <Row
                        bsClass="row"
                        componentClass="div"
                      >
                        <div
                          className="row"
                        >
                          <Col
                            bsClass="col"
                            componentClass="div"
                            md={8}
                          >
                            <div
                              className="col-md-8"
                            >
                              <h2>
                                Order Details
                                 - 
                              </h2>
                            </div>
                          </Col>
                          <Col
                            bsClass="col"
                            className="text-right"
                            componentClass="div"
                            md={4}
                          >
                            <div
                              className="text-right col-md-4"
                            >
                              <div
                                className="links"
                              >
                                <a
                                  href="/"
                                  onClick={[Function]}
                                >
                                  Point History
                                </a>
                              </div>
                            </div>
                          </Col>
                        </div>
                      </Row>
                    </div>
                    <div
                      className="gaf-page-info"
                    >
                      <div
                        className="points-earned"
                      >
                        <Row
                          bsClass="row"
                          className="show-grid"
                          componentClass="div"
                        >
                          <div
                            className="show-grid row"
                          >
                            <Col
                              bsClass="col"
                              componentClass="div"
                              md={7}
                              sm={6}
                              xs={12}
                            >
                              <div
                                className="col-md-7 col-sm-6 col-xs-12"
                              >
                                <p>
                                  <span>
                                    Points Redeemed
                                  </span>
                                  <span>
                                    1,300.00
                                  </span>
                                </p>
                                <div
                                  className="clearfix"
                                />
                              </div>
                            </Col>
                            <Col
                              bsClass="col"
                              componentClass="div"
                              md={5}
                              sm={6}
                              xs={12}
                            >
                              <div
                                className="col-md-5 col-sm-6 col-xs-12"
                              >
                                <SearchBy
                                  charLength={
                                    Object {
                                      "min": 3,
                                    }
                                  }
                                  dynamicClass="pull-right"
                                  handleChange={[Function]}
                                  handleSubmit={[Function]}
                                  id="orderListProduct"
                                  isSearchByIcon={true}
                                  label=""
                                  placeholder="Search by Product"
                                  resetSearch={false}
                                  typeahead="false"
                                  validationErrTxt=""
                                >
                                  <form
                                    className="display-inline"
                                    onSubmit={[Function]}
                                  >
                                    <div
                                      className="form-group gaf-form GAF-typeahead pull-right"
                                    >
                                      <input
                                        autoComplete="off"
                                        className="form-control"
                                        id="orderListProduct"
                                        onBlur={[Function]}
                                        onChange={[Function]}
                                        onFocus={[Function]}
                                        placeholder="Search by Product"
                                        type="text"
                                        value=""
                                      />
                                      <a
                                        className="icon-search"
                                        href="/#"
                                        onClick={[Function]}
                                      />
                                    </div>
                                  </form>
                                </SearchBy>
                              </div>
                            </Col>
                          </div>
                        </Row>
                      </div>
                      <section
                        className="invoice-list"
                      >
                        <ProductList
                          CSVHandler={[Function]}
                          data={
                            Array [
                              Object {
                                "amountRedeemed": "1000",
                                "cardValue": "5000",
                                "productName": "Cabela’s",
                                "serviceFeeRate": "2.0",
                                "serviceFeeType": "$",
                              },
                            ]
                          }
                          exportCSVData={
                            Array [
                              Object {
                                "amountRedeemed": "1000",
                                "cardValue": "5000",
                                "productName": "Cabela’s",
                                "serviceFeeRate": "2.0",
                                "serviceFeeType": "$",
                              },
                            ]
                          }
                          isloading={true}
                          onSort={[Function]}
                        >
                          <div>
                            <div
                              className="gaf-table-header"
                            >
                              <Row
                                bsClass="row"
                                className="show-grid"
                                componentClass="div"
                              >
                                <div
                                  className="show-grid row"
                                >
                                  <Col
                                    bsClass="col"
                                    componentClass="div"
                                    lg={6}
                                    md={4}
                                    sm={4}
                                    xs={8}
                                  >
                                    <div
                                      className="col-lg-6 col-md-4 col-sm-4 col-xs-8"
                                    >
                                      <h4>
                                        Item(s) ordered
                                      </h4>
                                    </div>
                                  </Col>
                                  <Col
                                    bsClass="col"
                                    componentClass="div"
                                    lg={6}
                                    md={8}
                                    sm={8}
                                    xs={4}
                                  >
                                    <div
                                      className="col-lg-6 col-md-8 col-sm-8 col-xs-4"
                                    >
                                      <div
                                        className="gaf-export-block"
                                      >
                                        <CSV
                                          config={
                                            Array [
                                              Object {
                                                "colName": "TYPE",
                                                "key": "cardType",
                                              },
                                              Object {
                                                "colName": "ITEM",
                                                "key": "productName",
                                              },
                                              Object {
                                                "colName": "QTY",
                                                "key": "quantity",
                                              },
                                              Object {
                                                "colName": "VALUE",
                                                "key": "cardValue",
                                              },
                                              Object {
                                                "colName": "FEE",
                                                "key": "serviceFeeRate",
                                              },
                                              Object {
                                                "colName": "TOTAL POINTS",
                                                "key": "amountRedeemed",
                                              },
                                              Object {
                                                "colName": "STATUS",
                                                "key": "itemStatus",
                                              },
                                              Object {
                                                "colName": "UPDATED DATE",
                                                "key": "modifiedOn",
                                              },
                                            ]
                                          }
                                          data={
                                            Array [
                                              Object {
                                                "amountRedeemed": "1000",
                                                "cardValue": "5000",
                                                "productName": "Cabela’s",
                                                "serviceFeeRate": "2.0",
                                                "serviceFeeType": "$",
                                              },
                                            ]
                                          }
                                          filename="OrderDetails.csv"
                                          onChage={[Function]}
                                        >
                                          <a
                                            className=""
                                            href="/"
                                            onClick={[Function]}
                                          >
                                            <div
                                              className="pull-right"
                                            >
                                              <span>
                                                <i
                                                  className="icon-Export-Icon"
                                                />
                                                <span>
                                                  Export
                                                </span>
                                              </span>
                                            </div>
                                          </a>
                                        </CSV>
                                      </div>
                                    </div>
                                  </Col>
                                </div>
                              </Row>
                            </div>
                            <div
                              className="order-details-table"
                            >
                              <Tables
                                config={
                                  Array [
                                    Object {
                                      "key": "cardType",
                                      "sort": true,
                                      "title": "TYPE",
                                    },
                                    Object {
                                      "key": "productName",
                                      "sort": true,
                                      "title": "ITEM",
                                    },
                                    Object {
                                      "key": "quantity",
                                      "sort": true,
                                      "title": "QTY",
                                    },
                                    Object {
                                      "key": "cardValue",
                                      "sort": true,
                                      "title": "VALUE",
                                    },
                                    Object {
                                      "key": "serviceFeeRate",
                                      "sort": true,
                                      "title": "FEE",
                                    },
                                    Object {
                                      "key": "amountRedeemed",
                                      "sort": true,
                                      "title": "TOTAL POINTS",
                                    },
                                    Object {
                                      "key": "itemStatus",
                                      "sort": true,
                                      "title": "STATUS",
                                    },
                                    Object {
                                      "key": "modifiedOn",
                                      "sort": true,
                                      "title": "UPDATED DATE",
                                    },
                                  ]
                                }
                                data={
                                  Array [
                                    Object {
                                      "amountRedeemed": "1000",
                                      "cardValue": "5000",
                                      "productName": "Cabela’s",
                                      "serviceFeeRate": "2.0",
                                      "serviceFeeType": "$",
                                    },
                                  ]
                                }
                                isLoading={true}
                                onSortingClick={[Function]}
                              >
                                <div
                                  className="gaf-table gaf-scrollbar"
                                >
                                  <Table
                                    bordered={true}
                                    bsClass="table"
                                    condensed={false}
                                    hover={false}
                                    responsive={true}
                                    striped={false}
                                  >
                                    <div
                                      className="table-responsive"
                                    >
                                      <table
                                        className="table table-bordered"
                                      >
                                        <thead>
                                          <tr>
                                            <th
                                              key="0"
                                            >
                                              <a
                                                href="/"
                                                onClick={[Function]}
                                              >
                                                TYPE
                                                 
                                                <span
                                                  className="arrow-ascending arrow-sort"
                                                />
                                                <span
                                                  className="arrow-descending arrow-sort"
                                                />
                                              </a>
                                            </th>
                                            <th
                                              key="1"
                                            >
                                              <a
                                                href="/"
                                                onClick={[Function]}
                                              >
                                                ITEM
                                                 
                                                <span
                                                  className="arrow-ascending arrow-sort"
                                                />
                                                <span
                                                  className="arrow-descending arrow-sort"
                                                />
                                              </a>
                                            </th>
                                            <th
                                              key="2"
                                            >
                                              <a
                                                href="/"
                                                onClick={[Function]}
                                              >
                                                QTY
                                                 
                                                <span
                                                  className="arrow-ascending arrow-sort"
                                                />
                                                <span
                                                  className="arrow-descending arrow-sort"
                                                />
                                              </a>
                                            </th>
                                            <th
                                              key="3"
                                            >
                                              <a
                                                href="/"
                                                onClick={[Function]}
                                              >
                                                VALUE
                                                 
                                                <span
                                                  className="arrow-ascending arrow-sort"
                                                />
                                                <span
                                                  className="arrow-descending arrow-sort"
                                                />
                                              </a>
                                            </th>
                                            <th
                                              key="4"
                                            >
                                              <a
                                                href="/"
                                                onClick={[Function]}
                                              >
                                                FEE
                                                 
                                                <span
                                                  className="arrow-ascending arrow-sort"
                                                />
                                                <span
                                                  className="arrow-descending arrow-sort"
                                                />
                                              </a>
                                            </th>
                                            <th
                                              key="5"
                                            >
                                              <a
                                                href="/"
                                                onClick={[Function]}
                                              >
                                                TOTAL POINTS
                                                 
                                                <span
                                                  className="arrow-ascending arrow-sort"
                                                />
                                                <span
                                                  className="arrow-descending arrow-sort"
                                                />
                                              </a>
                                            </th>
                                            <th
                                              key="6"
                                            >
                                              <a
                                                href="/"
                                                onClick={[Function]}
                                              >
                                                STATUS
                                                 
                                                <span
                                                  className="arrow-ascending arrow-sort"
                                                />
                                                <span
                                                  className="arrow-descending arrow-sort"
                                                />
                                              </a>
                                            </th>
                                            <th
                                              key="7"
                                            >
                                              <a
                                                href="/"
                                                onClick={[Function]}
                                              >
                                                UPDATED DATE
                                                 
                                                <span
                                                  className="arrow-ascending arrow-sort"
                                                />
                                                <span
                                                  className="arrow-descending arrow-sort"
                                                />
                                              </a>
                                            </th>
                                          </tr>
                                        </thead>
                                        <tbody>
                                          <tr
                                            key="0"
                                          >
                                            <td
                                              data-col-name="TYPE:"
                                              key="0"
                                            />
                                            <td
                                              data-col-name="ITEM:"
                                              key="1"
                                            >
                                              Cabela’s
                                            </td>
                                            <td
                                              data-col-name="QTY:"
                                              key="2"
                                            />
                                            <td
                                              data-col-name="VALUE:"
                                              key="3"
                                            >
                                              5000
                                            </td>
                                            <td
                                              data-col-name="FEE:"
                                              key="4"
                                            >
                                              2.0
                                            </td>
                                            <td
                                              data-col-name="TOTAL POINTS:"
                                              key="5"
                                            >
                                              1000
                                            </td>
                                            <td
                                              data-col-name="STATUS:"
                                              key="6"
                                            />
                                            <td
                                              data-col-name="UPDATED DATE:"
                                              key="7"
                                            />
                                          </tr>
                                        </tbody>
                                      </table>
                                    </div>
                                  </Table>
                                </div>
                              </Tables>
                            </div>
                          </div>
                        </ProductList>
                        <div
                          className="gaf-pagination"
                        />
                      </section>
                    </div>
                  </div>
                </Grid>
              </main>
              <Loader>
                <div
                  className="loader"
                >
                  <div
                    className="loader-inner"
                  >
                    <div
                      className="logo"
                    />
                    <div
                      className="logo-svg"
                    >
                      <svg
                        height="99px"
                        version="1.1"
                        viewBox="0 0 99 99"
                        width="99px"
                        xmlns="http://www.w3.org/2000/svg"
                      >
                        <g
                          fill="none"
                          fillRule="evenodd"
                          id="Symbols"
                          stroke="none"
                          strokeWidth="1"
                        >
                          <g
                            fillRule="nonzero"
                            id="Header"
                            transform="translate(-132.000000, -1.000000)"
                          >
                            <g
                              id="gaf_logo_88x80"
                            >
                              <g
                                transform="translate(132.000000, 1.000000)"
                              >
                                <rect
                                  fill="#E40514"
                                  height="98.9159892"
                                  id="Rectangle-path"
                                  width="98.9159892"
                                  x="0"
                                  y="0"
                                />
                                <path
                                  d="M96.2059621,41.5489344 L96.2059621,33.9930829 L69.4274621,33.9930829 L69.4274621,
 65.5570432 L57.5398102,34.7242944 L46.2778243,34.7242944 L35.516371,65.4351746 L35.516371,
 48.4954431 L20.2501233,48.4954431 L20.2501233,55.4419517 L25.2554504,55.4419517 C25.2554504,
 58.2449289 21.0009224,59.5854832 18.623392,59.5854832 C16.2458617,59.5854832 11.4908009,
 59.0980089 11.4908009,49.4703916 C11.4908009,39.8427744 18.1228593,39.964643 18.1228593,
 39.964643 C23.7538523,39.964643 24.5046514,44.3519116 24.5046514,44.3519116 L34.6404388,
 44.3519116 C32.8885743,34.9680315 25.1303173,32.7743972 18.7485252,32.5306601 C12.3667332,
 32.2869229 1.35501355,36.3085858 1.35501355,49.4703916 C1.35501355,62.6321975 8.8630042,
 67.6288089 16.8715276,67.7506775 C17.1217939,67.7506775 17.3720603,67.7506775 17.6223266,67.7506775 C18.623392,
 67.7506775 19.2490579,67.6288089 19.999857,67.5069404 C25.5057168,66.5319918 28.0083803,62.8759346 28.0083803,
 62.8759346 L28.0083803,67.3850718 L44.2756934,67.3850718 L45.7772915,63.1196718 L57.9152098,63.1196718 L59.1665415,
 67.2632032 L80.0637822,67.2632032 L80.0637822,55.4419517 L92.8273663,55.4419517 L92.8273663,48.0079688 L80.1889153,
 48.0079688 L80.1889153,41.1833287 L96.2059621,41.1833287 L96.2059621,41.5489344 Z M47.9045556,56.782506 L52.0339504,
 43.4988316 L56.0382121,56.782506 L47.9045556,56.782506 Z"
                                  fill="#FFFFFF"
                                  id="Shape"
                                />
                              </g>
                            </g>
                          </g>
                        </g>
                      </svg>
                    </div>
                  </div>
                </div>
              </Loader>
            </div>
          </OrderDetails>
        </Route>
      </withRouter(OrderDetails)>
    </Connect(withRouter(OrderDetails))>
  </Router>
</Provider>
`;
