// Jest Snapshot v1, https://goo.gl/fbAQLP

exports[`RoofingCompanyCheck with { isRoofingContractor: no, contractorClassification: homeowner } should render correctly 1`] = `
<Fragment>
  <Col
    bsClass="col"
    componentClass="div"
    md={12}
  >
    <p
      className="install-roofs"
    >
      Do you or does your company installs roofs?
      <sup>
        *
      </sup>
    </p>
  </Col>
  <div
    className="install-yes-no yes-open no-open"
  >
    <Col
      bsClass="col"
      componentClass="div"
      md={6}
    >
      <div
        className="gaf-radio radio-total-inline clearfix"
      >
        <Field
          className="gaf-install-options col-md-3"
          component={[Function]}
          name="isRoofingContractor"
          onChange={[Function]}
          options={
            Array [
              Object {
                "title": "Yes",
                "value": "yes",
              },
              Object {
                "title": "No",
                "value": "no",
              },
            ]
          }
          type="radio"
          value="no"
        />
      </div>
    </Col>
    <div
      className="gaf-radio install-no clearfix"
    >
      <Col
        bsClass="col"
        componentClass="div"
        md={12}
      >
        <p
          className="classify-yourself"
        >
          How would you classify yourself?
        </p>
      </Col>
      <Field
        className="col-md-6"
        component={[Function]}
        name="contractorClassification"
        onChange={[Function]}
        options={
          Array [
            Object {
              "title": "Homeowner",
              "value": "Homeowner",
            },
            Object {
              "title": "Building Owner",
              "value": "Building Owner",
            },
            Object {
              "title": "Distributor",
              "value": "Distributor",
            },
            Object {
              "title": "Architect",
              "value": "Architect",
            },
            Object {
              "title": "Roofing Consultant",
              "value": "Roofing Consultant",
            },
            Object {
              "title": "Property Manager",
              "value": "Property Manager",
            },
            Object {
              "title": "Real Estate Professional",
              "value": "Real Estate Professional",
            },
            Object {
              "title": "Other - please describe below:",
              "value": "others",
            },
          ]
        }
        type="radio"
        value="homeowner"
      />
    </div>
  </div>
</Fragment>
`;

exports[`RoofingCompanyCheck with { isRoofingContractor: no, contractorClassification: others } should render correctly 1`] = `
<Fragment>
  <Col
    bsClass="col"
    componentClass="div"
    md={12}
  >
    <p
      className="install-roofs"
    >
      Do you or does your company installs roofs?
      <sup>
        *
      </sup>
    </p>
  </Col>
  <div
    className="install-yes-no yes-open no-open"
  >
    <Col
      bsClass="col"
      componentClass="div"
      md={6}
    >
      <div
        className="gaf-radio radio-total-inline clearfix"
      >
        <Field
          className="gaf-install-options col-md-3"
          component={[Function]}
          name="isRoofingContractor"
          onChange={[Function]}
          options={
            Array [
              Object {
                "title": "Yes",
                "value": "yes",
              },
              Object {
                "title": "No",
                "value": "no",
              },
            ]
          }
          type="radio"
          value="no"
        />
      </div>
    </Col>
    <div
      className="gaf-radio install-no clearfix"
    >
      <Col
        bsClass="col"
        componentClass="div"
        md={12}
      >
        <p
          className="classify-yourself"
        >
          How would you classify yourself?
        </p>
      </Col>
      <Field
        className="col-md-6"
        component={[Function]}
        name="contractorClassification"
        onChange={[Function]}
        options={
          Array [
            Object {
              "title": "Homeowner",
              "value": "Homeowner",
            },
            Object {
              "title": "Building Owner",
              "value": "Building Owner",
            },
            Object {
              "title": "Distributor",
              "value": "Distributor",
            },
            Object {
              "title": "Architect",
              "value": "Architect",
            },
            Object {
              "title": "Roofing Consultant",
              "value": "Roofing Consultant",
            },
            Object {
              "title": "Property Manager",
              "value": "Property Manager",
            },
            Object {
              "title": "Real Estate Professional",
              "value": "Real Estate Professional",
            },
            Object {
              "title": "Other - please describe below:",
              "value": "others",
            },
          ]
        }
        type="radio"
        value="others"
      />
      <div
        className="gaf-radio others-decs"
      >
        <div
          className="open other-desc-textarea"
        >
          <Field
            component="textarea"
            id="description"
            maxLength={120}
            name="description"
          />
        </div>
      </div>
    </div>
  </div>
</Fragment>
`;

exports[`RoofingCompanyCheck with { isRoofingContractor: yes, installedOption: professional } should render correctly 1`] = `
<Fragment>
  <Col
    bsClass="col"
    componentClass="div"
    md={12}
  >
    <p
      className="install-roofs"
    >
      Do you or does your company installs roofs?
      <sup>
        *
      </sup>
    </p>
  </Col>
  <div
    className="install-yes-no yes-open no-open"
  >
    <Col
      bsClass="col"
      componentClass="div"
      md={6}
    >
      <div
        className="gaf-radio radio-total-inline clearfix"
      >
        <Field
          className="gaf-install-options col-md-3"
          component={[Function]}
          name="isRoofingContractor"
          onChange={[Function]}
          options={
            Array [
              Object {
                "title": "Yes",
                "value": "yes",
              },
              Object {
                "title": "No",
                "value": "no",
              },
            ]
          }
          type="radio"
          value="yes"
        />
      </div>
    </Col>
    <Col
      bsClass="col"
      componentClass="div"
      md={12}
    >
      <div
        className="gaf-radio install-yes"
      >
        <Field
          className="gaf-install-options"
          component={[Function]}
          name="installedOption"
          onChange={[Function]}
          options={
            Array [
              Object {
                "title": "I am registering a company for GAF Rewards",
                "value": "company",
              },
            ]
          }
          type="radio"
          value="company"
        />
        <div
          className="ems-select-box"
        >
          <Field
            component={[Function]}
            id="authorizeeDesignation"
            menuItems={
              Array [
                Object {
                  "title": "Owner",
                  "value": "Owner",
                },
                Object {
                  "title": "Office Staff",
                  "value": "Office Staff",
                },
                Object {
                  "title": "Foreman",
                  "value": "Foreman",
                },
                Object {
                  "title": "Installer/Crew",
                  "value": "Installer/Crew",
                },
                Object {
                  "title": "Sales Professional",
                  "value": "Sales Professional",
                },
              ]
            }
            name="authorizeeDesignation"
            placeholder="Select"
          />
        </div>
        <Field
          className="gaf-install-options"
          component={[Function]}
          name="installedOption"
          onChange={[Function]}
          options={
            Array [
              Object {
                "title": "I am registering as an individual for GAF Rewards",
                "value": "individual",
              },
            ]
          }
          type="radio"
          value="company"
        />
        <Field
          component={[Function]}
          name="termsAndConditions"
          option={
            Object {
              "title": "I certify that I am an authorized person to sign the Terms & Conditions on behalf of my company.<sup>*</sup>",
            }
          }
        />
      </div>
    </Col>
  </div>
</Fragment>
`;

exports[`RoofingCompanyCheck with { isRoofingContractor: yes, installedOption: remodeler } should render correctly 1`] = `
<Fragment>
  <Col
    bsClass="col"
    componentClass="div"
    md={12}
  >
    <p
      className="install-roofs"
    >
      Do you or does your company installs roofs?
      <sup>
        *
      </sup>
    </p>
  </Col>
  <div
    className="install-yes-no yes-open no-open"
  >
    <Col
      bsClass="col"
      componentClass="div"
      md={6}
    >
      <div
        className="gaf-radio radio-total-inline clearfix"
      >
        <Field
          className="gaf-install-options col-md-3"
          component={[Function]}
          name="isRoofingContractor"
          onChange={[Function]}
          options={
            Array [
              Object {
                "title": "Yes",
                "value": "yes",
              },
              Object {
                "title": "No",
                "value": "no",
              },
            ]
          }
          type="radio"
          value="yes"
        />
      </div>
    </Col>
    <Col
      bsClass="col"
      componentClass="div"
      md={12}
    >
      <div
        className="gaf-radio install-yes"
      >
        <Field
          className="gaf-install-options"
          component={[Function]}
          name="installedOption"
          onChange={[Function]}
          options={
            Array [
              Object {
                "title": "I am registering a company for GAF Rewards",
                "value": "company",
              },
            ]
          }
          type="radio"
          value="remoduler"
        />
        <Field
          className="gaf-install-options"
          component={[Function]}
          name="installedOption"
          onChange={[Function]}
          options={
            Array [
              Object {
                "title": "I am registering as an individual for GAF Rewards",
                "value": "individual",
              },
            ]
          }
          type="radio"
          value="remoduler"
        />
        <Field
          component={[Function]}
          name="termsAndConditions"
          option={
            Object {
              "title": "I certify that I am an authorized person to sign the Terms & Conditions on behalf of my company.<sup>*</sup>",
            }
          }
        />
      </div>
    </Col>
  </div>
</Fragment>
`;
