// Jest Snapshot v1, https://goo.gl/fbAQLP

exports[`HeaderContainer with connected component should render correctly 1`] = `
<Provider
  store={
    Object {
      "default": [Function],
      "dispatch": [Function],
      "getState": [Function],
      "subscribe": [Function],
    }
  }
>
  <Router
    history={
      Object {
        "action": "POP",
        "block": [Function],
        "createHref": [Function],
        "go": [Function],
        "goBack": [Function],
        "goForward": [Function],
        "length": 1,
        "listen": [Function],
        "location": Object {
          "hash": "",
          "pathname": "/",
          "search": "",
          "state": undefined,
        },
        "push": [MockFunction],
        "replace": [Function],
      }
    }
  >
    <withRouter(Connect(HeaderContainer))>
      <Route>
        <Connect(HeaderContainer)
          history={
            Object {
              "action": "POP",
              "block": [Function],
              "createHref": [Function],
              "go": [Function],
              "goBack": [Function],
              "goForward": [Function],
              "length": 1,
              "listen": [Function],
              "location": Object {
                "hash": "",
                "pathname": "/",
                "search": "",
                "state": undefined,
              },
              "push": [MockFunction],
              "replace": [Function],
            }
          }
          location={
            Object {
              "hash": "",
              "pathname": "/",
              "search": "",
              "state": undefined,
            }
          }
          match={
            Object {
              "isExact": true,
              "params": Object {},
              "path": "/",
              "url": "/",
            }
          }
        >
          <HeaderContainer
            actions={
              Object {
                "accessPage": [Function],
                "getAdminProfileDetails": [Function],
                "getAdminProfileDetailsFailure": [Function],
                "getAdminProfileDetailsSuccess": [Function],
                "getProfileDetails": [Function],
                "getProfileDetailsFailure": [Function],
                "getProfileDetailsSuccess": [Function],
                "getRewardsDetails": [Function],
                "getRewardsDetailsFailure": [Function],
                "getRewardsDetailsSuccess": [Function],
              }
            }
            cartItemsCount={1}
            getCartCount={[Function]}
            history={
              Object {
                "action": "POP",
                "block": [Function],
                "createHref": [Function],
                "go": [Function],
                "goBack": [Function],
                "goForward": [Function],
                "length": 1,
                "listen": [Function],
                "location": Object {
                  "hash": "",
                  "pathname": "/",
                  "search": "",
                  "state": undefined,
                },
                "push": [MockFunction],
                "replace": [Function],
              }
            }
            location={
              Object {
                "hash": "",
                "pathname": "/",
                "search": "",
                "state": undefined,
              }
            }
            match={
              Object {
                "isExact": true,
                "params": Object {},
                "path": "/",
                "url": "/",
              }
            }
            rewardsInfo={
              Object {
                "expiryDate": "2018-08-09T16:57:19.0487212+05:30",
                "rewardsPoint": "2500",
              }
            }
            userInfo={
              Object {
                "contractInfo": Object {
                  "contractorImage": "tinsmiths.jpg",
                  "contractorName": "Queens Roofing and Tinsmithing Inc",
                },
                "contractorAccountNumber": "1234567890",
                "contractorCertificationNumber": "ME08560",
                "email": "Brain@gaf.com",
                "firstName": "Brain",
                "lastName": "Granger",
              }
            }
          >
            <header>
              <TopHeader
                cartCount={1}
                isAdmin={false}
                onCartClick={[Function]}
                onMyAccountClick={[Function]}
                onSignOutClick={[Function]}
                onViewDetailsClick={[Function]}
                profileInfo={
                  Object {
                    "adminUserInfo": undefined,
                    "rewardsInfo": Object {
                      "expiryDate": "2018-08-09T16:57:19.0487212+05:30",
                      "rewardsPoint": "2500",
                    },
                    "userInfo": Object {
                      "contractInfo": Object {
                        "contractorImage": "tinsmiths.jpg",
                        "contractorName": "Queens Roofing and Tinsmithing Inc",
                      },
                      "contractorAccountNumber": "1234567890",
                      "contractorCertificationNumber": "ME08560",
                      "email": "Brain@gaf.com",
                      "firstName": "Brain",
                      "lastName": "Granger",
                    },
                  }
                }
                showOverlay={false}
              >
                <section
                  className="header-top-logo-nav"
                >
                  <Grid
                    bsClass="container"
                    componentClass="div"
                    fluid={false}
                  >
                    <div
                      className="container"
                    >
                      <Row
                        bsClass="row"
                        className="show-grid"
                        componentClass="div"
                      >
                        <div
                          className="show-grid row"
                        >
                          <Col
                            bsClass="col"
                            componentClass="div"
                            md={6}
                            xs={7}
                          >
                            <div
                              className="col-md-6 col-xs-7"
                            >
                              <Logo
                                linkHref="/dashboard"
                              >
                                <div
                                  className="header-logo"
                                >
                                  <Link
                                    href="/dashboard"
                                    replace={false}
                                    to="/dashboard"
                                  >
                                    <a
                                      href="/dashboard"
                                      onClick={[Function]}
                                    >
                                      <Image
                                        bsClass="img"
                                        circle={false}
                                        responsive={false}
                                        rounded={false}
                                        src="/images/gaf-rewards-logo.png"
                                        thumbnail={false}
                                      >
                                        <img
                                          className=""
                                          src="/images/gaf-rewards-logo.png"
                                        />
                                      </Image>
                                    </a>
                                  </Link>
                                </div>
                              </Logo>
                            </div>
                          </Col>
                          <Col
                            bsClass="col"
                            className="top-header-icons pull-right"
                            componentClass="div"
                            md={6}
                            xs={5}
                          >
                            <div
                              className="top-header-icons pull-right col-md-6 col-xs-5"
                            >
                              <ul
                                className="header-top-nav pull-right"
                              >
                                <li>
                                  <a
                                    className="cart-icon"
                                    href="/"
                                    onClick={[Function]}
                                  >
                                    <span>
                                      <i
                                        className="icon-cart"
                                      />
                                      <Badge
                                        bsClass="badge"
                                        className="badge-size"
                                        pullRight={false}
                                      >
                                        <span
                                          className="badge-size badge"
                                        >
                                          1
                                        </span>
                                      </Badge>
                                    </span>
                                  </a>
                                </li>
                                <li
                                  className=""
                                >
                                  <a
                                    href="/"
                                    onClick={[Function]}
                                  >
                                    <span>
                                      <i
                                        className="icon-user-avtar"
                                      />
                                    </span>
                                  </a>
                                </li>
                              </ul>
                            </div>
                          </Col>
                        </div>
                      </Row>
                    </div>
                  </Grid>
                </section>
              </TopHeader>
              <HeaderMenu
                currentLocation="/"
                navLinks={
                  Array [
                    Object {
                      "isExternal": false,
                      "title": "Home",
                      "url": "/",
                    },
                    Object {
                      "isExternal": false,
                      "title": "What Qualifies",
                      "url": "/whatqualifies",
                    },
                    Object {
                      "isExternal": false,
                      "title": "Submit Invoices",
                      "url": "/submitinvoice",
                    },
                    Object {
                      "isExternal": false,
                      "title": "Redeem Points",
                      "url": "/redeempoints",
                    },
                    Object {
                      "isExternal": false,
                      "title": "Claim Status",
                      "url": "/claimstatus",
                    },
                    Object {
                      "isExternal": false,
                      "title": "Points History",
                      "url": "/pointshistory",
                    },
                    Object {
                      "isExternal": true,
                      "title": "Contractor Zone",
                      "url": "https://cczuat.gaf.com",
                    },
                  ]
                }
                onNavigationClick={[Function]}
              >
                <section
                  className="navbar-section"
                >
                  <div
                    className="header-menu"
                  >
                    <Uncontrolled(Navbar)
                      bsStyle="default"
                      collapseOnSelect={true}
                    >
                      <Navbar
                        bsClass="navbar"
                        bsStyle="default"
                        collapseOnSelect={true}
                        componentClass="nav"
                        fixedBottom={false}
                        fixedTop={false}
                        fluid={false}
                        inverse={false}
                        onToggle={[Function]}
                        staticTop={false}
                      >
                        <nav
                          className="navbar navbar-default"
                        >
                          <Grid
                            bsClass="container"
                            componentClass="div"
                            fluid={false}
                          >
                            <div
                              className="container"
                            >
                              <NavbarHeader>
                                <div
                                  className="navbar-header"
                                >
                                  <NavbarToggle>
                                    <button
                                      className="navbar-toggle collapsed"
                                      onClick={[Function]}
                                      type="button"
                                    >
                                      <span
                                        className="sr-only"
                                      >
                                        Toggle navigation
                                      </span>
                                      <span
                                        className="icon-bar"
                                      />
                                      <span
                                        className="icon-bar"
                                      />
                                      <span
                                        className="icon-bar"
                                      />
                                    </button>
                                  </NavbarToggle>
                                </div>
                              </NavbarHeader>
                              <NavbarCollapse>
                                <Collapse
                                  appear={false}
                                  dimension="height"
                                  getDimensionValue={[Function]}
                                  in={false}
                                  mountOnEnter={false}
                                  timeout={300}
                                  unmountOnExit={false}
                                >
                                  <Transition
                                    appear={false}
                                    aria-expanded={null}
                                    enter={true}
                                    exit={true}
                                    in={false}
                                    mountOnEnter={false}
                                    onEnter={[Function]}
                                    onEntered={[Function]}
                                    onEntering={[Function]}
                                    onExit={[Function]}
                                    onExited={[Function]}
                                    onExiting={[Function]}
                                    timeout={300}
                                    unmountOnExit={false}
                                  >
                                    <div
                                      aria-expanded={null}
                                      className="navbar-collapse collapse"
                                    >
                                      <Nav
                                        bsClass="nav"
                                        justified={false}
                                        pullLeft={false}
                                        pullRight={false}
                                        stacked={false}
                                      >
                                        <ul
                                          className="nav navbar-nav"
                                          role={null}
                                        >
                                          <NavItem
                                            active={false}
                                            className="active"
                                            disabled={false}
                                            href="/"
                                            key=".$0"
                                            onClick={[Function]}
                                            onSelect={[Function]}
                                          >
                                            <li
                                              className="active"
                                              role="presentation"
                                            >
                                              <SafeAnchor
                                                componentClass="a"
                                                disabled={false}
                                                href="/"
                                                onClick={[Function]}
                                              >
                                                <a
                                                  href="/"
                                                  onClick={[Function]}
                                                  onKeyDown={[Function]}
                                                >
                                                  Home
                                                </a>
                                              </SafeAnchor>
                                            </li>
                                          </NavItem>
                                          <NavItem
                                            active={false}
                                            className=""
                                            disabled={false}
                                            href="/"
                                            key=".$1"
                                            onClick={[Function]}
                                            onSelect={[Function]}
                                          >
                                            <li
                                              className=""
                                              role="presentation"
                                            >
                                              <SafeAnchor
                                                componentClass="a"
                                                disabled={false}
                                                href="/"
                                                onClick={[Function]}
                                              >
                                                <a
                                                  href="/"
                                                  onClick={[Function]}
                                                  onKeyDown={[Function]}
                                                >
                                                  What Qualifies
                                                </a>
                                              </SafeAnchor>
                                            </li>
                                          </NavItem>
                                          <NavItem
                                            active={false}
                                            className=""
                                            disabled={false}
                                            href="/"
                                            key=".$2"
                                            onClick={[Function]}
                                            onSelect={[Function]}
                                          >
                                            <li
                                              className=""
                                              role="presentation"
                                            >
                                              <SafeAnchor
                                                componentClass="a"
                                                disabled={false}
                                                href="/"
                                                onClick={[Function]}
                                              >
                                                <a
                                                  href="/"
                                                  onClick={[Function]}
                                                  onKeyDown={[Function]}
                                                >
                                                  Submit Invoices
                                                </a>
                                              </SafeAnchor>
                                            </li>
                                          </NavItem>
                                          <NavItem
                                            active={false}
                                            className=""
                                            disabled={false}
                                            href="/"
                                            key=".$3"
                                            onClick={[Function]}
                                            onSelect={[Function]}
                                          >
                                            <li
                                              className=""
                                              role="presentation"
                                            >
                                              <SafeAnchor
                                                componentClass="a"
                                                disabled={false}
                                                href="/"
                                                onClick={[Function]}
                                              >
                                                <a
                                                  href="/"
                                                  onClick={[Function]}
                                                  onKeyDown={[Function]}
                                                >
                                                  Redeem Points
                                                </a>
                                              </SafeAnchor>
                                            </li>
                                          </NavItem>
                                          <NavItem
                                            active={false}
                                            className=""
                                            disabled={false}
                                            href="/"
                                            key=".$4"
                                            onClick={[Function]}
                                            onSelect={[Function]}
                                          >
                                            <li
                                              className=""
                                              role="presentation"
                                            >
                                              <SafeAnchor
                                                componentClass="a"
                                                disabled={false}
                                                href="/"
                                                onClick={[Function]}
                                              >
                                                <a
                                                  href="/"
                                                  onClick={[Function]}
                                                  onKeyDown={[Function]}
                                                >
                                                  Claim Status
                                                </a>
                                              </SafeAnchor>
                                            </li>
                                          </NavItem>
                                          <NavItem
                                            active={false}
                                            className=""
                                            disabled={false}
                                            href="/"
                                            key=".$5"
                                            onClick={[Function]}
                                            onSelect={[Function]}
                                          >
                                            <li
                                              className=""
                                              role="presentation"
                                            >
                                              <SafeAnchor
                                                componentClass="a"
                                                disabled={false}
                                                href="/"
                                                onClick={[Function]}
                                              >
                                                <a
                                                  href="/"
                                                  onClick={[Function]}
                                                  onKeyDown={[Function]}
                                                >
                                                  Points History
                                                </a>
                                              </SafeAnchor>
                                            </li>
                                          </NavItem>
                                          <NavItem
                                            active={false}
                                            className=""
                                            disabled={false}
                                            href="/"
                                            key=".$6"
                                            onClick={[Function]}
                                            onSelect={[Function]}
                                          >
                                            <li
                                              className=""
                                              role="presentation"
                                            >
                                              <SafeAnchor
                                                componentClass="a"
                                                disabled={false}
                                                href="/"
                                                onClick={[Function]}
                                              >
                                                <a
                                                  href="/"
                                                  onClick={[Function]}
                                                  onKeyDown={[Function]}
                                                >
                                                  Contractor Zone
                                                </a>
                                              </SafeAnchor>
                                            </li>
                                          </NavItem>
                                        </ul>
                                      </Nav>
                                    </div>
                                  </Transition>
                                </Collapse>
                              </NavbarCollapse>
                            </div>
                          </Grid>
                        </nav>
                      </Navbar>
                    </Uncontrolled(Navbar)>
                  </div>
                </section>
              </HeaderMenu>
              <IdleTimePopup
                onConfirmClick={[Function]}
                onLogout={[Function]}
              >
                <Dialog
                  body={
                    <p>
                      Your session has been expired due to inactivity. Please click OK to continue your session.
                    </p>
                  }
                  className="gaf-model-popup idle-popup"
                  footer={
                    <div
                      className="idle-popup-footer"
                    >
                      <Button
                        active={false}
                        block={false}
                        bsClass="btn"
                        bsStyle="default"
                        className="btn gaf-btn-secondary btn-block"
                        disabled={false}
                        onClick={[Function]}
                      >
                        Cancel
                      </Button>
                      <Button
                        active={false}
                        block={false}
                        bsClass="btn"
                        bsStyle="default"
                        className="btn gaf-btn-primary btn-block"
                        disabled={false}
                        onClick={[Function]}
                      >
                        Ok
                      </Button>
                    </div>
                  }
                  onCloseClick={[Function]}
                  show={false}
                  title="Session Expired"
                >
                  <Modal
                    animation={true}
                    autoFocus={true}
                    backdrop={true}
                    bsClass="modal"
                    className="gaf-model-popup idle-popup"
                    dialogComponentClass={[Function]}
                    enforceFocus={true}
                    keyboard={true}
                    manager={
                      ModalManager {
                        "add": [Function],
                        "containers": Array [],
                        "data": Array [],
                        "handleContainerOverflow": true,
                        "hideSiblingNodes": true,
                        "isTopModal": [Function],
                        "modals": Array [],
                        "remove": [Function],
                      }
                    }
                    onHide={[Function]}
                    renderBackdrop={[Function]}
                    restoreFocus={true}
                    show={false}
                  >
                    <Modal
                      autoFocus={true}
                      backdrop={true}
                      backdropClassName="modal-backdrop"
                      backdropTransition={[Function]}
                      containerClassName="modal-open"
                      enforceFocus={true}
                      keyboard={true}
                      manager={
                        ModalManager {
                          "add": [Function],
                          "containers": Array [],
                          "data": Array [],
                          "handleContainerOverflow": true,
                          "hideSiblingNodes": true,
                          "isTopModal": [Function],
                          "modals": Array [],
                          "remove": [Function],
                        }
                      }
                      onEntering={[Function]}
                      onExited={[Function]}
                      onHide={[Function]}
                      renderBackdrop={[Function]}
                      restoreFocus={true}
                      show={false}
                      transition={[Function]}
                    />
                  </Modal>
                </Dialog>
              </IdleTimePopup>
              <Dialog
                footer={
                  <div>
                    <Button
                      active={false}
                      block={false}
                      bsClass="btn"
                      bsStyle="default"
                      disabled={false}
                      onClick={[Function]}
                    >
                      No
                    </Button>
                    <Button
                      active={false}
                      block={false}
                      bsClass="btn"
                      bsStyle="primary"
                      disabled={false}
                      onClick={[Function]}
                    >
                      Yes
                    </Button>
                  </div>
                }
                onCloseClick={[Function]}
                show={false}
                title="Are you sure you want to logout?"
              >
                <Modal
                  animation={true}
                  autoFocus={true}
                  backdrop={true}
                  bsClass="modal"
                  className=""
                  dialogComponentClass={[Function]}
                  enforceFocus={true}
                  keyboard={true}
                  manager={
                    ModalManager {
                      "add": [Function],
                      "containers": Array [],
                      "data": Array [],
                      "handleContainerOverflow": true,
                      "hideSiblingNodes": true,
                      "isTopModal": [Function],
                      "modals": Array [],
                      "remove": [Function],
                    }
                  }
                  onHide={[Function]}
                  renderBackdrop={[Function]}
                  restoreFocus={true}
                  show={false}
                >
                  <Modal
                    autoFocus={true}
                    backdrop={true}
                    backdropClassName="modal-backdrop"
                    backdropTransition={[Function]}
                    containerClassName="modal-open"
                    enforceFocus={true}
                    keyboard={true}
                    manager={
                      ModalManager {
                        "add": [Function],
                        "containers": Array [],
                        "data": Array [],
                        "handleContainerOverflow": true,
                        "hideSiblingNodes": true,
                        "isTopModal": [Function],
                        "modals": Array [],
                        "remove": [Function],
                      }
                    }
                    onEntering={[Function]}
                    onExited={[Function]}
                    onHide={[Function]}
                    renderBackdrop={[Function]}
                    restoreFocus={true}
                    show={false}
                    transition={[Function]}
                  />
                </Modal>
              </Dialog>
            </header>
          </HeaderContainer>
        </Connect(HeaderContainer)>
      </Route>
    </withRouter(Connect(HeaderContainer))>
  </Router>
</Provider>
`;
