{
    "base":"/meditrac",
    "baseURI": "https://ghs-hsp-dotnet-w-service01-demoslot.azurewebsites.net/",
    "getFindControlsAPI": "common/api/Common/GetFindControls",
    "getResultCountAPI": "provider/providers/api/Provider/Providers/GetReferenceCodes_V2",
    "findOfficesAPI": "provider/providers/api/Provider/Providers/GetOffices_V2",
    "findContractsAPI": "provider/contracts/api/Provider/Contracts/GetContracts",
    "getBenefitStructuresAPI": "provider/contracts/api/Provider/Contracts/GetBenefitStructures",
    "findProfilesAPI": "common/api/Common/GetFindProfiles",
    "connectUserAPI": "common/api/Common/ConnectUser",
    "disConnectUser": "common/api/Common/DisConnectUser",
    "getSessionIDAPI": "common/api/Common/SessionID",
    "getReferenceCodesAPI": "common/api/common/GetReferenceCodesV2",
    "getCountriesAPI": "provider/providers/api/Provider/Providers/GetCountries",
    "getDemographicsAPI": "provider/providers/api/Provider/Providers/GetDemographicsFromZips",
    "getListViewProfileSettingsAPI": "common/api/Common/GetListviewProfileSettings",
    "getDynamicSearchParameter": "provider/contracts/api/Provider/Contracts/GetFindControls",
    "setUserOptions": "common/api/Common/SetUserOptions",
    "getUserOptions": "common/api/Common/GetUserOptions",
    "getXmlStyleSheet": "common/api/Common/GetXMLStylesheet",
    "GetUserReports":"common/api/Common/GetUserReports",
    "GetReferenceCodes":"/common/api/common/GetReferenceCodesV2",
    "setUserListViewSetting": "/WorkFlow/EventViewer/AddUserListviewSetting",
    "getUserListViewSetting": "/common/api/Common/GetUserListviewSettings",
    "getPermisstion":"common/api/Common/CheckPermission",
    "getFindCommandsAPI": "common/api/Common/GetFindCommands"
}