// Jest Snapshot v1, https://goo.gl/fbAQLP

exports[`QuickAccess should render correctly 1`] = `
<section
  className="quick-access-list"
/>
`;

exports[`QuickAccess without links should render correctly 1`] = `
<section
  className="quick-access-list"
/>
`;
