// Jest Snapshot v1, https://goo.gl/fbAQLP

exports[`DistributorSubmission should render correctly 1`] = `
<div
  className="distributor-submission-desc  panel-body-content"
>
  <div
    className="mail-invoice-desc"
  >
    <p>
      You can ask your local distributor submit a summary report on your behalf!
    </p>
  </div>
  <div
    className="mail-invoice-note"
  >
    <p>
      <strong>
        PLEASE NOTE:
      </strong>
       Summary reports will only be accepted if the distributor sends the information directly to ACB from their distributor email address and if it includes the correct fields (fields are listed on the distributor instruction sheet). Reports will not be accepted if submitted by the contractor or any GAF representative, regardless of the file format.
    </p>
    <p>
      Please instruct your local distributor to submit your summary reports directly to ACB from their email address. They should email the report directly to GAFRewards@acbcoop.com.
    </p>
  </div>
  <p>
    Please download the distributor instruction sheet and hand it to your distributor.
  </p>
  <p>
    Thank you!
  </p>
  <div
    className="print-claim-form-btn"
  >
    <button
      className="btn gaf-btn-primary"
      onClick={[Function]}
    >
      PRINT CLAIM FORM
    </button>
  </div>
</div>
`;
