// Jest Snapshot v1, https://goo.gl/fbAQLP

exports[`contractorList should render correctly 1`] = `
<div
  className="gaf-table"
>
  <Tables
    config={
      Array [
        Object {
          "key": "custID",
          "title": "CUSTOMER ID #",
        },
        Object {
          "key": "contractorName",
          "title": "CONTRACTOR NAME",
        },
        Object {
          "key": "city",
          "title": "CITY",
        },
        Object {
          "key": "state",
          "title": "STATE",
        },
        Object {
          "key": "contractorType",
          "title": "CONTRACTOR TYPE",
        },
        Object {
          "key": "planType",
          "title": "PLAN TYPE",
        },
        Object {
          "key": "redeemAch",
          "title": "REDEEM ACH",
        },
        Object {
          "key": "planDetails",
          "title": "PLAN DETAILS",
        },
      ]
    }
    data={
      Array [
        Object {
          "city": "Parsippany",
          "contractorName": "Ridgeline roofing",
          "contractorType": "Certified",
          "custID": "114456",
          "planDetails": <button
            className="btn gaf-btn-secondary gaf-btn-sm"
          >
            View
          </button>,
          "planType": "Custom",
          "redeemAch": <Toggle
            id={0}
            isToggle="yes"
            onChange={[Function]}
          />,
          "state": "NJ",
        },
      ]
    }
    onSortingClick={[Function]}
  />
</div>
`;

exports[`contractorList with unsupplied contractorlist property values should render correctly 1`] = `
<div>
  <Tables
    config={
      Array [
        Object {
          "key": "displayContractorId",
          "sort": true,
          "title": "ACCOUNT #",
        },
        Object {
          "key": "contractorName",
          "sort": true,
          "title": "CONTRACTOR NAME",
        },
        Object {
          "key": "city",
          "sort": true,
          "title": "CITY",
        },
        Object {
          "key": "state",
          "sort": true,
          "title": "STATE",
        },
        Object {
          "key": "contractorType",
          "sort": true,
          "title": "CONTRACTOR TYPE",
        },
        Object {
          "key": "planType",
          "sort": true,
          "title": "PLAN TYPE",
        },
        Object {
          "key": "isAchEnabled",
          "sort": false,
          "title": "REDEEM ACH",
        },
        Object {
          "key": "planDetails",
          "sort": false,
          "title": "PLAN DETAILS",
        },
      ]
    }
    data={
      Array [
        Object {
          "address": Object {
            "city": "",
            "state": "NJ",
          },
          "city": <ToolTip
            id="N/A"
            placement="top"
            show={true}
            text="N/A"
          >
            <span
              role="button"
            >
              N/A
            </span>
          </ToolTip>,
          "contractorName": <ToolTip
            id="N/A"
            placement="top"
            show={true}
            text="N/A"
          >
            <span
              role="button"
            >
              N/A
            </span>
          </ToolTip>,
          "contractorType": "N/A",
          "custID": "114456",
          "displayContractorId": "N/A",
          "isAchEnabled": <Toggle
            id={0}
            isToggle="yes"
            onChange={[Function]}
          />,
          "planDetails": <button
            className="btn gaf-btn-secondary gaf-btn-sm"
            onClick={[Function]}
          >
            View
          </button>,
          "planType": "N/A",
          "state": "N/A",
        },
      ]
    }
    isLoading={true}
    onSortingClick={[MockFunction]}
  />
</div>
`;
